AWSTATS DATA FILE 7.6 (build 20161204)
# If you remove this file, all statistics for date 201802 will be lost/reset.
# Last config file used to build this data file was /home/ecomatrixnutrien/tmp/awstats/ssl/awstats.ecomatrixnutrients.in.conf.

# Position (offset in bytes) in this file for beginning of each section for
# direct I/O access. If you made changes somewhere in this file, you should
# also remove completely the MAP section (AWStats will rewrite it at next
# update).
BEGIN_MAP 28
POS_GENERAL 2030                
POS_TIME 2707                
POS_VISITOR 8065                
POS_DAY 11307               
POS_DOMAIN 3439                
POS_LOGIN 3756                
POS_ROBOT 3911                
POS_WORMS 4148                
POS_EMAILSENDER 4279                
POS_EMAILRECEIVER 4422                
POS_SESSION 11943               
POS_SIDER 12151               
POS_FILETYPES 4557                
POS_DOWNLOADS 4719                
POS_OS 4767                
POS_BROWSER 4904                
POS_SCREENSIZE 5319                
POS_UNKNOWNREFERER 5393                
POS_UNKNOWNREFERERBROWSER 6023                
POS_ORIGIN 6257                
POS_SEREFERRALS 6398                
POS_PAGEREFS 6542                
POS_SEARCHWORDS 6970                
POS_KEYWORDS 7122                
POS_MISC 2371                
POS_ERRORS 7181                
POS_CLUSTER 3612                
POS_SIDER_404 7317                
END_MAP

# LastLine    = Date of last record processed - Last record line number in last log - Last record offset in last log - Last record signature value
# FirstTime   = Date of first visit for history file
# LastTime    = Date of last visit for history file
# LastUpdate  = Date of last update - Nb of parsed records - Nb of parsed old records - Nb of parsed new records - Nb of parsed corrupted - Nb of parsed dropped
# TotalVisits = Number of visits
# TotalUnique = Number of unique visitors
# MonthHostsKnown   = Number of hosts known
# MonthHostsUnKnown = Number of hosts unknown
BEGIN_GENERAL 8
LastLine 20180224094345 21 4129 3430923987010
FirstTime 20180201030550
LastTime 20180224094345
LastUpdate 20180224121232 21 0 21 0 0
TotalVisits 274                 
TotalUnique 80                  
MonthHostsKnown 0                   
MonthHostsUnknown 80                  
END_GENERAL

# Misc ID - Pages - Hits - Bandwidth
BEGIN_MISC 10
JavascriptDisabled 0 0 0
JavaEnabled 0 0 0
TotalMisc 0 0 0
RealPlayerSupport 0 0 0
AddToFavourites 0 0 0
QuickTimeSupport 0 0 0
PDFSupport 0 0 0
WindowsMediaPlayerSupport 0 0 0
FlashSupport 0 0 0
DirectorSupport 0 0 0
END_MISC

# Hour - Pages - Hits - Bandwidth - Not viewed Pages - Not viewed Hits - Not viewed Bandwidth
BEGIN_TIME 24
0 12 12 63389 10 11 74975
1 17 17 59560 16 16 96185
2 11 11 59560 9 10 109309
3 6 6 0 8 8 52634
4 12 12 119161 11 13 21252
5 33 225 4492778 10 10 39550
6 8 8 19867 10 10 36326
7 17 17 89045 7 7 72607
8 25 25 22659 9 9 18417
9 39 231 4492867 6 7 18443
10 13 13 30747 6 6 23552
11 40 112 1748191 15 16 43920
12 13 13 22587 17 17 101946
13 9 9 19867 15 16 122493
14 26 50 629650 15 15 43193
15 10 10 19867 10 10 22691
16 14 14 39693 14 14 25969
17 2 2 19867 5 5 29983
18 9 9 42513 8 8 38284
19 8 8 15831 9 9 0
20 20 20 2863 5 5 52
21 22 22 19939 12 12 104
22 23 23 39830 4 5 18417
23 17 17 99834 13 14 49907
END_TIME

# Domain - Pages - Hits - Bandwidth
# The 25 first Pages must be first (order not required for others)
BEGIN_DOMAIN 8
us 384 864 11853300
nl 13 13 205777
ru 2 2 39693
it 2 2 35698
de 2 2 0
ro 1 1 0
fr 1 1 19867
ca 1 1 15830
END_DOMAIN

# Cluster ID - Pages - Hits - Bandwidth
BEGIN_CLUSTER 0
END_CLUSTER

# Login - Pages - Hits - Bandwidth - Last visit
# The 10 first Pages must be first (order not required for others)
BEGIN_LOGIN 0
END_LOGIN

# Robot ID - Hits - Bandwidth - Last visit - Hits on robots.txt
# The 25 first Hits must be first (order not required for others)
BEGIN_ROBOT 3
no_user_agent 32 425686 20180223120423 1
Googlebot/ 3 201 20180219235821 3
curl 2 39734 20180222142527 0
END_ROBOT

# Worm ID - Hits - Bandwidth - Last visit
# The 5 first Hits must be first (order not required for others)
BEGIN_WORMS 0
END_WORMS

# EMail - Hits - Bandwidth - Last visit
# The 20 first Hits must be first (order not required for others)
BEGIN_EMAILSENDER 0
END_EMAILSENDER

# EMail - Hits - Bandwidth - Last visit
# The 20 first hits must be first (order not required for others)
BEGIN_EMAILRECEIVER 0
END_EMAILRECEIVER

# Files type - Hits - Bandwidth - Bandwidth without compression - Bandwidth after compression
BEGIN_FILETYPES 5
woff 20 1671760 0 0
css 240 5212740 0 0
html 122 1364867 0 0
php 264 20258 0 0
js 240 3900540 0 0
END_FILETYPES

# Downloads - Hits - Bandwidth
BEGIN_DOWNLOADS 0
END_DOWNLOADS

# OS ID - Hits
BEGIN_OS ID - Hits - Pages 6
win7 4 4
macosx12 6 6
winlong 2 2
win10 25 25
Unknown 844 364
linux 5 5
END_OS

# Browser ID - Hits - Pages
BEGIN_BROWSER 18
chrome50.0.2661.102 7 7
chrome40.0.2214.85 2 2
chrome34.0.1847.137 4 4
cloudflare 540 60
firefox58.0 1 1
chrome46.0.2754.75 1 1
chrome56.0.2924.87 2 2
opera12.14 1 1
mozilla 2 2
firefox34.0 1 1
chrome61.0.3163.100 6 6
chrome36.0.1985.125 1 1
Unknown 287 287
chrome57.0.2987.133 6 6
netscape5.0 14 14
chrome45.0.2454.101 6 6
firefox40.1 1 1
chrome63.0.3239.132 4 4
END_BROWSER

# Screen size - Hits
BEGIN_SCREENSIZE 0
END_SCREENSIZE

# Unknown referer OS - Last visit date
BEGIN_UNKNOWNREFERER 8
Mozilla/5.0_(compatible;_NetcraftSurveyAgent/1.0;__info@netcraft.com) 20180206072143
Mozilla/5.0_(compatible;_CloudFlare-AlwaysOnline/1.0;__http://www.cloudflare.com/always-online)_AppleWebKit/534.34 20180222054428
Magic_Browser 20180221103859
Firefox/40.1 20180203190809
Mozilla/5.0_zgrab/0.x 20180223072656
Mozilla/5.0_(compatible;_CloudFlare-AlwaysOnline/1.0;__http://www.cloudflare.com/always-online) 20180222054414
WordPress/4.7.4;_http://ecomatrixnutrients.in 20180223205121
WordPress/4.7.4;_https://ecomatrixnutrients.in 20180224094345
END_UNKNOWNREFERER

# Unknown referer Browser - Last visit date
BEGIN_UNKNOWNREFERERBROWSER 3
WordPress/4.7.4;_https://ecomatrixnutrients.in 20180224094345
WordPress/4.7.4;_http://ecomatrixnutrients.in 20180223205121
Magic_Browser 20180221103859
END_UNKNOWNREFERERBROWSER

# Origin - Pages - Hits 
BEGIN_ORIGIN 6
From0 135 135
From1 1 1
From2 0 0
From3 23 503
From4 247 247
From5 0 0
END_ORIGIN

# Search engine referers ID - Pages - Hits
BEGIN_SEREFERRALS 0
END_SEREFERRALS

# External page referers - Pages - Hits
# The 25 first Pages must be first (order not required for others)
BEGIN_PAGEREFS 8
https://ftp.saketlogistics.com 4 100
https://ftp.anvinfosystem.com 4 100
https://ftp.shopersquare.com 3 75
https://104.37.189.66:443 3 3
https://pulsarconnexions.krsdata.net 3 75
https://ftp.satpurabio.com 3 75
https://ftp.aarneel.com 2 50
https://ftp.krishanaassociates.com 1 25
END_PAGEREFS

# Search keyphrases - Number of search
# The 10 first number of search must be first (order not required for others)
BEGIN_SEARCHWORDS 0
END_SEARCHWORDS

# Search keywords - Number of search
# The 25 first number of search must be first (order not required for others)
BEGIN_KEYWORDS 0
END_KEYWORDS

# Errors - Hits - Bandwidth
BEGIN_ERRORS 5
404 23 354057
301 37 0
500 12 0
401 17 215056
400 127 25475
END_ERRORS

# URL with 404 errors - Hits - Last URL referrer
BEGIN_SIDER_404 11
/apple-app-site-association 3 -
/a2billing/common/javascript/misc.js 3 -
/cgi-bin/authLogin.cgi 1 https://104.37.189.66:443/cgi-bin/authLogin.cgi
/sitemap.xml 1 -
/.well-known/assetlinks.json 3 -
/.well-known/apple-app-site-association 3 -
/.well-known/security.txt 1 -
/current_config/passwd 1 -
/admin/config.php 4 -
/wp-cron.php 2 https://ecomatrixnutrients.in/wp-cron.php
https://unite.nike.com/login 1 https://www.nike.com/cn/zh_cn/
END_SIDER_404

# Host - Pages - Hits - Bandwidth - Last visit date - [Start date of last visit] - [Last page of last visit]
# [Start date of last visit] and [Last page of last visit] are saved only if session is not finished
# The 25 first Hits must be first (order not required for others)
BEGIN_VISITOR 80
104.37.189.66 277 277 432 20180224094345 20180224094338 /wp-admin/admin-ajax.php
139.162.78.135 6 6 86035 20180222181849
71.6.202.204 6 6 99646 20180223230445
54.183.130.127 6 6 118956 20180221051714
209.126.136.7 6 6 107234 20180221024107
71.6.165.200 4 4 79468 20180222042734
35.162.70.167 4 4 10880 20180220110737
52.34.24.33 4 4 10880 20180221103859
172.68.65.40 4 4 79468 20180222054310
162.158.79.231 4 4 79468 20180222054417
172.69.62.20 3 3 59601 20180219094242
162.158.78.206 3 3 59601 20180219091256
139.162.113.204 3 3 59601 20180217210800
139.162.116.133 3 3 40274 20180222222526
172.69.62.170 3 3 59601 20180218113739
172.69.62.152 2 2 39734 20180212090925
164.132.91.13 2 2 35698 20180220141057
138.246.253.19 2 2 0 20180215161926
52.41.211.72 2 2 5440 20180217100600
198.20.103.245 2 2 22646 20180209113942
172.68.142.57 1 1 0 20180211113552
162.243.146.131 1 1 19867 20180212022948
108.162.246.207 1 1 0 20180208054401
162.158.65.199 1 25 539252 20180205145736
185.100.87.246 1 1 0 20180212014622
162.158.64.49 1 25 539252 20180222054315
62.4.14.206 1 1 19867 20180216101424
172.68.142.129 1 1 0 20180205145722
162.158.64.217 1 25 539252 20180215054313
107.170.232.24 1 1 16250 20180207074447
162.158.65.162 1 25 539252 20180201054255
108.162.245.188 1 1 0 20180208054245
108.162.245.230 1 1 0 20180219091253
162.158.64.239 1 25 539252 20180212094246
165.227.189.248 1 1 17195 20180206072143
162.158.65.200 1 25 539252 20180205091112
162.158.64.184 1 25 539252 20180201054423
107.170.235.78 1 1 311 20180201145448
162.158.65.90 1 25 539252 20180211113558
162.158.64.48 1 25 539252 20180212090933
71.6.142.85 1 1 19867 20180208010001
162.243.139.33 1 1 19867 20180204063737
107.6.150.244 1 1 19867 20180216233358
162.158.64.75 1 25 539252 20180219094248
172.68.141.74 1 1 0 20180212091125
107.170.227.44 1 1 19867 20180210135921
192.241.235.168 1 1 19867 20180208013342
108.162.246.243 1 1 0 20180222054414
162.158.65.219 1 25 539252 20180205094244
31.211.86.13 1 1 19826 20180211113617
162.158.64.131 1 25 539252 20180205090926
108.162.245.200 1 1 0 20180218113727
108.162.245.92 1 1 0 20180205091100
172.68.143.202 1 1 0 20180215054409
159.89.185.246 1 1 15830 20180206071350
162.158.106.70 1 1 0 20180212090920
162.158.64.73 1 25 539252 20180222054428
139.162.106.181 1 1 19867 20180213004335
162.158.64.178 1 25 539252 20180218113743
185.110.132.232 1 1 19867 20180214142931
108.162.246.177 1 1 0 20180222054306
162.158.64.203 1 25 539252 20180204113900
107.170.235.55 1 1 2779 20180213203012
172.68.142.117 1 1 0 20180201054402
192.241.216.154 1 1 19867 20180223072656
162.158.78.140 1 1 19867 20180205145724
162.158.64.174 1 25 539252 20180208054412
162.158.65.76 1 25 539252 20180208054253
162.158.255.98 1 1 0 20180204113851
162.243.140.98 1 1 19867 20180216235046
162.158.64.206 1 25 539252 20180215054434
162.158.64.199 1 25 539252 20180212091138
107.170.236.98 1 1 19867 20180204174816
108.162.245.254 1 1 0 20180201054242
172.69.23.103 1 1 0 20180205090856
162.158.65.183 1 25 539252 20180219091300
172.68.143.4 1 1 0 20180215054300
172.68.143.118 1 1 0 20180212094237
162.158.255.224 1 1 0 20180205094233
108.162.246.27 1 1 0 20180219094237
END_VISITOR

# Date - Pages - Hits - Bandwidth - Visits
BEGIN_DAY 24
20180201 16 64 1158283 15
20180202 13 13 22546 10
20180203 14 14 38430 11
20180204 10 34 601573 9
20180205 30 126 2259111 20
20180206 23 23 95317 15
20180207 10 10 16262 7
20180208 24 72 1178198 15
20180209 13 13 42484 9
20180210 10 10 39734 8
20180211 11 35 598824 7
20180212 22 94 1736917 20
20180213 16 16 45292 12
20180214 23 23 20479 9
20180215 23 71 1126149 16
20180216 17 17 99306 12
20180217 30 30 42538 12
20180218 14 38 585506 9
20180219 13 61 1120958 12
20180220 14 14 22587 9
20180221 14 14 42425 10
20180222 20 68 1237440 17
20180223 23 23 39794 9
20180224 3 3 12 1
END_DAY

# Session range - Number of visits
BEGIN_SESSION 7
30mn-1h 19
30s-2mn 5
0s-30s 231
5mn-15mn 3
15mn-30mn 8
1h+ 5
2mn-5mn 2
END_SESSION

# URL - Pages - Bandwidth - Entry - Exit
# The 25 first Pages must be first (order not required for others)
BEGIN_SIDER 5
/wp-cron.php 191 0 122 131
/ 122 1364867 113 109
/wp-admin/admin-ajax.php 72 432 18 12
/wp-content/themes/safreen/fonts/awesome/fonts/fontawesome-webfont.woff 20 1671760 20 20
/index.php 1 19826 1 1
END_SIDER
