AWSTATS DATA FILE 7.4 (build 20140726)
# If you remove this file, all statistics for date 201712 will be lost/reset.
# Last config file used to build this data file was /home/ecomatrixnutrien/tmp/awstats/ssl/awstats.ecomatrixnutrients.in.conf.

# Position (offset in bytes) in this file for beginning of each section for
# direct I/O access. If you made changes somewhere in this file, you should
# also remove completely the MAP section (AWStats will rewrite it at next
# update).
BEGIN_MAP 28
POS_GENERAL 2030                
POS_TIME 2708                
POS_VISITOR 8111                
POS_DAY 15112               
POS_DOMAIN 3492                
POS_LOGIN 3831                
POS_ROBOT 3986                
POS_WORMS 4285                
POS_EMAILSENDER 4416                
POS_EMAILRECEIVER 4559                
POS_SESSION 15920               
POS_SIDER 16129               
POS_FILETYPES 4694                
POS_DOWNLOADS 4854                
POS_OS 4902                
POS_BROWSER 5042                
POS_SCREENSIZE 5466                
POS_UNKNOWNREFERER 5540                
POS_UNKNOWNREFERERBROWSER 6205                
POS_ORIGIN 6513                
POS_SEREFERRALS 6654                
POS_PAGEREFS 6798                
POS_SEARCHWORDS 7170                
POS_KEYWORDS 7322                
POS_MISC 2372                
POS_ERRORS 7381                
POS_CLUSTER 3687                
POS_SIDER_404 7522                
END_MAP

# LastLine    = Date of last record processed - Last record line number in last log - Last record offset in last log - Last record signature value
# FirstTime   = Date of first visit for history file
# LastTime    = Date of last visit for history file
# LastUpdate  = Date of last update - Nb of parsed records - Nb of parsed old records - Nb of parsed new records - Nb of parsed corrupted - Nb of parsed dropped
# TotalVisits = Number of visits
# TotalUnique = Number of unique visitors
# MonthHostsKnown   = Number of hosts known
# MonthHostsUnKnown = Number of hosts unknown
BEGIN_GENERAL 8
LastLine 20180101001930 12 2477 11200155468893
FirstTime 20171201030257
LastTime 20171231205652
LastUpdate 20180101121218 12 0 11 0 0
TotalVisits 460                 
TotalUnique 174                 
MonthHostsKnown 0                   
MonthHostsUnknown 175                 
END_GENERAL

# Misc ID - Pages - Hits - Bandwidth
BEGIN_MISC 10
QuickTimeSupport 0 0 0
PDFSupport 0 0 0
JavaEnabled 0 0 0
JavascriptDisabled 0 0 0
AddToFavourites 0 0 0
WindowsMediaPlayerSupport 0 0 0
TotalMisc 0 0 0
DirectorSupport 0 0 0
FlashSupport 0 0 0
RealPlayerSupport 0 0 0
END_MISC

# Hour - Pages - Hits - Bandwidth - Not viewed Pages - Not viewed Hits - Not viewed Bandwidth
BEGIN_TIME 24
0 37 181 3410195 35 42 228830
1 33 129 2356218 21 23 80041
2 17 17 99335 19 19 105532
3 24 24 158936 40 40 182442
4 20 20 139069 33 34 137453
5 7 7 19867 7 7 18417
6 34 130 2435105 8 9 58110
7 35 35 159032 8 8 19867
8 28 28 102121 11 12 42754
9 25 25 139580 12 13 27755
10 18 66 1212760 13 13 114760
11 29 77 1231057 33 34 132215
12 36 36 250645 26 26 241621
13 24 24 119161 21 21 178782
14 17 17 79468 15 15 82104
15 17 17 121981 10 11 0
16 29 101 1856119 20 22 205772
17 28 124 2375545 10 10 0
18 13 13 99335 6 6 0
19 12 12 119202 6 6 19867
20 57 57 159140 12 13 54738
21 43 43 157113 14 15 55133
22 21 21 198670 22 23 107496
23 18 18 139069 23 24 148519
END_TIME

# Domain - Pages - Hits - Bandwidth
# The 25 first Pages must be first (order not required for others)
BEGIN_DOMAIN 9
us 573 1173 16371367
nl 29 29 541967
de 7 7 19867
it 4 4 57700
cn 3 3 59601
ch 2 2 13525
lv 2 2 39734
ru 1 1 15095
vn 1 1 19867
END_DOMAIN

# Cluster ID - Pages - Hits - Bandwidth
BEGIN_CLUSTER 0
END_CLUSTER

# Login - Pages - Hits - Bandwidth - Last visit
# The 10 first Pages must be first (order not required for others)
BEGIN_LOGIN 0
END_LOGIN

# Robot ID - Hits - Bandwidth - Last visit - Hits on robots.txt
# The 25 first Hits must be first (order not required for others)
BEGIN_ROBOT 5
no_user_agent 58 928514 20171231130805 0
netcraft 6 69269 20171210025149 0
googlebot 3 201 20171223234625 3
curl 1 19867 20171214114133 0
checker 1 0 20171204150645 1
END_ROBOT

# Worm ID - Hits - Bandwidth - Last visit
# The 5 first Hits must be first (order not required for others)
BEGIN_WORMS 0
END_WORMS

# EMail - Hits - Bandwidth - Last visit
# The 20 first Hits must be first (order not required for others)
BEGIN_EMAILSENDER 0
END_EMAILSENDER

# EMail - Hits - Bandwidth - Last visit
# The 20 first hits must be first (order not required for others)
BEGIN_EMAILRECEIVER 0
END_EMAILRECEIVER

# Files type - Hits - Bandwidth - Bandwidth without compression - Bandwidth after compression
BEGIN_FILETYPES 5
css 300 6515925 0 0
php 366 480 0 0
woff 24 2006112 0 0
html 232 3740531 0 0
js 300 4875675 0 0
END_FILETYPES

# Downloads - Hits - Bandwidth
BEGIN_DOWNLOADS 0
END_DOWNLOADS

# OS ID - Hits
BEGIN_OS ID - Hits - Pages 6
macosx 12 12
win7 7 7
macosx7 1 1
winnt 38 38
Unknown 1152 552
linux 12 12
END_OS

# Browser ID - Hits - Pages
BEGIN_BROWSER 18
netscape 1 1
mozilla 1 1
cloudflare 674 74
chrome61.0.3163.100 12 12
chrome40.0.2214.93 8 8
Unknown 372 372
chrome57.0.2987.133 5 5
chrome36.0.1985.125 1 1
chrome62.0.3202.62 1 1
firefox14.0 1 1
chrome40.0.2214.85 6 6
chrome45.0.2454.101 8 8
chrome41.0.2228.0 1 1
chrome21.0.1180.82 1 1
chrome50.0.2661.102 17 17
netscape5.0 104 104
firefox15.0 1 1
chrome34.0.1847.137 8 8
END_BROWSER

# Screen size - Hits
BEGIN_SCREENSIZE 0
END_SCREENSIZE

# Unknown referer OS - Last visit date
BEGIN_UNKNOWNREFERER 10
Mozilla_5 20171212105223
pb 20171222115901
Mozilla/5.0_(compatible;_CloudFlare-AlwaysOnline/1.0;__http://www.cloudflare.com/always-online)_AppleWebKit/534.34 20171231001046
WordPress/4.7.4;_https://ecomatrixnutrients.in 20171231205633
oz 20171229124551
Mozilla/5.0_(compatible;_CloudFlare-AlwaysOnline/1.0;__http://www.cloudflare.com/always-online) 20171231001039
Mozilla/5.0_zgrab/0.x 20171230091703
struts-pwn_(https://github.com/mazen160/struts-pwn) 20171217035500
WordPress/4.7.4;_http://ecomatrixnutrients.in 20171231205652
Chrome/41.0.2228.0_Safari/537.36 20171201192933
END_UNKNOWNREFERER

# Unknown referer Browser - Last visit date
BEGIN_UNKNOWNREFERERBROWSER 5
pb 20171222115901
WordPress/4.7.4;_https://ecomatrixnutrients.in 20171231205633
WordPress/4.7.4;_http://ecomatrixnutrients.in 20171231205652
oz 20171229124551
struts-pwn_(https://github.com/mazen160/struts-pwn) 20171217035500
END_UNKNOWNREFERERBROWSER

# Origin - Pages - Hits 
BEGIN_ORIGIN 6
From0 260 260
From1 0 0
From2 0 0
From3 24 624
From4 338 338
From5 0 0
END_ORIGIN

# Search engine referers ID - Pages - Hits
BEGIN_SEREFERRALS 0
END_SEREFERRALS

# External page referers - Pages - Hits
# The 25 first Pages must be first (order not required for others)
BEGIN_PAGEREFS 6
https://pulsarconnexions.krsdata.net 5 149
https://ftp.shopersquare.com 4 100
https://ftp.anvinfosystem.com 4 100
https://ftp.krishanaassociates.com 4 100
https://ftp.satpurabio.com 4 100
https://ftp.saketlogistics.com 3 75
END_PAGEREFS

# Search keyphrases - Number of search
# The 10 first number of search must be first (order not required for others)
BEGIN_SEARCHWORDS 0
END_SEARCHWORDS

# Search keywords - Number of search
# The 25 first number of search must be first (order not required for others)
BEGIN_KEYWORDS 0
END_KEYWORDS

# Errors - Hits - Bandwidth
BEGIN_ERRORS 5
500 23 19867
301 49 0
401 23 363135
400 252 361102
404 30 480253
END_ERRORS

# URL with 404 errors - Hits - Last URL referrer
BEGIN_SIDER_404 9
/wp-cron.php 2 https://ecomatrixnutrients.in/wp-cron.php
/.well-known/apple-app-site-association 3 -
/admin/config.php 5 -
/a2billing/common/javascript/misc.js 11 -
/.well-known/assetlinks.json 3 -
/sdk 1 -
/HNAP1 1 -
/apple-app-site-association 3 -
/nmaplowercheck1513076052 1 -
END_SIDER_404

# Host - Pages - Hits - Bandwidth - Last visit date - [Start date of last visit] - [Last page of last visit]
# [Start date of last visit] and [Last page of last visit] are saved only if session is not finished
# The 25 first Hits must be first (order not required for others)
BEGIN_VISITOR 175
104.37.189.66 369 369 480 20171231205652
139.162.116.133 9 9 178803 20171227155700
54.183.130.127 9 9 178434 20171231121218
52.19.187.176 8 8 168427 20171227124834
139.162.78.135 8 8 124760 20171230150826
139.162.106.181 7 7 139069 20171231205629
138.246.253.19 6 6 0 20171229114846
209.126.136.7 5 5 99335 20171227013242
172.68.65.64 4 4 79468 20171231001043
164.132.91.13 4 4 57700 20171227111546
172.68.65.226 3 3 59601 20171227163557
71.6.146.185 3 3 42513 20171226212041
172.68.65.10 2 2 39734 20171211011842
104.131.158.104 2 2 39734 20171222063923
159.203.94.245 2 2 39734 20171215012308
104.236.157.119 2 2 39734 20171222071251
173.245.54.5 2 2 39734 20171211063954
104.131.146.240 2 2 39734 20171222090830
104.236.170.10 2 2 39734 20171222093452
104.131.154.144 2 2 39734 20171221234130
46.183.217.244 2 2 39734 20171206214857
162.243.139.210 2 2 39734 20171222025134
172.69.62.56 2 2 39734 20171225011850
172.68.65.58 2 2 39734 20171227163318
104.236.168.66 2 2 39734 20171222163038
162.158.64.77 1 25 539252 20171211011849
104.236.153.170 1 1 19867 20171215034951
172.68.132.129 1 1 0 20171231001039
104.236.130.26 1 1 19867 20171222230143
108.162.245.140 1 1 0 20171224000626
104.236.145.216 1 1 19867 20171215061317
162.158.65.164 1 25 539252 20171209170105
162.158.106.34 1 1 0 20171227163314
162.158.65.46 1 25 539252 20171206110225
104.236.160.235 1 1 19867 20171216122517
104.236.170.57 1 1 19867 20171215194113
104.236.174.118 1 1 19867 20171222023345
104.236.183.22 1 1 19867 20171230091703
162.158.64.143 1 25 539252 20171220163644
80.82.77.33 1 1 19867 20171224183108
162.158.78.230 1 1 19867 20171206110213
104.236.147.218 1 1 19867 20171216061023
221.238.139.249 1 1 19867 20171217035500
172.68.141.200 1 1 0 20171216170157
108.162.246.63 1 1 0 20171216171059
104.236.168.155 1 1 19867 20171221203917
107.170.245.140 1 1 19867 20171222140829
162.158.64.83 1 25 539252 20171204011849
172.68.141.74 1 1 0 20171206110206
104.131.155.183 1 1 19867 20171222123214
104.236.168.76 1 1 19867 20171222181516
104.236.180.193 1 1 19867 20171223031035
104.236.188.212 1 1 19867 20171223010225
162.158.64.235 1 25 539252 20171206105840
108.162.245.68 1 1 0 20171206105825
104.236.155.249 1 1 19867 20171222041903
108.162.246.21 1 1 0 20171204011836
162.243.141.174 1 1 19867 20171214135754
172.68.189.35 1 1 0 20171204001920
104.236.139.245 1 1 19867 20171221192824
103.53.208.109 1 1 19867 20171224162137
104.236.174.97 1 1 19867 20171216010959
165.227.222.130 1 1 19867 20171205012537
104.236.155.124 1 1 19867 20171222025403
107.170.230.52 1 1 19867 20171223004320
162.158.64.167 1 25 539252 20171216171111
162.158.64.67 0 24 455664 
162.158.65.42 1 25 539252 20171218001942
108.162.245.98 1 1 0 20171211063946
162.158.65.77 1 25 539252 20171204001931
107.170.255.4 1 1 19867 20171222162014
104.236.169.96 1 1 19867 20171217140843
162.158.65.182 1 25 539252 20171227163609
104.131.135.74 1 1 19867 20171206231300
172.68.189.149 1 1 0 20171220163636
104.236.167.13 1 1 19867 20171215132235
104.236.156.98 1 1 19867 20171222040013
108.162.246.81 1 1 0 20171213110207
185.35.63.107 1 1 10746 20171222115901
107.170.200.24 1 1 19867 20171221223712
104.236.175.147 1 1 19867 20171222100330
108.162.246.27 1 1 0 20171225011845
139.162.113.204 1 1 19867 20171228073958
162.158.64.57 1 25 539252 20171227163328
162.158.64.104 1 25 539252 20171202170058
108.162.245.134 1 1 0 20171204063940
107.170.201.57 1 1 19867 20171222223937
104.131.150.173 1 1 19867 20171222164350
198.199.97.165 1 1 19867 20171221234012
104.236.161.160 1 1 19867 20171204001248
162.158.64.66 1 25 539252 20171224000632
93.174.95.106 1 1 19867 20171208193626
213.183.63.24 1 1 15095 20171212105223
104.236.167.52 1 1 19867 20171213072044
162.158.64.203 1 25 539252 20171218064636
104.131.141.125 1 1 19867 20171215164152
104.236.167.237 1 1 19867 20171215033834
108.162.245.152 1 1 0 20171211001922
108.178.61.58 1 1 19867 20171229194743
162.158.65.209 1 25 539252 20171211001937
151.217.178.37 1 1 19867 20171228145625
162.158.65.105 1 25 539252 20171213105844
104.236.158.39 2 2 39734 20171222031713
162.243.151.79 1 1 19867 20171215173331
104.236.185.162 1 1 19867 20171223005932
104.131.142.169 1 1 19867 20171215011805
104.236.143.178 1 1 19867 20171215083133
104.236.135.62 1 1 19867 20171215022713
185.35.63.61 1 1 2779 20171229124551
104.236.176.144 1 1 19867 20171215045110
107.170.219.23 1 1 19867 20171214175147
104.236.134.175 1 1 19867 20171223001539
104.236.167.211 1 1 19867 20171216160933
208.100.26.231 1 1 0 20171217141322
162.158.79.123 2 2 39734 20171209170100
104.236.169.126 1 1 19867 20171214170137
101.251.246.66 1 1 19867 20171201104138
104.131.149.60 2 2 39734 20171222163659
108.162.245.242 1 1 0 20171209170057
104.236.167.150 1 1 19867 20171214153528
108.162.245.50 1 1 0 20171225063947
162.243.147.225 1 1 19867 20171222085758
162.158.64.237 1 25 539252 20171225001943
172.68.65.106 2 2 39734 20171225001932
172.68.189.65 1 1 0 20171218001925
104.131.136.166 1 1 19867 20171214205147
104.236.152.177 1 1 19867 20171221232157
69.175.97.170 1 1 19867 20171229025213
172.69.23.49 1 1 0 20171218064630
104.236.131.64 1 1 19867 20171222052155
104.236.174.27 1 1 19867 20171215151844
104.236.170.41 1 1 19867 20171222043601
104.131.137.87 1 1 19867 20171216114317
104.131.158.159 1 1 19867 20171222162822
104.131.152.95 2 2 20407 20171222120119
104.236.172.19 1 1 19867 20171221232707
108.162.246.45 1 1 0 20171202170053
108.162.246.153 1 1 0 20171211011836
104.236.172.94 1 1 19867 20171215225917
125.212.217.214 1 1 19867 20171227092601
162.158.65.206 1 25 539252 20171225011858
104.236.157.222 1 1 19867 20171221221013
162.158.64.144 1 25 539252 20171211063958
162.158.64.210 1 25 539252 20171216170203
192.241.225.11 2 2 39734 20171222115720
104.236.169.239 1 1 19867 20171222065854
104.236.156.213 1 1 19867 20171222194602
162.158.64.172 1 25 539252 20171213110226
104.236.167.114 1 1 19867 20171221201447
162.243.159.147 1 1 19867 20171221222508
45.55.5.61 1 1 19867 20171227042006
162.158.106.46 1 1 0 20171218011844
162.158.79.177 2 2 39734 20171211001925
107.170.208.72 1 1 19867 20171221220821
104.236.166.245 2 2 39734 20171222004739
172.69.23.7 1 1 0 20171227163550
172.69.22.114 1 1 0 20171220163316
104.236.167.187 1 1 19867 20171222071921
172.68.132.87 1 1 0 20171213105828
162.158.65.43 1 25 539252 20171204063952
107.170.230.250 1 1 19867 20171213222127
162.158.79.237 2 2 39734 20171225063951
69.46.36.20 1 1 11 20171210213340
104.236.170.224 1 1 19867 20171215002248
104.236.175.185 1 1 19867 20171213130643
104.236.167.98 2 2 39734 20171222070132
104.131.141.94 1 1 19867 20171221224944
108.162.246.129 1 1 0 20171225001928
104.236.175.201 1 1 19867 20171222154840
80.82.77.139 2 2 39734 20171221180556
104.236.165.166 1 1 19867 20171222225634
104.236.166.188 1 1 19867 20171222005638
169.229.3.91 1 1 19867 20171226231213
162.158.64.174 2 50 1078504 20171225063957
104.236.168.203 1 1 540 20171222015502
END_VISITOR

# Date - Pages - Hits - Bandwidth - Visits
BEGIN_DAY 31
20171201 13 13 59613 10
20171202 9 33 578986 8
20171203 11 11 59560 9
20171204 20 92 1697224 14
20171205 9 9 59601 8
20171206 19 67 1157943 15
20171207 26 26 19939 12
20171208 14 14 74800 11
20171209 16 40 578998 12
20171210 26 26 39752 14
20171211 22 94 1717103 18
20171212 8 8 34974 6
20171213 21 69 1217573 20
20171214 26 26 258230 22
20171215 33 33 357618 28
20171216 42 90 1337375 26
20171217 12 12 59572 10
20171218 15 87 1697236 13
20171219 8 8 19867 8
20171220 14 38 578986 12
20171221 24 24 258271 22
20171222 72 72 749175 53
20171223 20 20 99335 14
20171224 14 38 598853 13
20171225 27 99 1717110 16
20171226 12 12 62380 6
20171227 39 87 1388791 24
20171228 11 11 59572 8
20171229 14 14 42513 11
20171230 9 9 22646 8
20171231 16 40 535127 9
END_DAY

# Session range - Number of visits
BEGIN_SESSION 7
0s-30s 405
2mn-5mn 1
30mn-1h 23
15mn-30mn 9
5mn-15mn 9
30s-2mn 3
1h+ 10
END_SESSION

# URL - Pages - Bandwidth - Entry - Exit
# The 25 first Pages must be first (order not required for others)
BEGIN_SIDER 11
/wp-cron.php 286 0 200 201
/ 225 3591930 220 220
/wp-admin/admin-ajax.php 80 480 16 14
/wp-content/themes/safreen/fonts/awesome/fonts/fontawesome-webfont.woff 24 2006112 24 24
/products/ 1 18964 0 0
/our-facility/ 1 22440 0 0
/bulk-supply/ 1 20900 0 0
/about-director/ 1 20760 0 0
/about/ 1 21812 0 0
/contact-us/ 1 22755 0 0
/mission-vision/ 1 20970 0 1
END_SIDER
