AWSTATS DATA FILE 7.4 (build 20140726)
# If you remove this file, all statistics for date 201710 will be lost/reset.
# Last config file used to build this data file was /home/ecomatrixnutrien/tmp/awstats/ssl/awstats.ecomatrixnutrients.in.conf.

# Position (offset in bytes) in this file for beginning of each section for
# direct I/O access. If you made changes somewhere in this file, you should
# also remove completely the MAP section (AWStats will rewrite it at next
# update).
BEGIN_MAP 28
POS_GENERAL 2030                
POS_TIME 2708                
POS_VISITOR 8088                
POS_DAY 10409               
POS_DOMAIN 3458                
POS_LOGIN 3754                
POS_ROBOT 3909                
POS_WORMS 4237                
POS_EMAILSENDER 4368                
POS_EMAILRECEIVER 4511                
POS_SESSION 11115               
POS_SIDER 11323               
POS_FILETYPES 4646                
POS_DOWNLOADS 4804                
POS_OS 4852                
POS_BROWSER 4999                
POS_SCREENSIZE 5329                
POS_UNKNOWNREFERER 5403                
POS_UNKNOWNREFERERBROWSER 5931                
POS_ORIGIN 6176                
POS_SEREFERRALS 6317                
POS_PAGEREFS 6461                
POS_SEARCHWORDS 6828                
POS_KEYWORDS 6980                
POS_MISC 2372                
POS_ERRORS 7039                
POS_CLUSTER 3610                
POS_SIDER_404 7184                
END_MAP

# LastLine    = Date of last record processed - Last record line number in last log - Last record offset in last log - Last record signature value
# FirstTime   = Date of first visit for history file
# LastTime    = Date of last visit for history file
# LastUpdate  = Date of last update - Nb of parsed records - Nb of parsed old records - Nb of parsed new records - Nb of parsed corrupted - Nb of parsed dropped
# TotalVisits = Number of visits
# TotalUnique = Number of unique visitors
# MonthHostsKnown   = Number of hosts known
# MonthHostsUnKnown = Number of hosts unknown
BEGIN_GENERAL 8
LastLine 20171101014058 15 2093 17985976413385
FirstTime 20171002215310
LastTime 20171031235215
LastUpdate 20171101120348 15 0 14 0 0
TotalVisits 249                 
TotalUnique 58                  
MonthHostsKnown 0                   
MonthHostsUnknown 58                  
END_GENERAL

# Misc ID - Pages - Hits - Bandwidth
BEGIN_MISC 10
JavascriptDisabled 0 0 0
FlashSupport 0 0 0
AddToFavourites 0 0 0
PDFSupport 0 0 0
TotalMisc 0 0 0
JavaEnabled 0 0 0
DirectorSupport 0 0 0
QuickTimeSupport 0 0 0
WindowsMediaPlayerSupport 0 0 0
RealPlayerSupport 0 0 0
END_MISC

# Hour - Pages - Hits - Bandwidth - Not viewed Pages - Not viewed Hits - Not viewed Bandwidth
BEGIN_TIME 24
0 19 91 1736917 17 18 48060
1 18 90 1697183 13 13 111860
2 5 5 19867 9 9 57280
3 10 10 0 16 17 37068
4 7 7 19867 18 19 136624
5 10 10 42513 17 17 0
6 13 37 559119 21 21 158123
7 25 25 39782 14 14 18680
8 20 44 579034 13 14 98967
9 18 18 42525 14 14 97342
10 16 40 578986 20 20 161520
11 22 94 1697224 16 16 112801
12 17 17 19867 29 30 234123
13 15 15 39734 23 23 165931
14 9 9 0 13 13 40912
15 9 9 59560 13 13 60787
16 8 8 19867 10 10 61821
17 26 98 1717838 12 12 113737
18 11 11 39734 13 14 98520
19 8 8 59601 2 2 0
20 25 25 19962 17 18 114958
21 20 20 60 23 24 62550
22 11 11 19867 16 17 18417
23 15 15 39746 15 15 50381
END_TIME

# Domain - Pages - Hits - Bandwidth
# The 25 first Pages must be first (order not required for others)
BEGIN_DOMAIN 6
us 312 672 8526047
nl 24 24 423512
de 16 16 0
it 2 2 39734
cn 2 2 39693
cl 1 1 19867
END_DOMAIN

# Cluster ID - Pages - Hits - Bandwidth
BEGIN_CLUSTER 0
END_CLUSTER

# Login - Pages - Hits - Bandwidth - Last visit
# The 10 first Pages must be first (order not required for others)
BEGIN_LOGIN 0
END_LOGIN

# Robot ID - Hits - Bandwidth - Last visit - Hits on robots.txt
# The 25 first Hits must be first (order not required for others)
BEGIN_ROBOT 6
no_user_agent 38 606695 20171031184538 0
checker 3 0 20171030121029 3
netcraft 2 34892 20171011171006 0
unknown 2 134 20171024205756 2
spider 1 67 20171029001549 1
googlebot 1 67 20171009033931 1
END_ROBOT

# Worm ID - Hits - Bandwidth - Last visit
# The 5 first Hits must be first (order not required for others)
BEGIN_WORMS 0
END_WORMS

# EMail - Hits - Bandwidth - Last visit
# The 20 first Hits must be first (order not required for others)
BEGIN_EMAILSENDER 0
END_EMAILSENDER

# EMail - Hits - Bandwidth - Last visit
# The 20 first hits must be first (order not required for others)
BEGIN_EMAILRECEIVER 0
END_EMAILRECEIVER

# Files type - Hits - Bandwidth - Bandwidth without compression - Bandwidth after compression
BEGIN_FILETYPES 5
php 254 264 0 0
html 88 959809 0 0
js 180 2925405 0 0
css 180 3909555 0 0
woff 15 1253820 0 0
END_FILETYPES

# Downloads - Hits - Bandwidth
BEGIN_DOWNLOADS 0
END_DOWNLOADS

# OS ID - Hits
BEGIN_OS ID - Hits - Pages 7
linux 5 5
winnt 24 24
Unknown 666 306
win7 18 18
winxp 1 1
macosx7 1 1
macosx 2 2
END_OS

# Browser ID - Hits - Pages
BEGIN_BROWSER 13
Unknown 258 258
cloudflare 406 46
chrome61.0.3163.100 2 2
chrome21.0.1180.82 1 1
chrome40.0.2214.85 16 16
chrome36.0.1985.125 1 1
chrome57.0.2987.133 2 2
netscape5.0 3 3
chrome50.0.2661.102 14 14
chrome21.0.1180.89 1 1
mozilla 1 1
chrome45.0.2454.101 8 8
chrome34.0.1847.137 4 4
END_BROWSER

# Screen size - Hits
BEGIN_SCREENSIZE 0
END_SCREENSIZE

# Unknown referer OS - Last visit date
BEGIN_UNKNOWNREFERER 6
WordPress/4.7.4;_http://ecomatrixnutrients.in 20171020210202
Mozilla/5.0_(compatible;_CloudFlare-AlwaysOnline/1.0;__http://www.cloudflare.com/always-online) 20171030072120
()_{_:;};_/bin/bash_-c_\ 20171023184209
WordPress/4.7.4;_https://ecomatrixnutrients.in 20171031235123
Mozilla/5.0_(compatible;_CloudFlare-AlwaysOnline/1.0;__http://www.cloudflare.com/always-online)_AppleWebKit/534.34 20171030011844
Mozilla/5.0_zgrab/0.x 20171020001713
END_UNKNOWNREFERER

# Unknown referer Browser - Last visit date
BEGIN_UNKNOWNREFERERBROWSER 3
WordPress/4.7.4;_http://ecomatrixnutrients.in 20171020210202
()_{_:;};_/bin/bash_-c_\ 20171023184209
WordPress/4.7.4;_https://ecomatrixnutrients.in 20171031235123
END_UNKNOWNREFERERBROWSER

# Origin - Pages - Hits 
BEGIN_ORIGIN 6
From0 104 104
From1 0 0
From2 0 0
From3 15 375
From4 238 238
From5 0 0
END_ORIGIN

# Search engine referers ID - Pages - Hits
BEGIN_SEREFERRALS 0
END_SEREFERRALS

# External page referers - Pages - Hits
# The 25 first Pages must be first (order not required for others)
BEGIN_PAGEREFS 6
https://ftp.satpurabio.com 3 75
https://ftp.shopersquare.com 3 75
https://pulsarconnexions.krsdata.net 3 75
https://ftp.krishanaassociates.com 2 50
https://ftp.saketlogistics.com 2 50
https://ftp.anvinfosystem.com 2 50
END_PAGEREFS

# Search keyphrases - Number of search
# The 10 first number of search must be first (order not required for others)
BEGIN_SEARCHWORDS 0
END_SEARCHWORDS

# Search keywords - Number of search
# The 25 first number of search must be first (order not required for others)
BEGIN_KEYWORDS 0
END_KEYWORDS

# Errors - Hits - Bandwidth
BEGIN_ERRORS 6
500 3 0
421 1 322
401 8 155550
301 24 0
400 250 453462
404 50 809273
END_ERRORS

# URL with 404 errors - Hits - Last URL referrer
BEGIN_SIDER_404 18
/.well-known/apple-app-site-association 1 -
/admin/config.php 4 -
/recordings/ 4 -
/.well-known/ct/v1/sth-pollination 1 -
/.well-known/ct/v1/collected-sct-feedback 5 -
/.well-known/ct/v1/sct-feedback 7 -
/apple-app-site-association 1 -
/ct/v1/sct-gossip 5 -
/Robots.txt 1 -
/w3wpdiag/ 1 -
https://unite.nike.com/loginWithSetCookie 1 https://www.nike.com/cn/launch/t/nikecourt-zoom-vapor-rf-aj3-atmos
/currentsetting.htm 1 -
/.well-known/assetlinks.json 1 -
/.well-known/ct/v1/sct-gossip 6 -
/elastix_warning_authentication.php 1 -
/ct/v1/sct-feedback 4 -
/SiteMap.xml 1 -
/ct/v1/sth-gossip 5 -
END_SIDER_404

# Host - Pages - Hits - Bandwidth - Last visit date - [Start date of last visit] - [Last page of last visit]
# [Start date of last visit] and [Last page of last visit] are saved only if session is not finished
# The 25 first Hits must be first (order not required for others)
BEGIN_VISITOR 58
104.37.189.66 257 257 264 20171031235123
138.246.253.15 9 9 0 20171008172726
139.162.78.135 8 8 105640 20171031094353
139.162.106.181 7 7 139069 20171028041652
139.162.116.133 7 7 139069 20171031235215
138.246.253.19 7 7 0 20171013030412
172.68.65.88 3 3 59601 20171030011837
172.68.65.40 2 2 39734 20171025105827
164.132.91.13 2 2 39734 20171023162450
172.68.65.244 2 2 39734 20171030001920
172.68.65.196 2 2 39734 20171009064521
71.6.165.200 2 2 39734 20171014074230
209.126.136.8 2 2 39734 20171027091820
173.245.54.17 2 2 39734 20171025110202
162.158.79.87 2 2 39734 20171028170534
108.162.245.230 1 1 0 20171021170927
108.162.246.177 1 1 0 20171018114840
80.82.77.139 1 1 19867 20171008114408
162.158.64.170 1 25 539252 20171023084212
101.251.246.66 1 1 19867 20171020001713
162.158.64.206 1 25 539252 20171021170936
162.158.64.178 1 25 539252 20171009011909
162.158.64.75 1 25 539252 20171009064526
172.68.142.225 1 1 0 20171018114755
54.219.178.100 1 1 19826 20171022005013
13.57.10.111 1 1 19826 20171017013943
80.82.77.33 1 1 19867 20171008152628
106.75.85.103 1 1 19826 20171012154421
162.158.65.71 1 25 539252 20171009001910
162.158.64.204 1 25 539252 20171030011844
162.158.64.69 1 25 539252 20171023001913
172.68.141.98 1 1 0 20171009011858
162.158.66.213 1 25 539252 20171028170539
162.158.65.55 1 25 539252 20171018114804
162.158.65.8 1 25 539252 20171025105837
67.21.36.2 1 1 19867 20171003231459
162.158.78.200 1 1 19867 20171009011904
162.158.64.248 1 25 539252 20171030001934
108.162.245.92 1 1 0 20171028170531
162.158.64.166 1 25 539252 20171007170549
172.68.143.154 1 1 0 20171009001904
108.162.245.8 1 1 0 20171025105819
108.162.245.188 1 1 0 20171030011829
162.158.64.103 1 25 539252 20171025110214
208.100.26.229 1 1 0 20171014040318
108.162.246.189 1 1 0 20171030001910
162.158.78.212 1 1 19867 20171009001907
108.162.245.242 1 1 0 20171009064516
172.68.143.22 1 1 0 20171023012056
162.158.106.46 1 1 0 20171025110149
69.46.36.20 1 1 11 20171008203044
162.158.65.66 1 25 539252 20171023012112
172.68.143.130 1 1 0 20171023001906
108.162.246.183 1 1 0 20171007170540
200.112.226.130 1 1 19867 20171023184209
108.162.246.135 1 1 0 20171023084154
162.158.64.205 1 25 539252 20171018114904
108.162.246.99 1 1 0 20171030072120
END_VISITOR

# Date - Pages - Hits - Bandwidth - Visits
BEGIN_DAY 29
20171002 1 1 0 1
20171003 15 15 19879 9
20171004 14 14 22646 12
20171005 12 12 19867 10
20171006 10 10 19867 9
20171007 11 35 578986 10
20171008 24 24 59660 13
20171009 23 95 1697236 18
20171010 23 23 12 9
20171011 21 21 39770 9
20171012 12 12 19826 6
20171013 11 11 12 7
20171014 11 11 59613 6
20171016 4 4 12 1
20171017 10 10 39693 8
20171018 10 58 1157972 10
20171019 5 5 0 4
20171020 17 17 19927 8
20171021 8 32 578986 8
20171022 14 14 59572 10
20171023 21 93 1736970 16
20171024 11 11 0 8
20171025 17 65 1157984 13
20171026 5 5 0 4
20171027 6 6 19867 6
20171028 13 37 598853 11
20171029 8 8 759 5
20171030 12 60 1118238 11
20171031 8 8 22646 7
END_DAY

# Session range - Number of visits
BEGIN_SESSION 7
1h+ 9
15mn-30mn 8
30s-2mn 3
2mn-5mn 1
0s-30s 200
30mn-1h 24
5mn-15mn 4
END_SESSION

# URL - Pages - Bandwidth - Entry - Exit
# The 25 first Pages must be first (order not required for others)
BEGIN_SIDER 4
/wp-cron.php 211 0 142 142
/ 88 959809 81 83
/wp-admin/admin-ajax.php 43 264 11 9
/wp-content/themes/safreen/fonts/awesome/fonts/fontawesome-webfont.woff 15 1253820 15 15
END_SIDER
