AWSTATS DATA FILE 7.4 (build 20140726)
# If you remove this file, all statistics for date 201711 will be lost/reset.
# Last config file used to build this data file was /home/ecomatrixnutrien/tmp/awstats/awstats.ecomatrixnutrients.in.conf.

# Position (offset in bytes) in this file for beginning of each section for
# direct I/O access. If you made changes somewhere in this file, you should
# also remove completely the MAP section (AWStats will rewrite it at next
# update).
BEGIN_MAP 28
POS_GENERAL 2026                
POS_TIME 2704                
POS_VISITOR 10956               
POS_DAY 15708               
POS_DOMAIN 3556                
POS_LOGIN 4173                
POS_ROBOT 4328                
POS_WORMS 4792                
POS_EMAILSENDER 4923                
POS_EMAILRECEIVER 5066                
POS_SESSION 16521               
POS_SIDER 16731               
POS_FILETYPES 5201                
POS_DOWNLOADS 5429                
POS_OS 5477                
POS_BROWSER 5763                
POS_SCREENSIZE 6640                
POS_UNKNOWNREFERER 6714                
POS_UNKNOWNREFERERBROWSER 7193                
POS_ORIGIN 7336                
POS_SEREFERRALS 7477                
POS_PAGEREFS 7643                
POS_SEARCHWORDS 7815                
POS_KEYWORDS 7967                
POS_MISC 2368                
POS_ERRORS 8026                
POS_CLUSTER 4029                
POS_SIDER_404 8203                
END_MAP

# LastLine    = Date of last record processed - Last record line number in last log - Last record offset in last log - Last record signature value
# FirstTime   = Date of first visit for history file
# LastTime    = Date of last visit for history file
# LastUpdate  = Date of last update - Nb of parsed records - Nb of parsed old records - Nb of parsed new records - Nb of parsed corrupted - Nb of parsed dropped
# TotalVisits = Number of visits
# TotalUnique = Number of unique visitors
# MonthHostsKnown   = Number of hosts known
# MonthHostsUnKnown = Number of hosts unknown
BEGIN_GENERAL 8
LastLine 20171201001800 19 3792 13945233267236
FirstTime 20171101004522
LastTime 20171130215625
LastUpdate 20171201120854 19 0 18 0 0
TotalVisits 481                 
TotalUnique 100                 
MonthHostsKnown 0                   
MonthHostsUnknown 130                 
END_GENERAL

# Misc ID - Pages - Hits - Bandwidth
BEGIN_MISC 10
JavaEnabled 0 0 0
PDFSupport 0 0 0
TotalMisc 0 0 0
AddToFavourites 0 4 0
QuickTimeSupport 0 0 0
JavascriptDisabled 0 0 0
FlashSupport 0 0 0
WindowsMediaPlayerSupport 0 0 0
RealPlayerSupport 0 0 0
DirectorSupport 0 0 0
END_MISC

# Hour - Pages - Hits - Bandwidth - Not viewed Pages - Not viewed Hits - Not viewed Bandwidth
BEGIN_TIME 24
0 38 42 834881 46 53 584494
1 41 73 1457937 28 45 557768
2 37 37 127028 60 64 552309
3 72 154 3105313 66 68 786384
4 21 21 98890 24 45 539027
5 54 140 2382129 34 38 474344
6 28 31 671067 45 48 471525
7 62 89 1127061 37 46 334032
8 71 103 822030 1524 1536 4977703
9 68 122 1947388 444 461 2056459
10 53 84 1324552 1120 1122 3650321
11 61 64 1244764 89 95 666280
12 31 33 487838 67 72 785926
13 34 34 185732 27 52 567254
14 40 40 229488 31 35 664000
15 37 37 244093 27 31 290043
16 38 38 167957 47 55 310275
17 45 74 1819707 73 122 1897013
18 24 24 98890 25 27 180445
19 39 39 166257 47 78 1014938
20 87 87 575658 1547 1551 5494114
21 69 69 279417 1359 1364 4595563
22 28 28 118668 238 261 1115303
23 56 56 312727 68 71 539848
END_TIME

# Domain - Pages - Hits - Bandwidth
# The 25 first Pages must be first (order not required for others)
BEGIN_DOMAIN 29
us 817 893 6485877
cz 133 133 2630474
in 46 267 6190133
fr 27 27 512859
ca 24 54 1423019
eu 14 14 542421
nl 10 10 39205
gb 10 10 167129
ru 9 9 127746
ph 9 66 1344039
ua 8 8 70838
de 3 3 10056
mn 2 2 5876
sk 2 2 5876
ar 2 2 8033
pl 2 2 5876
gr 2 2 5876
cl 2 2 23635
br 2 2 20823
be 1 1 19778
lt 1 2 32626
mu 1 1 19778
by 1 1 19760
bo 1 1 3853
dz 1 1 19778
it 1 1 3853
id 1 1 3853
au 1 1 66624
jp 1 1 19778
END_DOMAIN

# Cluster ID - Pages - Hits - Bandwidth
BEGIN_CLUSTER 0
END_CLUSTER

# Login - Pages - Hits - Bandwidth - Last visit
# The 10 first Pages must be first (order not required for others)
BEGIN_LOGIN 0
END_LOGIN

# Robot ID - Hits - Bandwidth - Last visit - Hits on robots.txt
# The 25 first Hits must be first (order not required for others)
BEGIN_ROBOT 9
googlebot 163 3270155 20171130014758 15
bot[\s_+:,\.\;\/\\-] 156 4042824 20171128004200 12
spider 94 2130478 20171130095612 0
unknown 13 871 20171127013144 13
googlebot\-image 11 93148 20171130221853 0
netcraft 2 39597 20171110230404 0
scanner 1 19778 20171104214550 0
crawl 1 0 20171112210345 0
no_user_agent 1 67 20171120110642 1
END_ROBOT

# Worm ID - Hits - Bandwidth - Last visit
# The 5 first Hits must be first (order not required for others)
BEGIN_WORMS 0
END_WORMS

# EMail - Hits - Bandwidth - Last visit
# The 20 first Hits must be first (order not required for others)
BEGIN_EMAILSENDER 0
END_EMAILSENDER

# EMail - Hits - Bandwidth - Last visit
# The 20 first hits must be first (order not required for others)
BEGIN_EMAILRECEIVER 0
END_EMAILRECEIVER

# Files type - Hits - Bandwidth - Bandwidth without compression - Bandwidth after compression
BEGIN_FILETYPES 9
woff2 11 732864 0 0
jpg 54 6601803 0 0
html 350 6499813 0 0
png 2 7478 0 0
css 152 3189872 0 0
gif 8 10107 0 0
js 169 2541504 0 0
xml 3 3135 0 0
php 770 242896 0 0
END_FILETYPES

# Downloads - Hits - Bandwidth
BEGIN_DOWNLOADS 0
END_DOWNLOADS

# OS ID - Hits
BEGIN_OS ID - Hits - Pages 17
winxp 37 37
win2003 1 1
ios_iphone 1 1
Unknown 797 774
win7 324 180
winnt 88 33
macosx 20 20
macosx5 1 1
linuxandroid 185 23
macosx7 1 1
win8 1 1
winlong 1 1
win2000 10 10
ios_ipad 39 39
linux 3 3
macosx9 7 7
win8.1 3 2
END_OS

# Browser ID - Hits - Pages
BEGIN_BROWSER 42
safari5.5.0 2 2
opera10.00 2 2
chrome36.0.1985.143 132 132
chrome38.0.1025.166 56 3
safari 39 39
Unknown 748 748
msie11.0 2 2
firefox49.0 1 1
safari4.7.2 1 1
firefox45.79.22 1 1
safari5.3.7 1 1
chrome54.8.3987.8259 2 2
chrome45.0.2454.94 1 1
mozilla 24 24
chrome56.0.2924.87 6 6
chrome61.0.3163.98 35 6
opera36.0.2130.32 4 4
chrome62.0.3202.94 140 24
msie6.0 14 14
opera8.50 22 22
firefox33.0 4 4
chrome9.0.597.107 1 1
chrome62.0.3202.84 93 13
chrome41.0.2227.0 2 2
chrome26.0.1410.63 1 1
chrome34.0.1847.137 1 1
firefox45.63.16 1 1
chrome53.0.2785.89 3 3
chrome61.0.3163.100 83 28
chrome21.0.1180.82 1 1
firefox29.0 4 4
chrome58.0.3029.110 5 5
chrome62.0.3202.89 35 6
safari5.0.2 1 1
firefox52.0 11 11
firefox45.62.25 1 1
msie8.0 2 2
chrome53.8.3437.8709 1 1
chrome20.0.1090.0 1 1
msie9.0 8 8
cloudflare 23 0
firefox32.0 4 4
END_BROWSER

# Screen size - Hits
BEGIN_SCREENSIZE 0
END_SCREENSIZE

# Unknown referer OS - Last visit date
BEGIN_UNKNOWNREFERER 5
WordPress/4.7.4;_http://ecomatrixnutrients.in 20171130215625
Opera/9.80_(S60;_SymbOS;_Opera_Mobi/499;_U;_ru)_Presto/2.4.18_Version/10.00 20171104233727
Mozilla/5.0_(compatible;_Dataprovider.com;) 20171126034652
Mozilla/5.0_(compatible;_ips-agent) 20171116204345
Mozilla/5.0_(compatible;_CloudFlare-AlwaysOnline/1.0;__http://www.cloudflare.com/always-online)_AppleWebKit/534.34 20171129110232
END_UNKNOWNREFERER

# Unknown referer Browser - Last visit date
BEGIN_UNKNOWNREFERERBROWSER 1
WordPress/4.7.4;_http://ecomatrixnutrients.in 20171130215625
END_UNKNOWNREFERERBROWSER

# Origin - Pages - Hits 
BEGIN_ORIGIN 6
From0 316 340
From1 0 0
From2 13 14
From3 2 2
From4 803 1163
From5 0 0
END_ORIGIN

# Search engine referers ID - Pages - Hits
BEGIN_SEREFERRALS 2
bing 1 1
google 12 13
END_SEREFERRALS

# External page referers - Pages - Hits
# The 25 first Pages must be first (order not required for others)
BEGIN_PAGEREFS 1
http://econahar.com 2 2
END_PAGEREFS

# Search keyphrases - Number of search
# The 10 first number of search must be first (order not required for others)
BEGIN_SEARCHWORDS 0
END_SEARCHWORDS

# Search keywords - Number of search
# The 25 first number of search must be first (order not required for others)
BEGIN_KEYWORDS 0
END_KEYWORDS

# Errors - Hits - Bandwidth
BEGIN_ERRORS 9
403 26 11830
302 2 0
503 6538 19375682
500 6 0
404 245 4118154
301 49 0
408 1 0
401 25 2700
405 2 84
END_ERRORS

# URL with 404 errors - Hits - Last URL referrer
BEGIN_SIDER_404 83
/CMSPages/GetCMSVersion.aspx 1 -
/pcodvi.php 1 -
/upload.php 1 -
/bubu.php 1 -
/contact.php 1 -
/contact.php.suspected 1 -
/b37.php.suspected 1 -
/wp-content/plugins/formcraft/file-upload/server/php/upload.php 3 104.37.189.66
/wp-content/plugins/wp-symposium/server/php/yuYvSBaAOFHBxJ.php 1 -
/un.php 1 -
/admin/sales_order 2 -
/modules/attributewizardpro/file_upload.php 1 -
/stats.php 1 -
/9.php 1 -
/downloader 1 -
/wp/wp-login.php 1 -
/htaccess.php.suspected 1 -
/index-OLD.php 1 -
/wp-content/plugins/revslider/sfn.php 1 -
/wp-content/plugins/wp-mobile-detector/cache/db.php 2 -
/modules/mod_simplefileuploadv1.3/elements/sfn.php 1 -
/wp-content/uploads/files/guest/sfn.php 1 -
/App_Themes/Default/CMSDesk.css 1 -
/2.php 1 -
/info.php 1 -
/api.php 1 -
/b37.php 1 -
/ 154 -
/joz.php 1 -
/blog/wp-login.php 1 -
/9.php.suspected 1 -
/7.php.suspected 1 -
/misc/img.php 1 -
/index-WP.php 1 -
/wp-content/plugins/revslider/temp/update_extract/sfn.php 1 -
/a.php 1 -
/faqs-new/wp-login.php 1 -
/wp-content/plugins/akismet/readme.txt 1 http://ecomatrixnutrients.in/wp-content/plugins/akismet/readme.txt
/4.php 1 -
/wp-content/plugins/simple-ads-manager/js/slider/tmpl.js 2 -
/CMSDesk 1 -
/soil-conditioners/ 2 -
/4.php.suspected 1 -
/administrator/ 1 -
/wp-content/uploads/2017/11/sfn.php 1 -
/xx.php 1 -
/3.php 1 -
/8.php.suspected 1 -
/..php 1 -
/confg.php 1 -
/wp-content/plugins/wp-symposium/server/php/sFkCwLxemNGIQw.php 1 -
/cpanel.php 1 -
/wp-content/uploads/sfn.php 1 -
/wp-content/plugins/Login-wall-etgFB/login_wall.php 1 -
/webinfo.php 1 -
/support/wp-login.php 1 -
/wp-content/plugins/contact-form-7/includes/js/jquery.form.min.js 2 http://ecomatrixnutrients.in/2017/03/07/quality-assurance/
/5.php 1 -
/sitemap.xml 1 -
/upgrade.php 1 -
/sites/all/libraries/elfinder/files/sfn.php 1 -
/cssf.php 1 -
/3.php.suspected 1 -
/2.php.suspected 1 -
/wp-includes/class.wp.php 1 -
/Afras.php 1 -
/news/wp-login.php 1 -
/7.php 1 -
/6.php 1 -
/htaccess.php 1 -
/5.php.suspected 1 -
/confg.php.suspected 1 -
/wordpress/wp-login.php 1 -
/,.php 1 -
/faq/wp-login.php 1 -
/CMSHelp/index.html 1 -
/wp-content/plugins/easyrotator-for-wordpress/readme.txt 1 http://ecomatrixnutrients.in/wp-content/plugins/easyrotator-for-wordpress/readme.txt
/cash.php 1 -
/wp-includes/pomo/bo.php 1 http://ecomatrixnutrients.in/wp-includes/pomo/bo.php
/6.php.suspected 1 -
/sfn.php 3 -
/8.php 1 -
/wp-content/plugins/revslider/temp/update_extract/revslider/db.php 1 -
END_SIDER_404

# Host - Pages - Hits - Bandwidth - Last visit date - [Start date of last visit] - [Last page of last visit]
# [Start date of last visit] and [Last page of last visit] are saved only if session is not finished
# The 25 first Hits must be first (order not required for others)
BEGIN_VISITOR 130
104.37.189.66 748 748 516 20171130215625
176.121.10.57 132 132 2610696 20171130215624
62.210.80.51 20 20 455210 20171129141418
167.114.209.28 15 15 616650 20171126034655
122.175.180.11 11 40 791909 20171128050737
178.62.38.80 11 11 498685 20171120110744
69.58.178.56 10 10 356014 20171116204345
89.104.167.11 9 9 35025 20171101004543
1.187.82.178 8 61 1581242 20171105030940
122.171.122.249 7 37 816547 20171103090757
182.70.180.195 6 35 754086 20171114081010
47.247.239.47 6 35 751213 20171127031936
142.54.188.42 6 6 34414 20171111112621
13.76.172.160 6 6 124512 20171113120844
180.190.182.122 5 33 593446 20171127012303
117.204.186.77 5 31 733948 20171123093726
183.82.1.74 4 33 750593 20171128105028
180.232.106.10 4 33 750593 20171129054844
198.204.248.226 3 3 11033 20171121095823
74.91.23.194 3 3 12540 20171129214903
128.199.124.86 3 3 125736 20171115175835
54.219.178.100 3 3 59334 20171126235215
204.12.239.226 3 3 12540 20171103082315
110.224.204.156 3 28 722252 20171115175828
54.83.206.9 2 2 5876 20171103213707
95.47.188.82 1 1 19778 20171112222727
54.185.52.237 1 1 19778 20171119081312
66.102.6.108 0 4 74216 
184.154.152.74 2 2 5876 20171110201231
85.159.95.205 1 1 19778 20171120190001
162.158.65.81 0 1 180186 
66.102.6.91 2 8 46653 20171128052018
66.102.6.93 0 8 37110 
66.102.7.218 0 2 16138 
162.158.65.105 0 1 180186 
91.217.57.58 1 1 4180 20171101201136
125.23.5.22 2 2 39556 20171103091740
162.158.65.183 0 1 180186 
66.102.6.106 0 10 243212 
178.62.99.175 1 1 19778 20171130152444
154.16.127.15 1 1 19778 20171119160140
162.158.66.195 0 1 180186 
186.38.11.11 2 2 8033 20171122095743
217.7.63.49 1 1 4180 20171109023106
66.102.7.220 0 5 44992 
87.244.173.30 1 1 19778 20171124054958
52.50.64.248 1 1 19778 20171119140850
185.163.127.219 1 1 3853 20171126015704
52.30.191.18 2 2 39538 20171123175957
91.200.12.28 1 1 4180 20171112190423
162.158.64.9 0 2 360372 
54.162.198.56 1 1 19778 20171109215328
54.80.161.180 1 1 19778 20171119114620
162.158.64.233 0 1 180186 
212.129.44.203 2 2 5876 20171104113611
162.158.65.21 0 1 180186 
66.102.6.92 0 2 27345 
47.247.4.22 0 1 45427 
126.126.225.229 1 1 19778 20171102032443
190.186.58.167 1 1 3853 20171130203037
85.206.226.61 1 1 19778 20171110170931
204.13.201.137 1 1 2717 20171130151947
201.18.18.173 2 2 20823 20171113081912
54.80.245.93 1 1 19778 20171119150137
66.102.6.110 1 7 291286 20171109095720
52.13.0.27 1 1 19778 20171119153742
162.158.64.75 0 1 180186 
212.110.20.141 1 1 3853 20171130104314
37.215.15.15 1 1 19760 20171101072801
162.158.65.164 0 1 180186 
139.59.42.246 1 1 66624 20171115175830
13.229.131.246 1 1 19778 20171119160949
162.158.64.133 0 1 180186 
162.158.65.77 0 2 360372 
89.184.70.7 2 2 5876 20171101065823
178.137.82.201 2 2 20823 20171111204642
176.116.7.155 1 1 19778 20171103142106
54.251.101.5 2 2 5876 20171104120749
142.4.217.149 2 2 5876 20171112233441
62.210.99.144 1 1 3857 20171123113543
83.223.124.8 2 2 5876 20171101160259
162.158.64.235 0 1 180186 
193.190.58.6 1 1 19778 20171120182048
91.200.12.91 1 1 403 20171111013231
162.158.64.105 0 1 180186 
37.9.169.20 2 2 5876 20171102030834
202.72.245.58 2 2 5876 20171106200513
176.116.6.63 1 1 19778 20171124134510
162.158.64.231 0 1 180186 
195.147.119.151 2 2 8033 20171124033633
185.81.157.39 1 1 19778 20171118070905
212.99.12.25 1 1 4180 20171105021523
52.53.129.36 2 2 39556 20171130155716
69.46.36.20 1 1 11 20171122205205
34.212.65.157 2 2 39556 20171118022053
162.158.64.170 0 1 180186 
52.200.221.20 1 1 4040 20171130152204
212.83.152.237 1 1 4180 20171103084649
36.68.54.196 1 1 3853 20171130070948
52.11.132.98 1 1 19778 20171103003242
162.158.65.70 0 1 180186 
200.27.202.116 1 1 3857 20171121093517
212.227.86.169 2 2 5876 20171102212022
108.179.196.22 2 2 5876 20171102111850
83.143.240.19 2 2 23958 20171121051217
64.145.79.94 1 1 19778 20171130054622
41.103.182.174 1 1 19778 20171104232240
188.165.244.171 1 1 19778 20171120190501
54.234.109.113 1 1 1765 20171123132014
5.172.196.241 2 2 5876 20171105215619
158.46.203.181 1 1 19778 20171116172352
96.45.70.75 2 2 39556 20171110070958
5.45.86.231 2 2 23958 20171104233727
91.231.140.80 2 2 5876 20171107211044
5.255.177.14 1 1 19778 20171114084503
66.102.7.219 0 10 532121 
104.224.137.44 1 1 3853 20171128092317
208.113.184.219 1 1 3857 20171122163837
162.158.65.116 0 1 180186 
162.158.64.59 0 1 180186 
190.114.255.36 1 1 19778 20171120205831
162.158.65.74 0 1 180186 
178.16.36.115 0 1 12848 
162.158.64.5 0 1 180186 
162.158.64.153 0 1 180186 
158.46.202.174 1 1 19778 20171112042053
23.229.43.148 2 2 45521 20171111064158
146.185.223.5 2 2 20823 20171114012251
195.2.244.193 1 1 3853 20171130033349
128.199.126.183 1 1 3853 20171130193325
END_VISITOR

# Date - Pages - Hits - Bandwidth - Visits
BEGIN_DAY 30
20171101 41 42 415104 23
20171102 34 34 136308 20
20171103 64 94 1135435 27
20171104 23 24 275242 14
20171105 26 79 1715931 13
20171106 13 16 631511 10
20171107 35 35 178792 18
20171108 23 25 524573 16
20171109 24 49 778488 18
20171110 36 36 183914 18
20171111 34 35 371558 19
20171112 29 29 168292 20
20171113 31 34 830304 20
20171114 16 45 794699 6
20171115 16 41 901201 9
20171116 39 39 474742 16
20171117 22 23 203663 16
20171118 13 14 338410 13
20171119 29 29 257150 22
20171120 33 36 1237023 21
20171121 71 71 163493 13
20171122 61 63 431667 11
20171123 71 97 858232 14
20171124 64 64 126701 13
20171125 63 64 324657 13
20171126 72 72 699627 12
20171127 53 113 1964329 14
20171128 40 127 2295796 17
20171129 27 58 1248150 13
20171130 31 31 164480 22
END_DAY

# Session range - Number of visits
BEGIN_SESSION 7
30s-2mn 7
0s-30s 373
30mn-1h 30
1h+ 40
15mn-30mn 15
2mn-5mn 7
5mn-15mn 9
END_SESSION

# URL - Pages - Bandwidth - Entry - Exit
# The 25 first Pages must be first (order not required for others)
BEGIN_SIDER 24
/wp-cron.php 626 0 212 222
/ 254 3921088 201 181
/wp-admin/admin-ajax.php 86 516 15 11
/wp-login.php 56 222217 35 25
/contact-us/ 37 788708 11 16
/feed/atom/ 13 22048 0 13
/wp-content/themes/safreen/fonts/awesome/fonts/fontawesome-webfont.woff2 11 732864 1 1
/our-facility/ 6 109573 0 1
/about/ 6 107753 1 0
/about-director/ 4 62408 0 0
/bulk-supply/ 4 62834 0 0
/foliar-application/ 4 257561 0 1
/soil-application/ 4 453065 0 0
/mission-vision/ 3 62742 0 0
/shop/ 3 59280 0 2
/wp-includes/wlwmanifest.xml 3 3135 0 3
/products/ 3 56730 0 0
/organic-pesticides/ 2 169032 0 0
/feed/ 2 3530 1 1
/microbiol-fertilizers/ 2 233608 0 0
/wp-json/ 2 105958 1 2
/index.php 1 19760 1 1
/xmlrpc.php 1 403 1 1
/about-us/ 1 23895 1 0
END_SIDER
