AWSTATS DATA FILE 7.4 (build 20140726)
# If you remove this file, all statistics for date 201712 will be lost/reset.
# Last config file used to build this data file was /home/ecomatrixnutrien/tmp/awstats/awstats.ecomatrixnutrients.in.conf.

# Position (offset in bytes) in this file for beginning of each section for
# direct I/O access. If you made changes somewhere in this file, you should
# also remove completely the MAP section (AWStats will rewrite it at next
# update).
BEGIN_MAP 28
POS_GENERAL 2026                
POS_TIME 2704                
POS_VISITOR 16417               
POS_DAY 45335               
POS_DOMAIN 3604                
POS_LOGIN 4597                
POS_ROBOT 4752                
POS_WORMS 5199                
POS_EMAILSENDER 5330                
POS_EMAILRECEIVER 5473                
POS_SESSION 46182               
POS_SIDER 46394               
POS_FILETYPES 5608                
POS_DOWNLOADS 5906                
POS_OS 7027                
POS_BROWSER 7282                
POS_SCREENSIZE 8358                
POS_UNKNOWNREFERER 8432                
POS_UNKNOWNREFERERBROWSER 8880                
POS_ORIGIN 9083                
POS_SEREFERRALS 9226                
POS_PAGEREFS 9402                
POS_SEARCHWORDS 9550                
POS_KEYWORDS 9722                
POS_MISC 2368                
POS_ERRORS 9805                
POS_CLUSTER 4453                
POS_SIDER_404 9975                
END_MAP

# LastLine    = Date of last record processed - Last record line number in last log - Last record offset in last log - Last record signature value
# FirstTime   = Date of first visit for history file
# LastTime    = Date of last visit for history file
# LastUpdate  = Date of last update - Nb of parsed records - Nb of parsed old records - Nb of parsed new records - Nb of parsed corrupted - Nb of parsed dropped
# TotalVisits = Number of visits
# TotalUnique = Number of unique visitors
# MonthHostsKnown   = Number of hosts known
# MonthHostsUnKnown = Number of hosts unknown
BEGIN_GENERAL 8
LastLine 20180101001948 19 4210 17172489503426
FirstTime 20171201015256
LastTime 20171231235848
LastUpdate 20180101121217 19 0 18 0 0
TotalVisits 1123                
TotalUnique 716                 
MonthHostsKnown 0                   
MonthHostsUnknown 775                 
END_GENERAL

# Misc ID - Pages - Hits - Bandwidth
BEGIN_MISC 10
FlashSupport 0 0 0
DirectorSupport 0 0 0
AddToFavourites 0 5 0
JavaEnabled 0 0 0
PDFSupport 0 0 0
JavascriptDisabled 0 0 0
WindowsMediaPlayerSupport 0 0 0
QuickTimeSupport 0 0 0
RealPlayerSupport 0 0 0
TotalMisc 0 0 0
END_MISC

# Hour - Pages - Hits - Bandwidth - Not viewed Pages - Not viewed Hits - Not viewed Bandwidth
BEGIN_TIME 24
0 39 44 1058286 59 63 167199
1 81 85 984868 133 159 1041365
2 90 90 102743 184 189 615971
3 132 221 3060184 185 230 1449782
4 90 119 945273 184 340 3916701
5 112 228 3002284 220 267 2147711
6 95 111 1589272 202 206 985252
7 151 253 3134897 1646 1677 5997011
8 106 107 203791 171 186 927920
9 113 162 1443987 1646 1652 5513982
10 60 116 2299160 139 156 1373182
11 64 117 2111745 71 92 544808
12 164 188 1234079 1613 1630 5274314
13 183 183 574872 123 128 644039
14 154 156 532824 144 174 623008
15 196 196 609515 1575 1579 4759650
16 193 196 1165103 152 157 1071883
17 234 238 1569737 44 60 569253
18 124 124 428837 56 56 348742
19 64 64 638788 49 62 517071
20 62 62 85212 70 81 566041
21 60 102 202063 47 50 350997
22 54 55 191240 56 69 429072
23 39 39 125443 43 44 157559
END_TIME

# Domain - Pages - Hits - Bandwidth
# The 25 first Pages must be first (order not required for others)
BEGIN_DOMAIN 58
us 1990 2272 12826936
cz 132 132 2562951
fr 75 75 548173
in 67 352 8530838
nl 45 45 173723
gb 42 45 241073
de 35 35 129087
ca 34 34 547224
ru 24 50 740336
it 20 20 77216
br 15 15 71002
ua 14 14 106365
au 11 11 91569
ro 11 11 42473
es 11 11 41951
se 10 10 38614
pl 8 8 30880
hu 8 8 30888
vn 8 8 30892
jp 7 7 27017
eu 7 7 42948
bg 6 6 23162
tr 6 6 23162
pt 5 5 19307
tw 5 5 19293
id 2 2 7726
mt 1 1 3863
fi 1 1 3859
hk 5 5 19303
cl 5 5 35222
ch 2 2 7722
kz 1 1 3859
lt 1 1 3859
ee 3 3 11577
ie 1 1 3859
pk 1 1 3863
lu 1 1 3863
is 1 1 3859
il 4 4 15444
bw 2 2 7722
sg 2 2 7722
mn 1 1 3859
no 4 4 15440
mx 3 3 9483
ge 2 2 8033
sk 1 1 3859
za 2 2 7726
bd 1 1 3859
ec 1 1 3859
dk 2 2 7718
gr 1 1 3859
kr 2 2 7718
zz 2 2 7722
my 4 4 15448
at 2 2 7722
be 1 1 19778
np 1 1 3859
cn 1 1 3859
END_DOMAIN

# Cluster ID - Pages - Hits - Bandwidth
BEGIN_CLUSTER 0
END_CLUSTER

# Login - Pages - Hits - Bandwidth - Last visit
# The 10 first Pages must be first (order not required for others)
BEGIN_LOGIN 0
END_LOGIN

# Robot ID - Hits - Bandwidth - Last visit - Hits on robots.txt
# The 25 first Hits must be first (order not required for others)
BEGIN_ROBOT 8
bot[\s_+:,\.\;\/\\-] 292 6065838 20171231112059 21
googlebot 203 3962987 20171230131612 17
spider 38 1106223 20171231223201 0
bingpreview 26 777922 20171214072757 0
unknown 14 938 20171231222257 14
googlebot\-image 13 171472 20171218022856 0
no_user_agent 4 22901 20171226010106 0
netcraft 2 39597 20171207032010 0
END_ROBOT

# Worm ID - Hits - Bandwidth - Last visit
# The 5 first Hits must be first (order not required for others)
BEGIN_WORMS 0
END_WORMS

# EMail - Hits - Bandwidth - Last visit
# The 20 first Hits must be first (order not required for others)
BEGIN_EMAILSENDER 0
END_EMAILSENDER

# EMail - Hits - Bandwidth - Last visit
# The 20 first hits must be first (order not required for others)
BEGIN_EMAILRECEIVER 0
END_EMAILRECEIVER

# Files type - Hits - Bandwidth - Bandwidth without compression - Bandwidth after compression
BEGIN_FILETYPES 13
Unknown 2 430 0 0
xml 5 5225 0 0
php 2280 2894411 0 0
woff2 9 599616 0 0
png 6 23611 0 0
html 362 7290406 0 0
txt 44 4733 0 0
eot 1 70807 0 0
woff 1 83588 0 0
gif 8 10107 0 0
jpg 95 8237611 0 0
js 236 3736207 0 0
css 207 4337451 0 0
END_FILETYPES

# Downloads - Hits - Bandwidth
BEGIN_DOWNLOADS 15
/.well-known/pki-validation/6D63A33AC809FE9820B86843283AC2CF.txt 14 0 1078
/.well-known/pki-validation/48ED0F57F2CB0C8235D3A9BE12F8FD09.txt 6 0 462
/.well-known/pki-validation/3A7A24479DE22E72C0C237FF431C3212.txt 5 0 385
/.well-known/pki-validation/930EE4150B4CD4CA8BDE42185525B0B5.txt 4 0 308
/.well-known/pki-validation/4936A537E593726AAE90329C64B858C6.txt 3 0 231
/.well-known/pki-validation/524B7E3D56F239A3082472A4A887FC3F.txt 2 0 154
/wp-content/plugins/contact-form-7/license.txt 2 0 1590
/.well-known/pki-validation/5FF8ADC8C55249977F1526F3F52345C9.txt 1 0 64
/.well-known/pki-validation/D607031BDE754518534C44ACD3683D36.txt 1 0 64
/.well-known/pki-validation/77429D05DF6B552D1AE14F3741CFE892.txt 1 0 64
/.well-known/pki-validation/FC87F1493E6D1DAEFCC259688BF9F33E.txt 1 0 64
/.well-known/pki-validation/FEFE0481445AE76930731198122ECF1D.txt 1 0 64
/.well-known/pki-validation/68FFC0B8EB5DB49E9949D00BDD3112A4.txt 1 0 64
/.well-known/pki-validation/AC5459E989B99836362AB805F0AF14BC.txt 1 0 64
/.well-known/pki-validation/12C4A70C7AB9BE5BB9AB67B5C507063E.txt 1 0 77
END_DOWNLOADS

# OS ID - Hits
BEGIN_OS ID - Hits - Pages 15
win8.1 36 7
macosx6 5 3
win7 1226 931
macosx 22 22
Unknown 1662 1596
unix 1 1
winnt 20 20
win2000 8 8
linux 5 5
winlong 2 2
linuxandroid 242 39
macosx7 4 4
win2003 1 1
winxp 19 18
win8 3 3
END_OS

# Browser ID - Hits - Pages
BEGIN_BROWSER 50
firefox57.0 35 6
firefox7.0.1 1 1
msie8.0 26 2
chrome50.0.2661.75 3 3
chrome34.0.1847.116 1 1
chrome14.0.803.0 1 0
firefox52.41.99 1 1
chrome63.0.3239.84 148 26
firefox52.65.18 1 1
msie9.0 34 10
Unknown 1617 1575
chrome19.0.1063.0 2 2
opera36.0.2130.32 3 3
firefox45.78.21 2 2
mozilla 21 21
chrome15.0.860.0 1 0
opera8.50 12 12
firefox33.0 3 3
chrome55.1.6415.1143 1 1
chrome38.0.1025.166 105 4
opera44.5.0857.5129 1 1
chrome46.0.2490.80 2 1
chrome62.0.3202.84 90 27
chrome40.0.2214.93 1 1
firefox29.0 4 4
cloudflare 24 0
chrome12.0.742.93 1 1
chrome62.0.3202.94 146 22
chrome36.0.1985.143 129 129
firefox17.0 1 1
chrome35.0.1916.153 1 1
chrome21.0.1180.82 3 3
chrome63.0.3239.111 46 7
msie6.0 8 8
chrome22.0.1207.1 1 1
chrome60.0.3112.101 1 1
msie7.0 8 8
chrome61.0.3163.100 22 22
firefox50.0 4 4
chrome20.0.1090.0 1 1
msie10.0 1 1
firefox47.0 1 1
firefox22.0 4 3
chrome58.0.3029.110 6 6
chrome45.0.2454.94 1 1
safari11.0 2 2
chrome26.0.1410.63 1 1
chrome34.0.1847.137 1 1
chrome53.0.2785.89 725 725
chrome42.0.2311.135 2 2
END_BROWSER

# Screen size - Hits
BEGIN_SCREENSIZE 0
END_SCREENSIZE

# Unknown referer OS - Last visit date
BEGIN_UNKNOWNREFERER 6
WordPress/4.7.4;_http://ecomatrixnutrients.in 20171231235849
COMODO_DCV 20171201215522
Mozilla/5.0_(compatible;_ips-agent) 20171212122621
Go-http-client/1.1 20171228220905
Mozilla/5.0_(compatible;_Dataprovider.com;) 20171221190958
Mozilla/5.0_(compatible;_CloudFlare-AlwaysOnline/1.0;__http://www.cloudflare.com/always-online)_AppleWebKit/534.34 20171227163609
END_UNKNOWNREFERER

# Unknown referer Browser - Last visit date
BEGIN_UNKNOWNREFERERBROWSER 3
COMODO_DCV 20171201215522
WordPress/4.7.4;_http://ecomatrixnutrients.in 20171231235849
Go-http-client/1.1 20171228220905
END_UNKNOWNREFERERBROWSER

# Origin - Pages - Hits 
BEGIN_ORIGIN 6
From0 993 1064
From1 0 0
From2 17 17
From3 0 0
From4 1650 2175
From5 0 0
END_ORIGIN

# Search engine referers ID - Pages - Hits
BEGIN_SEREFERRALS 3
google 15 15
ask 1 1
yandex 1 1
END_SEREFERRALS

# External page referers - Pages - Hits
# The 25 first Pages must be first (order not required for others)
BEGIN_PAGEREFS 0
END_PAGEREFS

# Search keyphrases - Number of search
# The 10 first number of search must be first (order not required for others)
BEGIN_SEARCHWORDS 1
chamunda+pvt.+ltd 1
END_SEARCHWORDS

# Search keywords - Number of search
# The 25 first number of search must be first (order not required for others)
BEGIN_KEYWORDS 3
pvt. 1
chamunda 1
ltd 1
END_KEYWORDS

# Errors - Hits - Bandwidth
BEGIN_ERRORS 8
405 3 126
403 39 17754
503 8227 24242179
301 49 0
500 135 0
404 247 3583820
401 7 756
302 3 0
END_ERRORS

# URL with 404 errors - Hits - Last URL referrer
BEGIN_SIDER_404 168
/wp-content/themes/ultimatum/wonderfoundry/addons/plugins/revslider/temp/update_extract/revslider/XAttacker.php 1 -
/webadmin/ 1 -
/sysadmin/ 1 -
/admin_area/ 1 -
/wp-content/uploads/sfn.php 1 -
/rss.xml 1 -
/js/ 1 -
/Gjssmnd.php 1 -
/modules/mod_simplefileuploadv1.3/elements/sfn.php 1 -
/wp-content/plugins/revslider/temp/update_extract/revslider/XAttacker.php 1 -
/editor/dialog/fck_about.html 1 -
/javascripts/ 1 -
/wp-content/themes/designplus/framework/plugins/revslider/temp/update_extract/revslider/XAttacker.php 1 -
/control/ 1 -
/Editor/ 1 -
/js/ajax/ 1 -
/wp-content/themes/safreen/thumb.php 1 -
/wp-content/themes/pindol/revslider/temp/update_extract/revslider/XAttacker.php 1 -
/Fshjbs.php 1 -
/CFIDE/scripts/ajax/ 1 -
/wp-content/plugins/sexy-contact-form/includes/fileupload/files/XAttacker.php 1 -
/inc/ 1 -
/wp-content/uploads/_input_3_css.php.jd 1 -
/bio-fungicide/ 1 -
/Hyugfes.php 1 -
/mss.php 1 -
/wp-content/uploads/2017/11/XAttacker.php 2 -
/FCK/editor/dialog/fck_about.html 1 -
/wp-content/plugins/downloads-manager/upload/XAttacker.php 1 -
/wp-content/plugins/cherry-plugin/admin/import-export/XAttacker.php 1 -
/wp-content/uploads/XAttacker.php 1 -
/wp-content/themes/beach_apollo/advance/plugins/revslider/temp/update_extract/revslider/XAttacker.php 1 -
/wp-content/plugins/showbiz/temp/update_extract/XAttacker.php 1 -
/sites/all/libraries/elfinder/files/sfn.php 1 -
/wp-content/themes/rarebird/framework/plugins/revslider/temp/update_extract/revslider/XAttacker.php 1 -
/wp-content/plugins/mailin/readme.txt 2 -
/includes/editor/ 1 -
/wp-content/themes/centum/revslider/temp/update_extract/revslider/XAttacker.php 1 -
/wp-includes/Text/Tiff.php 1 -
/wp-content/plugins/table-maker/readme.txt 2 -
/Tobeys.php 1 -
/wp-content/plugins/Login-wall-LWD/wall_log.php 1 -
/klash.php 1 -
/_whatsnew.html 1 -
/file.php 1 -
/fckedit/editor/dialog/fck_about.html 1 -
/wp-content/plugins/ninja-forms 1 -
/thumbnail.php 1 -
/wp-content/plugins/ckeditor-for-wordpress/ckeditor.config.js 1 -
/FCKEditorV2/editor/dialog/fck_about.html 1 -
/system/ 1 -
/adm/ 1 -
/admin_manage_access/ 1 -
/admin888/ 1 -
/Mkutp.php 1 -
/wp-content/plugins/index.lib.php 1 -
/manager/ 1 -
/wp-content/plugins/wpmarketplace/readme.txt 1 -
/wnsrgpjhrxli.html 1 -
/B59ABC688440E95769D2A5111C642B05.txt 1 -
/FCKeditor/_whatsnew.html 1 -
/includes/ 1 -
/wp-content/plugins/user-meta/readme.txt 1 -
/FCKEditorV2/_whatsnew.html 1 -
/offer.php 1 -
/scripts/ 1 -
/cd.php 1 -
/wp-content/themes/IncredibleWP/framework/plugins/revslider/temp/update_extract/revslider/XAttacker.php 1 -
/wp-content/uploads/markets/avatars/XAttacker.php 1 -
/bbob.php 1 -
/potassium-humate-fulvic/ 1 -
/ 65 -
/processlogin/ 1 -
/igz.php 1 -
/doc-ready/doc-ready 1 -
/wp-content/plugins/revslider/temp/update_extract/sfn.php 1 -
/wp-content/plugins/.newsfeed.php 1 -
/elDvKS.php 1 -
/smiley/1.gif 1 -
/moderator/ 1 -
/wp-content/plugins/woocommerce-catalog-enquiry/assets/frontend/js/chosen.js 1 -
/wp-content/uploads/files/guest/sfn.php 1 -
/wp-content/themes/mTheme-Unus/css/css.php 1 -
/fckeditor/_whatsnew.html 1 -
/wp-content/plugins/formcraft/file-upload/server/php/upload.php 1 -
/Fck/editor/dialog/fck_about.html 1 -
/wp-content/plugins/wp-file-manager/js/fm_script.js 1 -
/FCK/_whatsnew.html 1 -
/soil-conditioners/ 3 -
/wp-content/plugins/wp-editor/readme.txt 1 -
/woocommerce 1 -
/AdminWeb/ 1 -
/microbial-fertilizers/ 2 -
/scripts/ajax/ 1 -
/Admin/ 1 -
/fckeditor/editor/dialog/fck_about.html 1 -
/lib/ 1 -
/wp-content/themes/canvas/timthumb.php 3 -
/wp-includes/wp-footer.php 1 -
/fck2/editor/dialog/fck_about.html 1 -
/wp-content/plugins/recent-backups/download-file.php 1 -
/wp-content/plugins/formidable/js/formidable.js 1 -
/wp-content/img.php 1 -
/Nex.php 1 -
/ninja-forms 1 -
/HTMLEditor/ 1 -
/wp-content/themes/andre/framework/plugins/revslider/temp/update_extract/revslider/XAttacker.php 1 -
/wp-content/plugins/simple-dropbox-upload-form/ 1 -
/Gshdva.php 1 -
/wp-content/plugins/revslider/temp/update_extract/revslider/db.php 1 -
/FCKeditor/editor/dialog/fck_about.html 1 -
/wp-content/plugins/wp-mobile-detector/cache/XAttacker.php 1 -
/common/ 1 -
/fckedit/_whatsnew.html 1 -
/html/js/ 1 -
/sfn.php 3 -
/fck/editor/dialog/fck_about.html 1 -
/newsadmin/ 1 -
/jquery.php 1 -
/liquid-plant-supplements/ 2 -
/wp-content/plugins/mac-dock-gallery/bugslist.txt 1 -
/fck/_whatsnew.html 1 -
/wp-content/themes/safreen/timthumb.php 1 -
/wp-content/themes/canvas/thumb.php 3 -
/wp-content/plugins/Login-wall-etgFB/login_wall.php 1 -
/checkadmin/ 1 -
/uploads/ 1 -
/contact-form-7 1 -
/gasetui.php 1 -
/wp-content/uploads/wysija/themes/XAttacker/XAttacker.php 1 -
/js/lib/ 1 -
/admin.php 1 -
/wp-content/plugins/wp-mobile-detector/cache/db.php 1 -
/fck2/_whatsnew.html 1 -
/ckeditor/editor/dialog/fck_about.html 1 -
/Fck/_whatsnew.html 1 -
/wp-content/plugins/font-uploader/font-uploader-free.php 1 -
/wp-cron.php 2 http://ecomatrixnutrients.in/wp-cron.php
/tMxg.php 1 -
/w3-total-cache 1 -
/wp-content/plugins/work-the-flow-file-upload/public/assets/jQuery-File-Upload-9.5.0/server/php/files/XAttacker.php 1 -
/fileadmin/ 1 -
/wp-content/plugins/revslider/sfn.php 1 -
/admin_manage/ 1 -
/wp-content/themes/striking_r/framework/plugins/revslider/temp/update_extract/revslider/XAttacker.php 1 -
/wp-content/plugins/dzs-zoomsounds/admin/upload/XAttacker.php 1 -
/manage/ 1 -
/wp-content/plugins/fcchat/default.png 1 -
/wp-content/themes/medicate/script/revslider/temp/update_extract/revslider/XAttacker.php 1 -
/Kljcvn.php 1 -
/sitemap.xml 1 -
/compost-based-organic-fertilizer/ 1 -
/sysadm/ 1 -
/javascripts/ajax/ 1 -
/wp-content/uploads/2017/12/sfn.php 1 -
/includesa.php 1 -
/priv8.php 1 -
/aa.jpg.php 1 -
/webmaster/ 1 -
/administrator/ 2 -
/wp-content/plugins/inboundio-marketing/admin/partials/uploaded_csv/XAttacker.php 1 -
/Bsgfru.php 1 -
/wp-content/themes/cuckootap/framework/plugins/revslider/temp/update_extract/revslider/XAttacker.php 1 -
/wp-content/plugins/user-avatar/readme.txt 1 -
/ckeditor/_whatsnew.html 1 -
/wp-content/themes/Avada/framework/plugins/revslider/temp/update_extract/revslider/XAttacker.php 1 -
/inc/editor/ 1 -
/eek.php 1 -
END_SIDER_404

# Host - Pages - Hits - Bandwidth - Last visit date - [Start date of last visit] - [Last page of last visit]
# [Start date of last visit] and [Last page of last visit] are saved only if session is not finished
# The 25 first Hits must be first (order not required for others)
BEGIN_VISITOR 775
104.37.189.66 1571 1610 3380 20171231235849
176.121.10.57 129 129 2551362 20171231235848
27.6.224.129 17 46 929807 20171221075754
171.49.130.34 16 118 3077706 20171216104734
13.56.229.65 13 13 257114 20171231185636
64.233.173.149 13 34 860961 20171218051330
62.210.80.125 12 12 273126 20171227133825
158.69.225.33 12 12 449209 20171221191001
64.233.173.151 11 44 844167 20171218051323
64.233.173.150 10 48 1314868 20171218051306
69.58.178.57 10 10 356014 20171212122621
199.168.100.50 9 9 37620 20171226094131
14.141.109.162 8 55 1312947 20171211114849
122.168.106.57 7 19 728102 20171218064643
176.8.89.80 6 6 62469 20171202211731
202.149.197.98 5 34 751920 20171219050008
212.90.158.38 4 4 16720 20171220092446
27.56.179.240 4 33 750593 20171202053255
159.203.14.127 3 3 11577 20171218172751
188.165.200.74 3 3 11581 20171218175523
84.246.210.105 3 3 11585 20171218180852
162.144.254.48 3 3 11585 20171218161613
159.203.59.124 3 3 11589 20171218155912
69.46.36.20 3 3 33 20171228220907
37.187.77.154 3 3 11585 20171218164832
185.174.176.225 1 1 3863 20171218141207
13.81.1.156 1 1 3859 20171218142431
67.225.164.70 1 1 3859 20171218153007
108.178.44.182 1 1 3859 20171218115511
94.23.68.171 1 1 3863 20171218160447
104.207.243.76 1 1 3859 20171218171903
184.170.145.24 2 2 7718 20171218173016
162.247.152.162 1 1 3863 20171218130325
46.4.177.232 1 1 3859 20171218120523
192.169.249.201 1 1 3863 20171218130037
23.102.28.65 2 2 7722 20171218174628
35.167.199.153 1 1 3859 20171218180109
150.145.80.132 1 1 3859 20171218165846
149.202.192.72 1 1 3863 20171218153517
167.114.116.159 1 1 3859 20171218171842
204.79.180.4 0 2 57306 
204.79.180.17 0 2 6563 
64.233.172.170 0 5 105060 
198.100.152.125 1 1 3859 20171218122601
208.77.99.224 1 1 3859 20171218170509
13.210.69.44 1 1 3863 20171218131546
198.1.87.233 1 1 3863 20171218134215
204.79.180.1 1 1 19778 20171208125003
144.217.98.192 1 1 3859 20171218115838
35.154.30.74 1 1 3859 20171218181245
69.160.50.72 1 1 3863 20171218155442
37.59.87.182 1 1 3863 20171218135428
166.62.33.171 1 1 3859 20171218162420
185.17.218.84 1 1 3859 20171218172101
139.59.42.246 1 1 52979 20171216072430
207.58.143.17 1 1 3859 20171218182427
91.250.71.175 1 1 3859 20171218180730
69.73.182.208 1 1 3859 20171218164631
36.67.221.62 1 1 3863 20171218160452
75.147.192.177 1 1 3859 20171218175248
104.236.42.203 1 1 3863 20171218142007
212.83.180.195 1 1 3863 20171218141431
91.229.142.2 1 1 3859 20171218120721
202.75.63.147 1 1 3863 20171218143433
198.1.120.149 1 1 3859 20171218173624
45.40.135.95 2 2 7718 20171218181508
166.62.118.116 1 1 3863 20171218132555
185.62.38.34 1 1 3863 20171218133728
162.144.91.14 1 1 3859 20171218174331
204.79.180.9 0 2 14138 
103.53.169.2 1 1 3863 20171218154218
208.109.52.16 1 1 3859 20171218181733
5.196.72.102 1 1 3859 20171218165432
52.68.46.8 1 1 3863 20171218153132
167.114.138.80 1 1 3859 20171218122340
162.158.65.105 0 1 180186 
207.7.92.62 1 1 3859 20171218140230
5.9.115.58 1 1 3859 20171218121609
198.58.106.132 1 1 3863 20171218142538
79.172.252.51 1 1 3863 20171218140725
52.77.211.129 1 1 3859 20171218173320
210.211.121.205 1 1 3863 20171218143522
62.204.93.45 1 1 3859 20171218174732
178.63.82.173 1 1 3863 20171218143515
5.39.98.242 1 1 3859 20171218182032
72.167.167.172 1 1 3859 20171218123700
193.107.36.121 2 2 7722 20171218132219
185.27.142.155 1 1 3863 20171218170317
54.91.161.236 1 1 3859 20171218171420
221.121.140.135 1 1 3859 20171218175228
212.29.209.20 1 1 3863 20171218155709
81.88.49.22 1 1 3863 20171218151348
111.221.45.48 1 1 3863 20171218145019
35.164.144.59 1 1 19778 20171221130819
69.164.217.229 1 1 3863 20171218132712
54.80.152.242 1 1 19778 20171219151721
67.214.175.68 1 1 3859 20171218173615
221.153.251.247 2 2 7718 20171218173018
162.158.64.57 0 1 180186 
162.243.110.121 1 1 3863 20171218151107
178.62.5.41 2 2 7722 20171218180108
66.102.7.134 0 1 15547 
93.155.109.77 1 1 3859 20171218180852
89.42.11.49 1 1 3859 20171218180759
162.158.64.174 0 2 360372 
87.229.51.48 1 1 3863 20171218135849
199.217.112.244 1 1 3863 20171218160649
200.29.147.60 1 1 3859 20171218171135
104.209.134.36 1 1 3859 20171218135959
198.74.62.117 1 1 3859 20171218172558
166.62.44.207 1 1 3863 20171218160310
145.239.140.113 1 1 3859 20171218173538
79.137.33.125 1 1 3859 20171218171429
187.108.192.152 1 1 3859 20171218164516
209.15.242.34 1 1 3863 20171218135744
66.249.80.14 0 2 112731 
131.72.236.63 1 1 3863 20171218150547
213.167.242.166 1 1 3859 20171218121459
62.219.67.25 1 1 3859 20171218165715
61.67.241.206 2 2 7722 20171218164312
67.222.7.109 1 1 3859 20171218164611
193.107.36.40 1 1 3859 20171218154739
156.54.7.20 1 1 3863 20171218161010
52.26.212.105 1 1 3863 20171218143418
162.158.65.182 0 1 180186 
188.121.50.192 1 1 3859 20171218181450
212.125.129.86 1 1 3859 20171218175109
189.84.22.50 1 1 3863 20171218150141
110.172.188.3 2 2 8033 20171222135809
162.158.64.83 0 1 180186 
45.79.145.213 1 1 3863 20171218154455
162.158.64.77 0 1 180186 
91.134.240.162 2 2 7718 20171218173820
203.69.216.241 1 1 3859 20171218162839
66.102.7.224 0 2 1989 
63.247.142.132 2 2 7722 20171218173218
192.163.222.175 1 1 3859 20171218124058
91.83.93.84 1 1 3859 20171218162742
37.17.224.27 1 1 3859 20171218174048
66.102.6.10 1 7 166466 20171203030131
122.181.130.205 1 1 3863 20171218160711
206.225.93.36 1 1 3859 20171218173904
204.79.180.3 0 2 28057 
212.129.10.190 1 1 3863 20171218152322
95.211.83.7 2 2 7726 20171218154811
69.65.27.13 2 2 7718 20171218181033
70.164.0.138 1 1 3863 20171218135921
91.215.152.233 1 1 19778 20171229214316
142.4.6.24 1 1 3859 20171218173649
138.197.24.37 1 1 3859 20171218175941
198.199.100.57 2 2 7718 20171218174334
5.61.249.150 1 1 3859 20171218165457
162.158.64.235 0 1 180186 
85.233.41.94 1 1 3859 20171218181717
104.237.53.210 1 1 3863 20171218160600
52.36.148.208 2 2 7718 20171218174321
208.131.135.19 1 1 3863 20171220054325
5.10.153.19 1 1 3859 20171218140149
145.239.65.89 1 1 3863 20171218134649
217.69.40.122 1 1 3863 20171218144819
37.97.217.235 1 1 3859 20171218171538
62.173.164.37 1 1 3859 20171218173743
149.202.43.78 1 1 3859 20171218171847
148.251.245.109 1 1 3863 20171218142441
212.193.238.43 2 2 7722 20171218173815
80.79.113.194 1 1 3859 20171218123634
166.62.37.53 1 1 3859 20171218173625
108.52.242.54 1 1 3859 20171218165801
64.233.172.172 1 17 400627 20171223092951
104.238.125.4 1 1 3859 20171218165729
178.219.129.75 1 1 3859 20171218133146
207.98.211.53 1 1 3859 20171218172533
204.244.185.187 1 1 3863 20171218155956
66.198.240.59 1 1 3859 20171218175348
206.212.255.106 1 1 3863 20171218153802
95.97.10.212 1 1 3859 20171218182222
66.102.6.108 0 3 20142 
200.17.98.45 1 1 3863 20171218145255
83.170.124.34 1 1 3863 20171218153728
140.186.108.151 2 2 7718 20171218174711
75.149.221.170 1 1 19778 20171201182704
66.102.7.220 0 3 30046 
66.78.39.168 1 1 19778 20171202163410
85.95.245.17 1 1 3859 20171218171311
185.224.89.14 1 1 3863 20171218142733
200.241.132.151 1 1 3859 20171218170410
199.26.84.122 1 1 3863 20171218141320
27.0.15.185 1 1 3863 20171218153518
69.64.71.78 1 1 3863 20171218164215
52.168.91.71 1 1 3863 20171218152519
184.169.148.148 2 2 7718 20171218170036
162.253.124.32 1 1 3863 20171218125903
66.180.204.212 1 1 3859 20171218174830
104.207.134.206 1 1 3863 20171218130255
198.15.127.35 1 1 3859 20171218162715
188.255.16.224 2 26 546249 20171224091938
212.162.68.99 1 1 3863 20171218155308
5.145.170.209 1 1 3859 20171218164546
91.229.77.84 1 1 3863 20171220054355
104.238.99.18 1 1 3859 20171218173426
173.208.155.10 1 1 3859 20171218114137
46.29.49.225 1 1 3863 20171218161000
45.33.35.210 1 1 3859 20171218172414
67.222.107.115 1 1 3863 20171218154619
109.123.77.12 1 1 3863 20171218144301
51.15.145.97 2 2 7718 20171218180819
66.117.8.42 1 1 19778 20171230024047
91.210.83.66 1 1 3859 20171218173108
66.228.61.56 1 1 3859 20171218123920
185.22.184.40 1 1 3863 20171218135119
74.208.247.221 1 1 3863 20171218133102
159.203.37.247 1 1 3859 20171218124613
103.20.91.165 1 1 3863 20171218135111
91.200.12.55 1 1 4180 20171231045223
66.102.6.106 1 9 222702 20171215075409
51.254.45.81 1 1 3859 20171218124014
188.165.204.226 1 1 3863 20171218155622
184.170.145.20 1 1 3859 20171218170855
95.170.81.91 1 1 3863 20171220054322
74.208.247.104 1 1 3863 20171218160226
128.199.164.232 2 2 7722 20171220054320
62.75.142.141 1 1 3859 20171218174711
134.19.230.5 2 2 8033 20171230034920
54.234.249.9 1 1 1765 20171217032521
192.254.160.68 1 1 3863 20171218133130
128.140.217.131 1 1 3863 20171218135046
45.77.207.43 1 1 19778 20171230154747
69.160.59.184 1 1 3859 20171218174940
154.50.0.75 1 1 3863 20171218163806
81.25.82.67 1 1 3863 20171218135029
54.224.94.63 0 1 1606 
46.45.178.7 1 1 3863 20171218160459
46.101.11.62 2 2 7722 20171218170803
51.255.211.107 2 2 7722 20171218142546
66.198.240.4 1 1 3859 20171218123931
82.194.91.104 1 1 3863 20171218152512
147.156.5.194 1 1 3859 20171218180916
192.169.255.46 1 1 3859 20171218172643
173.249.156.4 1 1 3863 20171218134844
94.46.169.3 1 1 3863 20171218141034
50.31.146.242 2 2 7722 20171218165130
178.210.76.71 1 1 3859 20171218181456
162.158.65.46 0 1 180186 
173.254.238.2 1 1 3859 20171218174008
204.77.5.145 1 1 3859 20171218165400
149.202.76.139 1 1 3859 20171218142820
78.129.197.54 2 2 7722 20171218174635
195.154.181.190 1 1 3859 20171218184646
104.197.96.213 1 1 3859 20171218183220
104.154.76.6 1 1 3859 20171218164603
94.130.105.116 1 1 3863 20171218154019
162.158.64.144 0 1 180186 
82.208.27.163 1 1 3863 20171218140645
216.12.199.226 1 1 3863 20171218155022
50.62.56.63 1 1 3859 20171218170201
5.61.252.30 1 1 3859 20171218171154
52.9.183.179 1 1 3863 20171218140954
139.162.144.212 1 1 3859 20171218174619
91.200.12.67 1 1 310 20171221100723
193.70.34.177 1 1 3863 20171218154652
54.92.152.20 1 1 18910 20171220084219
89.221.250.9 1 1 3863 20171218155218
83.223.98.60 1 1 3863 20171218135137
66.102.8.10 0 2 68798 
52.172.159.116 1 1 3859 20171218123007
81.89.49.44 1 1 3859 20171218174444
81.171.12.151 1 1 3859 20171218174357
162.144.208.68 1 1 3859 20171218120310
104.236.223.3 1 1 3859 20171218121055
89.115.119.155 2 2 7718 20171218182416
84.112.148.109 1 1 3859 20171218172407
50.31.98.127 1 1 3859 20171218163313
35.164.42.140 1 1 1 20171214165353
42.3.187.143 2 2 7726 20171218154021
204.79.180.2 0 1 0 
149.202.75.48 1 1 3863 20171218135221
108.165.20.163 1 1 3863 20171218135543
13.56.38.23 1 1 3859 20171218123711
88.132.15.90 1 1 3863 20171218140810
5.189.133.231 1 1 3853 20171201025807
194.9.94.7 1 1 3859 20171218171931
67.222.18.18 1 1 3859 20171218154603
107.173.228.91 1 1 3859 20171218165710
109.228.22.171 1 1 3863 20171218155905
188.166.13.72 1 1 3859 20171218175450
192.99.169.228 2 2 7718 20171218173146
85.17.117.137 1 1 3863 20171218155117
62.90.141.5 1 1 3859 20171218171324
164.132.49.152 1 1 3863 20171218152401
185.153.204.68 1 1 3859 20171218163710
69.73.181.140 2 2 7718 20171218173551
162.158.64.167 0 1 180186 
94.130.120.199 1 1 3859 20171218171933
204.79.180.14 1 2 18424 20171208125035
162.214.8.113 1 1 3859 20171218171221
54.149.215.226 1 1 3863 20171218161439
192.169.231.144 1 1 3863 20171218132939
91.200.12.22 2 2 23958 20171223081952
209.126.22.129 1 1 3863 20171218133817
139.59.1.153 2 2 7718 20171218172010
46.4.7.18 1 1 3859 20171218175415
37.17.224.33 2 2 7718 20171218172828
177.129.196.40 1 1 3863 20171218135604
192.163.243.67 1 1 3859 20171218164745
198.211.105.213 1 1 3863 20171218135444
188.226.129.55 1 1 19778 20171208043620
185.57.255.2 1 1 3859 20171218162551
8.29.136.17 1 1 3859 20171218180532
34.249.133.120 2 2 7722 20171218142000
5.196.35.146 1 1 3859 20171218181308
162.158.65.209 0 1 180186 
72.52.196.112 1 1 3863 20171218154419
52.17.156.155 1 1 3859 20171218171826
52.138.150.13 1 1 3859 20171218173844
162.217.86.213 1 1 3863 20171218155406
176.31.150.233 1 1 3863 20171218154720
158.46.218.195 1 1 19778 20171222101540
185.174.172.229 1 1 1 20171212040033
77.222.86.14 1 1 3863 20171218162835
173.255.226.10 2 2 7722 20171218154710
151.80.191.0 1 1 3863 20171218134107
80.90.199.173 1 1 3863 20171218134305
212.162.68.79 1 1 3859 20171218164606
213.27.244.66 1 1 3859 20171218174649
37.247.43.22 1 1 3859 20171218170644
96.127.183.34 1 1 3859 20171218180839
45.40.142.165 1 1 3863 20171218151233
104.236.214.114 1 1 3863 20171218134512
37.247.43.12 2 2 7722 20171218134427
204.79.180.18 0 2 154892 
66.206.231.94 1 1 3863 20171218155654
46.59.31.105 2 2 7718 20171218181202
146.148.118.207 1 1 3863 20171218134603
204.79.180.13 0 1 11703 
52.26.223.242 1 1 3863 20171218155519
95.173.179.123 1 1 3859 20171218172314
79.170.40.162 1 1 3863 20171218153758
192.3.243.103 2 2 7716 20171218142126
66.102.8.12 0 2 8200 
103.76.12.61 1 1 3859 20171218173622
103.23.76.112 1 1 3859 20171218170926
162.248.50.139 1 1 3863 20171218155919
172.104.50.250 2 2 7722 20171218175733
54.81.243.27 0 1 1606 
5.196.15.47 1 1 3859 20171218121806
75.98.175.113 1 1 3859 20171218164921
185.98.7.146 1 1 3859 20171218172210
34.212.131.168 1 1 3859 20171218181959
153.19.250.20 1 1 3859 20171218170817
34.216.121.96 1 1 19778 20171214125241
96.127.152.226 1 1 3859 20171218175124
212.83.187.108 2 2 7718 20171218175553
51.254.101.95 1 1 19778 20171203195847
5.79.80.155 1 1 3863 20171218161151
52.65.28.55 1 1 3859 20171218123308
109.73.166.3 1 1 3859 20171218191659
188.213.171.17 2 2 7726 20171218153159
128.199.206.31 1 1 3859 20171218120626
162.158.64.66 0 1 180186 
91.121.36.151 2 2 7718 20171218172145
103.234.38.177 1 1 3859 20171218173228
95.110.178.28 1 1 3859 20171218171832
74.208.121.187 1 1 608 20171230111934
54.252.205.36 1 1 3863 20171218151550
95.128.74.11 1 1 3859 20171218175015
119.9.128.40 1 1 3859 20171218145236
185.70.8.20 1 1 3863 20171218141806
178.170.58.11 1 1 3859 20171218170152
45.33.86.240 2 2 7722 20171218162018
109.163.208.72 1 1 3859 20171218181659
8.26.64.107 1 1 3859 20171218181220
194.33.184.110 1 1 3859 20171218181046
132.247.184.3 1 1 3863 20171218130429
178.33.107.35 2 2 7722 20171218180440
162.158.65.77 0 1 180186 
66.102.7.254 0 5 232147 
142.4.25.172 1 1 3859 20171218172737
204.79.180.10 0 3 25296 
185.81.157.39 1 1 19778 20171209160506
108.179.197.112 1 1 3863 20171218142643
217.182.68.110 1 1 3863 20171218150956
45.32.18.85 1 1 3859 20171218181333
217.68.32.44 1 1 3859 20171218171047
66.102.6.14 0 5 108719 
203.192.102.105 1 1 3859 20171218165833
162.243.21.101 1 1 3859 20171218181134
159.203.132.79 1 1 3863 20171218155654
178.62.132.244 1 1 3859 20171218121143
198.154.200.166 2 2 7718 20171218173049
142.4.17.157 1 1 3859 20171218175245
167.250.5.23 1 1 3863 20171218153700
66.7.198.130 1 1 3863 20171218140012
213.108.59.13 1 1 3859 20171218122937
106.67.155.114 0 10 243010 
128.0.55.163 1 1 3863 20171218145948
95.138.162.45 1 1 3863 20171218135916
201.238.215.219 1 1 3863 20171218135330
193.41.194.96 1 1 3863 20171218141400
69.51.204.242 1 1 3859 20171218175551
162.248.50.161 1 1 3859 20171218170434
2.228.63.3 1 1 3863 20171218155351
125.212.209.38 1 1 3859 20171218172110
202.170.69.9 1 1 3859 20171218181204
66.102.7.218 0 3 75519 
66.198.240.17 1 1 3863 20171218134218
109.234.160.16 1 1 3863 20171218152443
185.10.99.15 1 1 3859 20171218172829
104.237.130.137 1 1 3863 20171218130425
77.81.111.238 1 1 3859 20171218121612
162.158.65.43 0 1 180186 
212.214.97.225 1 1 3863 20171218135516
128.199.221.48 1 1 3859 20171218164930
37.72.36.174 1 1 3859 20171218165142
45.33.68.141 1 1 3863 20171218140619
45.79.177.106 1 1 3859 20171218173530
52.19.187.176 1 1 19760 20171227124825
52.8.37.176 1 1 3859 20171218171856
196.41.127.135 1 1 3863 20171218151831
188.166.225.27 1 1 3863 20171218140327
192.169.155.96 2 2 39556 20171230063754
52.204.191.92 1 1 3863 20171218151305
54.161.79.172 1 1 22700 20171219230148
176.31.105.174 1 1 3863 20171218132202
85.158.203.19 2 2 7722 20171218173853
101.0.90.18 1 1 3859 20171218114512
178.62.233.80 1 1 3863 20171218145429
79.170.40.235 1 1 3863 20171218160023
46.4.219.168 1 1 3863 20171218151838
66.102.7.226 0 4 42963 
192.169.202.115 1 1 3863 20171218143618
23.226.69.242 1 1 3863 20171218130609
205.196.18.245 1 1 3863 20171218140340
185.52.27.60 1 1 3863 20171218145553
200.195.144.58 1 1 3853 20171202030003
51.254.36.89 1 1 3859 20171218123040
177.85.103.23 1 1 3863 20171218134501
54.202.71.161 1 1 21758 20171227065243
54.208.9.56 1 1 3859 20171218163332
81.91.85.211 1 1 3863 20171218165702
179.188.11.33 1 1 3859 20171218173856
85.17.157.148 1 1 3859 20171218123133
186.202.153.30 1 1 3863 20171218151926
69.162.134.192 2 2 7726 20171218160459
193.104.101.105 1 1 3859 20171218172219
107.161.114.245 3 3 11585 20171218175050
70.32.95.49 2 2 7722 20171218174640
62.109.34.10 1 1 3863 20171218131141
195.94.238.168 2 2 7722 20171218170413
185.77.160.38 1 1 3859 20171218154733
213.184.28.30 2 2 7722 20171218164928
187.45.193.168 1 1 3863 20171218155424
93.189.28.6 1 1 3863 20171218131808
68.67.69.90 1 1 3859 20171218171104
104.238.118.44 1 1 3863 20171218133839
162.158.64.210 0 1 180186 
85.194.242.107 1 1 3859 20171218175657
91.239.232.72 1 1 3863 20171218154505
138.197.142.210 1 1 3863 20171218131617
93.63.35.19 1 1 3859 20171218173933
184.107.153.122 1 1 3859 20171218175419
37.97.202.23 1 1 3859 20171218122256
212.45.63.25 1 1 3859 20171218164841
45.126.208.115 1 1 3863 20171218140913
185.67.84.105 1 1 3859 20171218165118
218.161.65.163 1 1 3859 20171218171816
192.241.190.157 1 1 3859 20171218173403
166.78.182.51 1 1 3863 20171218155527
82.220.34.9 1 1 3863 20171218141019
128.199.239.72 1 1 3859 20171218122808
46.29.94.65 1 1 3863 20171218141940
143.125.238.2 1 1 3859 20171218141608
194.63.231.245 1 1 3859 20171218172214
166.62.100.24 1 1 3859 20171218171222
52.62.167.188 2 2 7722 20171218160034
209.212.145.197 1 1 3859 20171218174714
91.208.60.164 1 1 3859 20171218180020
131.72.237.44 1 1 3859 20171218193756
212.129.44.203 1 1 3859 20171218165914
95.211.250.38 1 1 3863 20171218134805
173.230.245.202 1 1 3863 20171218125751
5.200.28.170 1 1 3859 20171218181732
192.207.12.150 1 1 3863 20171218132904
103.6.196.92 1 1 3863 20171218140420
144.217.66.186 2 2 7722 20171218175935
112.78.125.79 1 1 3859 20171218175836
69.73.181.2 1 1 3863 20171218151339
81.27.92.70 1 1 3863 20171218162316
177.202.62.202 1 1 3853 20171201042152
94.199.178.193 1 1 3859 20171218173030
94.23.41.157 1 1 3863 20171218155655
69.16.244.147 1 1 3859 20171218171859
62.210.52.132 1 1 3859 20171218170404
176.227.173.80 1 1 3859 20171218173723
136.63.35.181 1 1 3863 20171218135343
204.79.180.7 0 1 97184 
108.61.184.109 1 1 3859 20171218164454
52.7.247.17 1 1 3859 20171218172549
91.134.160.72 1 1 3863 20171218135306
37.187.193.240 1 1 3859 20171218175002
66.198.240.60 1 1 3863 20171218134943
66.249.80.12 0 2 183264 
85.204.18.14 1 1 3859 20171218152555
163.182.172.250 1 1 3863 20171218154209
54.198.3.140 1 1 18910 20171220000716
104.237.157.228 1 1 3863 20171218152207
204.79.180.15 0 3 23545 
163.172.148.122 1 1 3863 20171218140816
35.186.158.55 1 1 3863 20171218132033
23.239.16.4 1 1 3863 20171218155604
195.154.40.238 1 1 3859 20171218121212
162.158.64.143 0 1 180186 
50.62.56.44 1 1 3859 20171218165144
34.193.88.40 1 1 3863 20171218152426
67.225.143.12 1 1 3863 20171218141103
52.62.42.130 1 1 3863 20171218155704
218.252.123.38 1 1 3859 20171218124513
66.102.7.219 0 3 185666 
142.4.17.152 1 1 3863 20171218155631
103.59.176.105 1 1 3859 20171218180940
93.174.88.189 1 1 3859 20171218170243
139.59.29.34 2 2 7718 20171218181043
62.88.132.182 1 1 3863 20171218130924
69.160.54.247 1 1 3863 20171218132442
162.158.64.104 0 1 180186 
108.161.134.137 1 1 3859 20171218123952
54.208.19.25 1 1 3859 20171218124119
188.166.189.119 1 1 3863 20171218144115
23.254.153.202 1 1 3863 20171218161146
35.154.200.112 1 1 3863 20171218131154
103.63.212.15 2 2 7726 20171218150635
111.93.53.167 1 1 3863 20171218142120
95.142.162.107 2 2 7722 20171218173801
184.172.104.2 1 1 3859 20171218182020
108.160.159.130 1 1 3859 20171218180648
89.145.84.74 2 2 7718 20171218175241
184.173.230.14 1 1 3859 20171218121143
27.34.158.1 1 1 3859 20171218175349
198.52.114.116 1 1 3859 20171218164737
122.175.238.213 1 5 241518 20171216110624
66.102.7.132 0 2 5222 
54.149.121.97 1 1 22700 20171219045635
145.239.62.180 1 1 3863 20171218152116
37.187.48.220 1 1 3859 20171218124206
144.76.64.231 1 1 3859 20171218172246
190.95.227.4 1 1 3859 20171218195113
69.73.181.112 1 1 3863 20171218145501
209.126.17.30 1 1 3863 20171218140233
188.165.243.104 1 1 3859 20171218165750
173.208.160.99 1 1 3863 20171218125250
158.69.226.25 1 1 3859 20171218165111
185.6.139.17 1 1 3859 20171218172001
198.154.250.50 1 1 3859 20171218182941
54.81.140.46 1 1 22700 20171220090728
174.138.55.57 1 1 3863 20171218135146
54.167.68.48 1 1 3863 20171218160943
185.83.219.103 1 1 3863 20171218133209
91.199.212.132 0 3 231 
183.81.167.158 1 1 3863 20171218152706
212.129.4.205 1 1 3863 20171218135813
66.198.240.12 1 1 3859 20171218164831
192.169.202.27 1 1 3863 20171218155548
89.200.170.73 1 1 3859 20171218180215
5.196.21.193 1 1 3859 20171218133947
138.68.150.84 1 1 3859 20171218124023
195.78.229.33 1 1 3859 20171218122541
198.167.142.5 1 1 3863 20171218150608
212.18.227.146 1 1 3863 20171218134437
109.235.68.211 1 1 3859 20171218164734
192.99.6.140 2 2 7718 20171218165527
81.29.32.213 2 2 7722 20171218165133
192.163.195.18 2 2 7722 20171218180439
149.202.216.235 1 1 3859 20171218121126
92.243.15.55 1 1 3859 20171218171244
27.96.87.118 1 24 464028 20171228055736
74.208.220.236 1 1 3859 20171218134442
193.192.42.4 1 1 3863 20171218134025
192.254.196.137 1 1 3859 20171218181404
149.210.204.86 1 1 3859 20171218165519
45.55.52.86 3 3 11585 20171218165701
85.194.242.213 1 1 3863 20171218130343
67.212.92.244 2 2 7722 20171218174453
198.154.235.242 1 1 3863 20171218134902
85.158.210.37 1 1 19778 20171223003435
45.32.51.175 1 1 3853 20171201055605
162.158.65.164 0 1 180186 
208.95.104.27 1 1 3859 20171218182719
51.254.183.123 1 1 3859 20171218142703
37.187.71.95 1 1 3863 20171218153945
13.126.75.204 1 1 3859 20171218174640
64.68.203.172 1 1 3859 20171218170339
72.55.156.94 1 1 3859 20171218180307
149.202.221.136 1 1 3859 20171218142430
185.119.175.180 1 1 3859 20171218155249
209.58.183.208 1 1 3863 20171218155639
5.249.157.249 1 1 3859 20171218175737
66.102.6.12 0 9 76072 
185.18.226.20 1 1 3859 20171218162332
178.62.109.31 1 1 3863 20171218161111
198.89.120.121 1 1 3863 20171218160259
35.202.32.44 1 1 3863 20171218154343
204.79.180.5 0 1 57 
52.87.248.90 1 1 3863 20171218141959
87.76.22.22 1 1 3859 20171218173344
23.174.0.138 1 1 3859 20171218171553
173.198.211.82 1 1 3859 20171218181759
35.198.205.32 1 1 3863 20171218135900
185.75.54.100 1 1 3863 20171218140201
34.212.38.108 2 2 42478 20171212152736
67.205.161.149 1 1 3859 20171218162913
185.119.175.252 1 1 3859 20171218123524
201.18.18.173 2 2 20823 20171218101340
52.3.212.142 1 1 3859 20171218123447
77.223.19.18 2 2 7722 20171218172450
198.38.89.230 1 1 3863 20171218135652
80.79.115.68 1 1 3859 20171218175325
70.39.149.153 1 1 3863 20171218153730
74.124.217.48 1 1 3859 20171218165934
51.255.82.18 1 1 3863 20171218140019
41.76.110.171 1 1 3863 20171218161029
23.111.140.91 1 1 3859 20171218164321
185.127.128.40 1 1 3863 20171218160457
142.54.187.50 3 3 25723 20171212202607
82.223.29.232 1 1 3859 20171218123541
193.136.97.4 1 1 3863 20171218134747
188.68.56.187 1 1 3859 20171218115305
103.24.98.179 1 1 3863 20171218134821
112.78.15.4 2 2 7722 20171218180131
80.25.177.174 1 1 3345 20171218115436
199.26.86.183 1 1 3859 20171218164830
51.254.198.204 1 1 3863 20171218160112
64.64.20.132 1 1 3859 20171218181326
45.33.27.12 1 1 3859 20171218175849
139.59.10.46 2 2 7718 20171218173813
138.68.103.153 1 1 3859 20171218170829
188.42.96.14 1 1 3863 20171218140402
104.168.56.226 1 1 3859 20171218165553
52.214.65.156 1 1 3863 20171218140253
158.199.162.1 1 1 3863 20171218135009
82.202.249.91 2 2 39556 20171217233341
128.199.124.86 2 2 86402 20171216102257
50.97.39.122 1 1 3859 20171218165742
187.45.195.61 1 1 3859 20171218181318
184.170.145.19 1 1 3859 20171218170706
52.72.242.244 2 2 7726 20171218152213
5.45.77.23 1 1 3863 20171218152727
69.65.3.173 1 1 3859 20171218163542
162.144.196.2 1 1 3859 20171218182119
120.72.98.156 1 1 3863 20171218165048
94.46.14.100 1 1 3863 20171218161045
160.153.146.166 1 1 19778 20171223215837
162.144.69.227 1 1 3859 20171218181646
66.198.240.5 1 1 3863 20171218144049
202.51.74.121 1 1 3859 20171218120739
138.195.139.54 1 1 3859 20171218125214
85.214.113.195 1 1 3863 20171218153806
187.141.140.162 2 2 5620 20171228220905
185.11.240.175 1 1 3859 20171218170848
158.69.244.177 1 1 3859 20171218170154
91.211.113.221 2 2 7722 20171218171409
121.95.101.156 1 1 3859 20171218184249
54.254.164.76 1 1 19778 20171206010304
37.59.29.206 2 2 7718 20171218180425
179.61.147.190 1 1 19778 20171208004829
104.197.73.81 1 1 3859 20171218170049
192.145.239.19 1 1 3863 20171218143401
66.102.6.110 0 5 121553 
5.189.142.136 2 2 430 20171211041551
52.214.11.69 1 1 3859 20171218165920
45.55.245.98 1 1 3859 20171218150855
162.158.65.42 0 1 180186 
109.73.164.187 1 1 3859 20171220105650
94.102.3.147 1 1 3859 20171218171051
136.243.8.158 1 1 3859 20171218180824
195.169.149.118 2 2 7718 20171218172718
159.203.7.31 1 1 3859 20171218160833
162.158.64.237 0 1 180186 
34.201.110.213 2 2 39556 20171231033716
178.21.19.15 3 3 11581 20171218175630
178.77.93.43 1 1 3859 20171218175245
80.85.85.159 1 1 3859 20171218115947
86.107.43.66 1 1 3863 20171218132905
118.184.38.66 1 1 3859 20171218180704
92.48.93.233 1 1 3859 20171218173716
111.67.20.9 1 1 3859 20171218121059
50.202.245.185 2 2 7726 20171218135907
148.163.71.194 1 1 3859 20171218181924
70.32.97.143 1 1 3863 20171218160810
69.73.181.62 2 2 7718 20171218180725
188.166.123.83 1 1 3863 20171218162420
104.131.87.149 1 1 3863 20171218130119
91.216.241.2 1 1 3859 20171218173035
112.78.112.233 1 1 3859 20171218181238
142.54.174.35 1 1 3863 20171218144133
52.16.60.116 1 1 3863 20171218150128
197.231.192.10 2 2 7722 20171218174817
66.249.80.10 0 2 11454 
66.84.12.167 1 1 3863 20171218155806
5.206.197.213 1 1 3859 20171218153515
178.171.31.26 1 1 19778 20171215230628
54.172.17.138 1 1 3859 20171218180611
219.85.67.240 1 1 3853 20171201093649
5.77.45.196 1 1 3859 20171218123143
193.189.247.180 1 1 3859 20171218140447
67.227.157.125 1 1 3859 20171218174039
52.53.129.101 2 2 39556 20171205095123
83.166.242.112 1 1 19778 20171212160619
185.126.176.107 1 1 3859 20171218170710
199.103.62.4 1 1 3859 20171218180836
78.47.208.54 1 1 3863 20171218140334
62.138.138.14 1 1 3859 20171218162307
212.47.220.51 1 1 3859 20171218175332
198.245.63.79 1 1 3859 20171218175634
131.153.37.4 1 1 3863 20171218154630
74.124.214.202 1 1 3863 20171218143700
51.255.201.214 1 1 3863 20171218135412
86.110.45.162 1 1 3859 20171218114853
173.249.159.83 1 1 3859 20171218173025
123.242.224.106 1 1 3859 20171218175857
5.9.63.216 1 1 3859 20171218123156
192.115.76.18 1 1 3863 20171218135208
5.44.234.50 1 1 3859 20171218170432
204.197.242.102 1 1 3859 20171218184120
103.8.25.172 1 1 3859 20171218160251
162.158.65.206 0 1 180186 
94.255.164.254 1 1 3863 20171218154320
87.106.167.96 1 1 3859 20171218131004
46.242.129.143 1 1 3859 20171218175541
204.79.180.6 0 1 3078 
185.177.21.23 1 1 3859 20171218123622
95.97.114.3 1 1 3859 20171218124203
128.140.219.211 1 1 3863 20171218154747
104.155.134.95 2 2 7718 20171218181447
35.162.25.94 1 1 3859 20171218172608
175.107.187.206 1 1 3859 20171218121313
192.163.220.213 1 1 3863 20171218140244
51.255.83.20 1 1 3859 20171218174747
54.159.221.209 1 1 3863 20171218141810
192.99.63.167 1 1 3859 20171218171243
213.3.43.127 1 1 3859 20171218174432
204.79.180.16 0 1 4007 
35.167.1.136 1 1 3863 20171218160737
104.237.142.196 1 1 3859 20171218174730
162.221.185.250 1 1 3859 20171218181928
185.24.68.226 1 1 3863 20171218131945
198.136.59.62 1 1 3859 20171218172844
204.79.180.12 0 1 11414 
64.233.172.174 1 12 430703 20171216055616
217.18.65.10 1 1 3859 20171218165841
54.160.117.20 1 1 3859 20171218155156
66.228.38.131 1 1 3863 20171218135606
67.192.66.116 1 1 3863 20171218161212
200.133.239.43 1 1 3859 20171218181624
104.131.48.128 1 1 3863 20171218134919
162.158.64.172 0 1 180186 
87.229.73.98 1 1 3863 20171218162031
82.113.32.69 1 1 3863 20171218155029
173.255.237.53 1 1 3863 20171218154853
163.182.175.102 1 1 3863 20171218150439
80.87.12.101 1 1 3859 20171218164914
198.50.159.10 2 2 20823 20171211093059
75.103.66.5 2 2 7726 20171218154417
198.1.111.117 1 1 3863 20171218162227
216.14.91.79 1 1 3863 20171218132639
162.158.64.203 0 1 180186 
192.187.100.82 3 3 8691 20171204074152
213.183.51.182 1 3 21368 20171202144017
54.204.1.79 1 1 3863 20171218151555
178.63.98.244 1 1 3863 20171218151805
104.247.77.20 1 1 3859 20171218164611
72.52.157.226 1 1 3859 20171218173013
67.211.208.74 1 1 3859 20171218165207
164.132.170.133 1 1 3863 20171218155351
162.144.128.79 1 1 3859 20171218172046
198.46.81.6 1 1 3859 20171218122940
51.254.194.136 1 1 3859 20171218180325
END_VISITOR

# Date - Pages - Hits - Bandwidth - Visits
BEGIN_DAY 31
20171201 59 101 118549 16
20171202 142 174 1076770 10
20171203 139 165 797164 9
20171204 145 148 632274 7
20171205 102 102 79124 5
20171206 62 64 479040 10
20171207 11 11 79112 9
20171208 45 132 2843276 19
20171209 19 20 298854 10
20171210 15 15 144423 11
20171211 21 71 1934092 11
20171212 40 40 515868 16
20171213 32 34 504843 15
20171214 20 20 158237 16
20171215 16 41 813852 14
20171216 40 173 4613063 22
20171217 25 25 152751 18
20171218 965 1019 5206149 703
20171219 40 70 937479 20
20171220 463 465 408441 21
20171221 49 78 1563305 17
20171222 11 11 106923 10
20171223 21 46 798266 16
20171224 19 44 831302 12
20171225 20 23 684981 13
20171226 22 22 71886 11
20171227 13 15 447411 11
20171228 28 51 548807 16
20171229 16 16 59346 10
20171230 31 31 206433 24
20171231 29 29 182182 21
END_DAY

# Session range - Number of visits
BEGIN_SESSION 7
1h+ 17
30s-2mn 9
0s-30s 1022
15mn-30mn 16
5mn-15mn 11
2mn-5mn 9
30mn-1h 39
END_SESSION

# URL - Pages - Bandwidth - Entry - Exit
# The 25 first Pages must be first (order not required for others)
BEGIN_SIDER 24
/wp-cron.php 1451 0 174 182
/wp-login.php 749 2893941 705 708
/ 282 4092045 207 187
/wp-admin/admin-ajax.php 80 470 15 10
/contact-us/ 26 564540 10 13
/wp-content/themes/safreen/fonts/awesome/fonts/fontawesome-webfont.woff2 9 599616 1 1
/products/ 7 114833 2 2
/soil-application/ 7 737182 0 2
/organic-pesticides/ 6 422636 0 1
/foliar-application/ 5 320956 0 1
/microbiol-fertilizers/ 5 581366 1 2
/wp-includes/wlwmanifest.xml 5 5225 0 5
/our-facility/ 4 86890 0 0
/about/ 4 85705 1 1
/about-director/ 4 81485 1 0
/feed/ 3 5295 2 1
/bulk-supply/ 3 62538 0 1
/.git/config 2 430 1 1
/shop/ 2 39520 1 1
/mission-vision/ 2 41828 0 0
/wp-content/themes/safreen/fonts/awesome/fonts/fontawesome-webfont.eot 1 70807 0 1
/wp-json/ 1 52979 1 1
/wordpress/ 1 608 1 1
/wp-content/themes/safreen/fonts/awesome/fonts/fontawesome-webfont.woff 1 83588 0 1
END_SIDER
