AWSTATS DATA FILE 7.6 (build 20161204)
# If you remove this file, all statistics for date 201802 will be lost/reset.
# Last config file used to build this data file was /home/ecomatrixnutrien/tmp/awstats/awstats.ecomatrixnutrients.in.conf.

# Position (offset in bytes) in this file for beginning of each section for
# direct I/O access. If you made changes somewhere in this file, you should
# also remove completely the MAP section (AWStats will rewrite it at next
# update).
BEGIN_MAP 28
POS_GENERAL 2026                
POS_TIME 2704                
POS_VISITOR 16617               
POS_DAY 21901               
POS_DOMAIN 3528                
POS_LOGIN 4083                
POS_ROBOT 4238                
POS_WORMS 4846                
POS_EMAILSENDER 4977                
POS_EMAILRECEIVER 5120                
POS_SESSION 22541               
POS_SIDER 22751               
POS_FILETYPES 5255                
POS_DOWNLOADS 5541                
POS_OS 6950                
POS_BROWSER 7345                
POS_SCREENSIZE 8624                
POS_UNKNOWNREFERER 8698                
POS_UNKNOWNREFERERBROWSER 9359                
POS_ORIGIN 9720                
POS_SEREFERRALS 9858                
POS_PAGEREFS 10023               
POS_SEARCHWORDS 10196               
POS_KEYWORDS 10348               
POS_MISC 2368                
POS_ERRORS 10407               
POS_CLUSTER 3939                
POS_SIDER_404 10596               
END_MAP

# LastLine    = Date of last record processed - Last record line number in last log - Last record offset in last log - Last record signature value
# FirstTime   = Date of first visit for history file
# LastTime    = Date of last visit for history file
# LastUpdate  = Date of last update - Nb of parsed records - Nb of parsed old records - Nb of parsed new records - Nb of parsed corrupted - Nb of parsed dropped
# TotalVisits = Number of visits
# TotalUnique = Number of unique visitors
# MonthHostsKnown   = Number of hosts known
# MonthHostsUnKnown = Number of hosts unknown
BEGIN_GENERAL 8
LastLine 20180224101357 31 6330 15256982195934
FirstTime 20180201010617
LastTime 20180224101354
LastUpdate 20180224121231 31 0 31 0 0
TotalVisits 303                 
TotalUnique 119                 
MonthHostsKnown 0                   
MonthHostsUnknown 144                 
END_GENERAL

# Misc ID - Pages - Hits - Bandwidth
BEGIN_MISC 10
QuickTimeSupport 0 0 0
RealPlayerSupport 0 0 0
AddToFavourites 0 1 0
JavaEnabled 0 0 0
JavascriptDisabled 0 0 0
WindowsMediaPlayerSupport 0 0 0
DirectorSupport 0 0 0
TotalMisc 0 0 0
PDFSupport 0 0 0
FlashSupport 0 0 0
END_MISC

# Hour - Pages - Hits - Bandwidth - Not viewed Pages - Not viewed Hits - Not viewed Bandwidth
BEGIN_TIME 24
0 35 35 63549 60 72 839246
1 18 18 68739 1488 1489 4673938
2 17 17 80517 19 23 250237
3 24 24 226144 22 24 135912
4 36 75 1124403 1491 1496 4615268
5 9 17 1461266 12 15 88498
6 24 24 492945 31 38 411883
7 68 467 9917878 336 346 1244444
8 31 31 103070 850 852 2411188
9 30 86 2690343 21 24 318247
10 21 21 141164 21 62 1179153
11 57 60 665287 90 95 1039390
12 29 39 422751 1491 1493 4716035
13 9 11 60924 44 78 251619
14 17 18 298854 25 41 558696
15 7 7 19778 26 29 90113
16 11 11 25003 85 100 467395
17 18 18 80157 25 48 820069
18 36 37 130247 65 72 670007
19 16 42 870888 19 20 86128
20 13 13 104115 86 86 448535
21 77 147 819723 32 36 500679
22 7 7 19778 7 20 319474
23 18 18 88172 14 22 385539
END_TIME

# Domain - Pages - Hits - Bandwidth
# The 25 first Pages must be first (order not required for others)
BEGIN_DOMAIN 27
us 492 990 15298113
fr 19 19 265442
ua 15 17 179669
in 14 115 2738917
ru 14 14 116640
cn 14 14 205797
ca 14 14 468987
pl 6 6 25080
jp 5 5 1
au 5 5 165333
br 4 4 25004
nl 4 4 61254
th 3 3 3
ar 2 2 19779
cl 2 2 23958
gb 2 15 311570
cz 2 2 5225
id 2 2 1
lv 2 2 39556
mn 1 1 1
ec 1 1 1
pk 1 1 19778
de 1 1 1
tw 1 1 1
al 1 1 1
ae 0 1 5582
se 1 1 1
END_DOMAIN

# Cluster ID - Pages - Hits - Bandwidth
BEGIN_CLUSTER 0
END_CLUSTER

# Login - Pages - Hits - Bandwidth - Last visit
# The 10 first Pages must be first (order not required for others)
BEGIN_LOGIN 0
END_LOGIN

# Robot ID - Hits - Bandwidth - Last visit - Hits on robots.txt
# The 25 first Hits must be first (order not required for others)
BEGIN_ROBOT 12
Googlebot/ 137 2755679 20180224061707 12
Baiduspider/ 56 1206919 20180224064221 0
bingpreview 26 777922 20180209103754 0
no_user_agent 11 217640 20180221212429 0
(firefox/)([0-9]\.|[0-1][0]\.) 8 39958 20180223215803 6
unknown 7 469 20180223210831 7
bingbot/ 5 136783 20180220213157 3
SafeDNSBot 4 158407 20180204071944 1
SurveyBot/ 2 19845 20180209050340 1
Googlebot\-Image/ 2 57760 20180205231541 0
MJ12bot/ 2 19845 20180219083936 1
Python\-urllib/ 1 19760 20180210120824 0
END_ROBOT

# Worm ID - Hits - Bandwidth - Last visit
# The 5 first Hits must be first (order not required for others)
BEGIN_WORMS 0
END_WORMS

# EMail - Hits - Bandwidth - Last visit
# The 20 first Hits must be first (order not required for others)
BEGIN_EMAILSENDER 0
END_EMAILSENDER

# EMail - Hits - Bandwidth - Last visit
# The 20 first hits must be first (order not required for others)
BEGIN_EMAILRECEIVER 0
END_EMAILRECEIVER

# Files type - Hits - Bandwidth - Bandwidth without compression - Bandwidth after compression
BEGIN_FILETYPES 12
jpg 53 5288221 0 0
woff 13 1086644 0 0
js 271 4416860 0 0
php 378 111859 0 0
Unknown 1 52979 0 0
gif 3 2541 0 0
css 235 4991276 0 0
html 222 3689976 0 0
xml 10 10450 0 0
png 5 53404 0 0
woff2 4 266496 0 0
txt 48 4989 0 0
END_FILETYPES

# Downloads - Hits - Bandwidth
BEGIN_DOWNLOADS 19
/.well-known/pki-validation/56A1808419A8E7490598561F4B02A3E8.txt 14 0 1078
/.well-known/pki-validation/00B1EE8ADEFEF536515BA54B898F8067.txt 6 0 462
/.well-known/pki-validation/AB0D68BD693889244D6A324A7F54A2D4.txt 5 0 385
/.well-known/pki-validation/9C7031CA686BFE84D878470C4A95087B.txt 4 0 308
/.well-known/pki-validation/BDDF8450E9B20452E3F88C775D7F6424.txt 3 0 231
/.well-known/pki-validation/DF14DB55699798D6E08A10A4589458F2.txt 2 0 154
/wp-content/plugins/contact-form-7/license.txt 2 0 1590
/.well-known/pki-validation/7881DE4DD97E9F53801D7F2F1A43D504.txt 1 0 64
/.well-known/pki-validation/1761E26868957325B7DC11FC782A2385.txt 1 0 64
/.well-known/pki-validation/F0FEA71F2C111A298EA992704C8041E3.txt 1 0 77
/.well-known/pki-validation/EBEC35036057706D51CAFE4B3D81BC34.txt 1 0 64
/.well-known/pki-validation/3E994483B5000A6F5EE1A3EF0B40BC75.txt 1 0 64
/.well-known/pki-validation/34BB0A224D62F8DDC34A41B697820A3B.txt 1 0 64
/.well-known/pki-validation/50612AC6C7D1CE80D1382BEDB02CE471.txt 1 0 64
/.well-known/pki-validation/662325452284D9CD7B1C8E3C24ECA629.txt 1 0 64
/.well-known/pki-validation/0A8A672AA0E7E9D0354C2AF711362454.txt 1 0 64
/.well-known/pki-validation/8B8B3A0EA70251395C3348AC35B6D586.txt 1 0 64
/.well-known/pki-validation/BCA1EF97C88C8FDE42A0360960A583A4.txt 1 0 64
/.well-known/pki-validation/B937294B95DD4890D16BADC050E77A90.txt 1 0 64
END_DOWNLOADS

# OS ID - Hits
BEGIN_OS ID - Hits - Pages 27
winlong 4 4
macosx10 17 5
ios_iphone 6 6
win2003 3 3
win98 2 2
macosx5 3 2
winxp 14 14
wince 1 1
macosx9 1 1
Unknown 494 428
win10 594 88
linux 9 8
macosx12 11 11
linuxubuntu 1 1
macosx4 2 2
win7 17 16
macosx 3 3
win8.1 1 0
macosx7 6 6
win95 3 3
winnt 1 1
win2000 9 9
linuxandroid 33 6
winme 1 1
win8 3 3
macosx8 1 1
macosx6 3 3
END_OS

# Browser ID - Hits - Pages
BEGIN_BROWSER 66
msie7.0 1 1
firefox29.0 3 3
msie9.0 6 6
chrome45.0.2454.101 4 4
chrome61.0.3163.100 11 11
opera8.97 1 1
opera8.30 1 1
firefox36.0 2 2
chrome46.0.2754.75 1 1
cloudflare 20 0
chrome45.0.2454.93 2 2
chrome38.0.888.0 1 1
chrome40.0.858.0 2 2
chrome36.0.825.0 1 1
safari9.0 6 6
chrome41.0.2272.104 13 1
firefox50.0 8 8
chrome62.0.3202.94 2 2
chrome33.0.1750.152 1 1
msie11.0 1 1
msie8.0 4 4
msie10.0 1 1
opera9.27 1 1
chrome21.0.1180.82 3 3
chrome37.0.872.0 1 1
chrome37.0.893.0 1 1
firefox27.0 1 1
edge36 2 2
firefox57.0 1 1
chrome50.0.2661.75 5 5
chrome12.0.742.112 1 1
firefox35.0 2 2
opera9.97 1 1
chrome52.0.2743.116 423 26
chrome63.0.3239.132 142 31
chrome36.0.1985.125 1 1
Unknown 450 404
opera9.37 1 1
chrome40.0.808.0 1 1
mozilla 24 24
chrome58.0.3029.110 3 3
chrome39.0.877.0 1 1
firefox33.0 3 3
chrome38.0.892.0 1 1
safari5.0.2 1 1
firefox37.0 1 1
opera36.0.2130.32 2 2
chrome54.0.2840.71 15 15
chrome63.0.3239.111 32 5
firefox32.0 1 1
msie5.0 4 4
chrome34.0.1847.116 1 1
safari5.0 1 1
opera8.50 6 6
chrome18.0.1025.151 1 0
msie6.0 7 7
opera8.39 1 1
firefox51.0 1 1
chrome58.0.1145.75 1 1
chrome38.0.879.0 1 1
chrome13.0.782.24 1 0
chrome45.0.2454.94 1 1
chrome40.0.803.0 1 1
firefox26.0 1 1
firefox45.0 1 1
opera9.81 1 1
END_BROWSER

# Screen size - Hits
BEGIN_SCREENSIZE 0
END_SCREENSIZE

# Unknown referer OS - Last visit date
BEGIN_UNKNOWNREFERER 11
ltx71_-_(http://ltx71.com/) 20180223210841
Mozilla/5.0_(compatible;_ips-agent) 20180211071333
WordPress/4.7.4;_http://ecomatrixnutrients.in 20180224101354
Go-http-client/1.1 20180203084024
Mozilla/3.0_(compatible;_Indy_Library) 20180219230117
Mozilla/5.0_(compatible;_Dataprovider.com;) 20180221064126
Mozilla/5.0_(compatible;_CloudFlare-AlwaysOnline/1.0;__http://www.cloudflare.com/always-online)_AppleWebKit/534.34 20180222054428
COMODO_DCV 20180215215524
Magic_Browser 20180221103902
}__test|O:21:\ 20180210120750
Grammarly/1.0_(http://www.grammarly.com) 20180205034536
END_UNKNOWNREFERER

# Unknown referer Browser - Last visit date
BEGIN_UNKNOWNREFERERBROWSER 7
WordPress/4.7.4;_http://ecomatrixnutrients.in 20180224101354
Magic_Browser 20180221103902
}__test|O:21:\ 20180210120750
Go-http-client/1.1 20180203084024
Grammarly/1.0_(http://www.grammarly.com) 20180205034536
ltx71_-_(http://ltx71.com/) 20180223210841
COMODO_DCV 20180215215524
END_UNKNOWNREFERERBROWSER

# Origin - Pages - Hits 
BEGIN_ORIGIN 6
From0 205 273
From1 8 8
From2 2 5
From3 1 1
From4 412 956
From5 0 0
END_ORIGIN

# Search engine referers ID - Pages - Hits
BEGIN_SEREFERRALS 1
www_google_co_in 2 5
END_SEREFERRALS

# External page referers - Pages - Hits
# The 25 first Pages must be first (order not required for others)
BEGIN_PAGEREFS 1
http://104.37.189.66 1 1
END_PAGEREFS

# Search keyphrases - Number of search
# The 10 first number of search must be first (order not required for others)
BEGIN_SEARCHWORDS 0
END_SEARCHWORDS

# Search keywords - Number of search
# The 25 first number of search must be first (order not required for others)
BEGIN_KEYWORDS 0
END_KEYWORDS

# Errors - Hits - Bandwidth
BEGIN_ERRORS 10
500 310 26
302 8 0
404 246 4371135
400 7 0
405 2 84
403 70 31885
401 12 1296
408 1 0
503 5628 16706280
301 35 0
END_ERRORS

# URL with 404 errors - Hits - Last URL referrer
BEGIN_SIDER_404 107
/downloader/ 1 -
/wp-content/plugins/cherry-plugin/admin/import-export/eNQ9w.php 1 -
/wp-content/uploads/AAPL/loaders/FJjM7.php 1 -
/smalls.php 1 ecomatrixnutrients.in
/wp-content/themes/version.php 1 -
/blog/robots.txt 1 -
/wp-content/plugins/php-event-calendar/css/file-uploader/jquery.fileupload.css 1 -
/blog/xmlrpc.php 1 -
/administrator/ 1 -
/wp-content/plugins/up.php 1 http://ecomatrixnutrients.in/wp-content/plugins/up.php
/wp-content/uploads/user_uploads/B05pR.php.png 1 -
/wp-content/plugins/cardoza-facebook-like-box/cardoza_facebook_like_box.php 6 -
/wp-content/uploads/catalog_enquiry/whzai.php 1 -
/wp-content/plugins/google-maps-by-daniel-martyn/inuse.php 2 -
/wp-content/plugins/gravityforms/css/preview.css 1 -
/wp-content/uploads/AAPL/loaders/kzdvz.php 2 -
/wp-content/plugins/wp-symposium/server/php/index.php 1 -
/wp-content/plugins/page-google-maps/pr.php 4 -
/wp-content/plugins/user-avatar/readme.txt 1 -
/abpout 1 http://ya.ru/
/wp-content/plugins/dzs-videogallery/admin/upload.php 6 -
/sitemap.xml 1 -
/wp-content/uploads/2018/01/zgepd_oddsd.php 1 http://ecomatrixnutrients.in/wp-content/uploads/2018/01/zgepd_oddsd.php
/wp-content/common.php 1 http://ecomatrixnutrients.in/wp-content/common.php
/wp-content/jssor-slider/jssor-uploads/HJloJ.php 1 -
/wp-content/plugins/cherry-plugin/admin/import-export/9iIXS.php 1 -
/wp-content/plugins/showbiz/temp/update_extract/X3Aal.php 1 -
/wp-content/plugins/apikey/apikey.php 1 ecomatrixnutrients.in
/wp-content/jssor-slider/jssor-uploads/Hkvve.php 2 -
/wp-content/plugins/formcraft/file-upload/server/php/upload.php 1 -
//wp-content/plugins/google-maps-by-daniel-martyn/inuse.php 1 -
/wp-content/wp-caches.php 1 http://ecomatrixnutrients.in/wp-content/wp-caches.php
/wp-content/plugins/wp-handy-lightbox/begin.php 4 -
/wp-admin/user/fronqx.php 1 ecomatrixnutrients.in
/wp-content/plugins/cacheformwp.php 1 -
/wp-content/plugins/gallery-plugin/upload/php.php 4 -
/wp-cron.php 1 http://ecomatrixnutrients.in/wp-cron.php
/wp-content/plugins/auto-attachments/a-a.css 1 -
/wp-post.php 1 ecomatrixnutrients.in
/wp-content/uploads/user_uploads/Dr1Wi.php.png 1 -
/wp-admin/logo_img.php 1 http://ecomatrixnutrients.in/wp-admin/logo_img.php
/blog// 1 -
/wp-content/plugins/delete-all-comments/readme.txt 2 -
/wp-content/plugins/cherry-plugin/admin/import-export/upload.php 2 -
/wp-content/plugins/simple-dropbox-upload-form/dragup/ 2 -
/wp-content/plugins/custom-content-type-manager/index.html 1 -
/wp-content/plugins/dzs-portfolio/admin/upload.php 3 -
/wp-content/plugins/wp-db-ajax-made/wp-db-backup.php 1 ecomatrixnutrients.in
/sph.php 1 ecomatrixnutrients.in
/wp-content/uploads/wysija/themes/ok/ok.php 1 -
/wp-content/plugins/simple-ads-manager/sam-ajax-admin.php 2 -
/wp-json/oembed/1.0/embed 2 -
/wp-includes/Text/index.php 1 ecomatrixnutrients.in
/wp-content/plugins/reflex-gallery/admin/scripts/FileUploader/php.php 1 -
/soil-conditioners/ 2 -
/liquid-plant-supplements/ 1 -
/wp-content/uploads/catalog_enquiry/vntpg.php 1 -
/wp-content/plugins/showbiz/temp/update_extract/tnGxg.php 1 -
/wp-content/plugins/real3d-flipbook/includes/process.php 3 -
/wp-content/plugins/groupsassembly/js/js.php 1 ecomatrixnutrients.in
/bio-fungicide/ 2 -
/ads.txt 1 -
/wp-content/plugins/revslider/temp/update_extract/revslider/db.php 1 -
/ 67 -
/administrator/components/com_joomlaupdate/restore.php 1 -
/zemygiqugdokw.html 1 -
/cache/iph.php 1 ecomatrixnutrients.in
/wp-content/plugins/simple-ads-manager/js/slider/tmpl.js 1 -
/wp-content/plugins/wpstorecart/php/upload.php 2 -
/yt.php 1 -
/hivcxa.php 1 ecomatrixnutrients.in
/wp-pols.php 1 ecomatrixnutrients.in
/wp-content/plugins/uploader/uploadify/uploadify.php 3 -
/wp-content/plugins/codecanyon-157782-video-gallery-wordpress-plugin-w-youtube-vimeo-/upload.php 4 -
/wp-content/plugins/codecanyon-157782-video-gallery-wordpress-plugin-w-youtube-vimeo-/admin/upload.php 3 -
/wp-content/plugins/sfwd-lms/assets/css/style.css 1 -
/wp-includes/css/login_wall.php 1 ecomatrixnutrients.in
/wp-content/plugins/dzs-videogallery/upload.php 5 -
/wp-content/plugins/formcraft/file-upload/server/content/upload.php 4 -
/wp-admin/admin-ajax.php 1 -
/wp-content/plugins/cherry-plugin/admin/import-export/download-content.php 1 -
/wp-content/plugins/wp-symposium/server/php/MIdNkkRhfYvhPA.php 1 -
/wp-content/uploads/AAPL/loaders/HL0O4.php 1 -
/wp-content/plugins/cimy-user-extra-fields/README_OFFICIAL.txt 1 -
/liquid-organic-growth-promoters/ 1 -
/wp-content/plugins/gallery-slider/register.php 2 -
/xml.php 1 ecomatrixnutrients.in
/wp-content/uploads/user_uploads/9WZle.php.png 1 -
/wp-content/plugins/xcloner-backup-and-restore/readme.txt 1 -
/wp-content/plugins/mm-forms-community/includes/doajaxfileupload.php 2 -
/info.php 1 -
/wp-content/plugins/cardoza-facebook-like-box/custom-css/xo.php 5 -
/abouts-uis/ 2 -
/wp-content/plugins/cherry-plugin/admin/css/cherry-admin-plugin.css 2 -
/wp-content/plugins/cherry-plugin/admin/import-export/5yZjQ.php 1 -
/wp-content/plugins/contus-hd-flv-player/uploadVideo.php 3 -
/wp-content/plugins/mailpress/mp-includes/action.php 5 -
/wp-content/plugins/dzs-portfolio/upload.php 7 -
/wp-content/uploader.php 1 http://ecomatrixnutrients.in/wp-content/uploader.php
/wp-content/plugins/contact-form-7/includes/js/jquery.form.min.js 1 http://ecomatrixnutrients.in/microbiol-fertilizers/
/wp-content/plugins/font-uploader/font-upload.php 4 -
/wp-version.php 1 ecomatrixnutrients.in
/wp-content/plugins/wp-mobile-detector/cache/db.php 1 -
/wp-content/plugins/mac-dock-gallery/bugslist.txt 1 -
/wp-content/plugins/php-event-calendar/server/file-uploader/ 2 -
/wp-content/plugins/zingiri-web-shop/admin.css 1 -
/wp-content/plugins/wp-property/third-party/uploadify/uploadify.php 2 -
END_SIDER_404

# Host - Pages - Hits - Bandwidth - Last visit date - [Start date of last visit] - [Last page of last visit]
# [Start date of last visit] and [Last page of last visit] are saved only if session is not finished
# The 25 first Hits must be first (order not required for others)
BEGIN_VISITOR 144
104.37.189.66 390 433 3582 20180224101354 20180224101354 /wp-cron.php
66.70.182.141 26 423 9473912 20180216073027
158.69.116.60 12 12 449209 20180221064130
69.58.178.57 10 10 356014 20180211071333
37.59.178.104 8 8 83292 20180211041713
13.56.229.65 8 8 158224 20180223010314
219.90.110.32 7 55 1184284 20180223094349
103.220.212.77 6 56 1436212 20180220211647
62.210.80.125 6 6 136563 20180222231750
46.118.155.165 5 5 45826 20180219213135
165.227.102.239 4 4 79112 20180219044131
35.162.70.167 4 4 79112 20180220110740
133.242.54.221 4 4 0 20180213215512
52.34.24.33 4 4 62051 20180221103902
64.233.173.151 3 11 391737 20180210044404
146.185.223.250 3 3 25003 20180209201921
195.22.125.5 3 3 12540 20180215123515
69.46.36.20 3 3 33 20180220211704
37.115.185.236 3 3 25003 20180213095200
95.211.94.107 3 3 41476 20180219230117
129.78.110.124 3 3 59375 20180207003442
185.234.216.56 3 3 12540 20180202041747
195.22.127.174 3 3 12540 20180218011135
201.18.18.173 3 3 25003 20180202032708
139.59.42.246 2 2 105958 20180217193529
114.221.125.24 1 1 19778 20180204112634
184.158.230.64 1 1 1 20180210001403
91.200.12.35 1 1 4180 20180206084450
54.166.109.50 1 13 214805 20180219044210
76.0.19.156 1 1 1 20180210001423
192.160.102.169 1 1 0 20180213110539
184.5.212.203 1 1 1 20180210001241
67.234.151.219 1 1 19778 20180210001247
125.209.68.85 1 1 19778 20180208122523
95.183.79.236 1 1 0 20180213110023
162.158.64.203 0 1 180186 
186.223.93.248 1 1 1 20180204111539
82.114.65.14 1 1 1 20180222180825
162.158.64.217 0 1 180186 
75.169.34.104 1 1 0 20180210001415
192.99.58.31 1 1 19778 20180222180604
50.112.194.65 1 1 19778 20180223210822
51.254.101.95 1 1 19778 20180219132512
106.47.162.155 1 1 19778 20180214222414
202.179.4.70 1 1 1 20180213110018
5.135.138.188 1 1 1765 20180219110336
46.16.226.222 2 2 2 20180222180831
74.208.16.168 1 1 19778 20180207235840
50.116.87.200 1 1 19778 20180210130039
162.158.64.199 0 1 180186 
202.46.54.117 1 1 19778 20180210061257
122.174.59.79 0 1 51143 
91.200.12.113 2 2 23958 20180222064254
75.172.109.116 1 1 0 20180210001311
162.158.64.239 0 1 180186 
213.148.166.161 1 1 1 20180204111613
42.106.5.48 1 2 30529 20180210044256
64.233.173.150 0 8 39410 
91.206.200.203 1 1 19778 20180207163102
181.111.56.248 1 1 1 20180213111006
208.13.212.108 1 1 4180 20180224040822
52.41.211.72 2 2 39556 20180217100602
153.149.171.22 1 1 1 20180210001230
201.236.142.174 1 1 4180 20180214032822
96.85.198.105 1 1 0 20180204111553
35.162.194.44 1 1 19778 20180204155103
162.158.64.48 0 1 180186 
162.158.64.75 0 1 180186 
35.194.1.1 1 1 19778 20180223210841
162.158.65.219 0 1 180186 
106.45.0.192 1 1 19778 20180219052011
94.130.129.47 1 1 19778 20180209032344
203.128.68.242 1 1 0 20180210001246
146.185.144.64 1 1 19778 20180215175719
162.158.64.131 0 1 180186 
64.233.173.149 1 11 270148 20180210044325
5.135.143.224 1 1 0 20180206074215
96.9.79.20 1 1 1 20180213110638
162.158.65.199 0 1 180186 
217.147.169.218 1 3 21368 20180206131313
162.158.65.183 0 1 180186 
162.158.64.206 0 1 180186 
24.174.198.85 1 1 1 20180204111536
150.107.93.139 0 1 36749 
172.98.161.78 1 1 1 20180213111015
86.110.118.3 1 1 19760 20180210120750
183.166.21.110 1 1 19778 20180213105939
162.158.65.76 0 1 180186 
52.4.104.152 1 1 116804 20180205034536
162.158.64.174 0 1 180186 
188.138.105.23 1 1 1 20180223000502
50.87.248.85 1 1 19778 20180210014218
162.158.64.73 0 1 180186 
50.87.248.141 1 1 19778 20180210085729
219.85.63.166 1 1 1 20180213101918
86.99.51.228 0 1 5582 
46.183.216.213 2 2 39556 20180206141603
91.206.201.29 1 1 19778 20180211123925
34.207.37.115 1 1 19778 20180203084024
178.171.31.46 1 1 19778 20180222170654
39.137.76.227 1 1 1 20180210001300
162.158.65.162 0 1 180186 
52.13.123.54 1 1 19778 20180217085722
128.199.124.86 1 1 19778 20180217193522
128.199.233.247 1 11 291561 20180220125517
69.46.36.28 1 1 0 20180210074640
37.59.47.13 1 1 4266 20180204111922
175.42.0.40 1 1 19778 20180219080141
162.158.64.178 0 1 180186 
69.89.31.128 2 2 39556 20180209183328
132.148.194.150 1 1 19778 20180211201553
190.18.1.53 1 1 19778 20180203124341
181.113.121.158 1 1 1 20180222180642
86.49.188.134 2 2 5225 20180211161800
218.64.82.234 2 2 8033 20180220230134
27.156.90.168 1 1 19778 20180218205730
50.87.248.235 1 1 19778 20180207092103
99.194.12.182 1 1 1 20180210001432
61.7.190.245 1 1 1 20180213110309
73.237.110.66 1 1 0 20180204111654
162.158.65.200 0 1 180186 
202.46.53.118 1 1 19778 20180211142129
162.158.65.90 0 1 180186 
76.3.27.156 1 1 1 20180210001314
183.166.23.32 1 1 1 20180213110041
50.87.249.154 1 1 19778 20180210194741
31.163.15.250 1 1 19778 20180214200618
35.161.243.131 1 1 4180 20180201232042
67.227.100.20 1 1 19778 20180207180949
149.202.45.13 1 1 19778 20180212033312
162.158.64.49 0 1 180186 
36.79.134.67 1 1 1 20180222180728
159.65.36.202 2 2 45521 20180207042958
183.88.63.49 1 1 1 20180210001358
183.89.192.9 1 1 1 20180204111549
1.191.110.73 1 1 19760 20180204111551
91.199.212.132 0 3 231 
38.80.27.185 1 1 19778 20180222180854
31.211.86.13 1 1 19778 20180211113842
125.84.180.155 1 1 19778 20180219140651
209.59.138.111 1 1 19778 20180208201202
89.236.17.108 1 1 1 20180222180709
181.214.30.144 1 1 19778 20180213000546
162.158.64.184 0 1 180186 
END_VISITOR

# Date - Pages - Hits - Bandwidth - Visits
BEGIN_DAY 24
20180201 26 28 364564 10
20180202 52 52 78239 15
20180203 26 26 99935 19
20180204 45 46 284385 22
20180205 12 17 913894 7
20180206 18 20 124438 14
20180207 23 23 189932 15
20180208 5 7 399928 4
20180209 15 15 124938 10
20180210 63 90 870286 28
20180211 42 44 666803 15
20180212 10 13 560336 9
20180213 41 41 64604 19
20180214 9 9 74552 9
20180215 14 62 415867 6
20180216 32 429 9473912 5
20180217 15 41 910444 10
20180218 17 18 277803 8
20180219 32 46 790619 19
20180220 44 78 1050119 16
20180221 18 18 451926 7
20180222 43 45 489229 19
20180223 20 69 1294762 12
20180224 6 6 4180 5
END_DAY

# Session range - Number of visits
BEGIN_SESSION 7
5mn-15mn 11
30mn-1h 24
2mn-5mn 4
1h+ 13
0s-30s 237
15mn-30mn 6
30s-2mn 7
END_SESSION

# URL - Pages - Bandwidth - Entry - Exit
# The 25 first Pages must be first (order not required for others)
BEGIN_SIDER 28
/wp-cron.php 260 0 141 151
/ 173 1784773 98 80
/wp-admin/admin-ajax.php 83 362 32 27
/wp-login.php 22 91719 10 16
/wp-content/themes/safreen/fonts/awesome/fonts/fontawesome-webfont.woff 13 1086644 0 1
/contact-us/ 12 271557 4 4
/wp-includes/wlwmanifest.xml 10 10450 1 5
/wp-admin/admin-post.php 7 0 7 7
/about-director/ 5 102188 1 1
/our-facility/ 4 88217 1 2
/wp-content/themes/safreen/fonts/awesome/fonts/fontawesome-webfont.woff2 4 266496 1 0
/bulk-supply/ 4 82057 0 0
/foliar-application/ 3 194166 0 1
/microbiol-fertilizers/ 3 350412 1 1
/products/ 3 56730 0 0
/mission-vision/ 3 62742 0 0
/soil-application/ 3 368564 0 1
/about/ 3 65274 1 0
/organic-pesticides/ 2 169032 0 0
/wp-content/plugins/index.php 2 0 1 2
/shop/ 2 39520 0 0
/feed/ 1 1765 1 1
/index.php 1 19778 1 1
/wp-content/themes/twentyseventeen/inc/color-patterns.php 1 0 1 0
/wp-content/index.php 1 0 0 0
/wp-json/ 1 52979 1 0
/wp-content/themes/index.php 1 0 0 0
/wp-json 1 52979 0 1
END_SIDER
