AWSTATS DATA FILE 7.4 (build 20140726)
# If you remove this file, all statistics for date 201709 will be lost/reset.
# Last config file used to build this data file was /home/ecomatrixnutrien/tmp/awstats/awstats.ecomatrixnutrients.in.conf.

# Position (offset in bytes) in this file for beginning of each section for
# direct I/O access. If you made changes somewhere in this file, you should
# also remove completely the MAP section (AWStats will rewrite it at next
# update).
BEGIN_MAP 28
POS_GENERAL 2026                
POS_TIME 2698                
POS_VISITOR 11957               
POS_DAY 16071               
POS_DOMAIN 3521                
POS_LOGIN 4117                
POS_ROBOT 4272                
POS_WORMS 4678                
POS_EMAILSENDER 4809                
POS_EMAILRECEIVER 4952                
POS_SESSION 16877               
POS_SIDER 17086               
POS_FILETYPES 5087                
POS_DOWNLOADS 5349                
POS_OS 6414                
POS_BROWSER 6647                
POS_SCREENSIZE 7638                
POS_UNKNOWNREFERER 7712                
POS_UNKNOWNREFERERBROWSER 8249                
POS_ORIGIN 8548                
POS_SEREFERRALS 8688                
POS_PAGEREFS 8852                
POS_SEARCHWORDS 9097                
POS_KEYWORDS 9249                
POS_MISC 2362                
POS_ERRORS 9308                
POS_CLUSTER 3973                
POS_SIDER_404 9482                
END_MAP

# LastLine    = Date of last record processed - Last record line number in last log - Last record offset in last log - Last record signature value
# FirstTime   = Date of first visit for history file
# LastTime    = Date of last visit for history file
# LastUpdate  = Date of last update - Nb of parsed records - Nb of parsed old records - Nb of parsed new records - Nb of parsed corrupted - Nb of parsed dropped
# TotalVisits = Number of visits
# TotalUnique = Number of unique visitors
# MonthHostsKnown   = Number of hosts known
# MonthHostsUnKnown = Number of hosts unknown
BEGIN_GENERAL 8
LastLine 20171002201920 1 0 10374078274559
FirstTime 20170901135330
LastTime 20170930101544
LastUpdate 20171003120313 1 0 0 0 0
TotalVisits 437                 
TotalUnique 90                  
MonthHostsKnown 0                   
MonthHostsUnknown 107                 
END_GENERAL

# Misc ID - Pages - Hits - Bandwidth
BEGIN_MISC 10
RealPlayerSupport 0 0 0
WindowsMediaPlayerSupport 0 0 0
QuickTimeSupport 0 0 0
DirectorSupport 0 0 0
JavascriptDisabled 0 0 0
FlashSupport 0 0 0
JavaEnabled 0 0 0
PDFSupport 0 0 0
AddToFavourites 0 0 0
TotalMisc 0 0 0
END_MISC

# Hour - Pages - Hits - Bandwidth - Not viewed Pages - Not viewed Hits - Not viewed Bandwidth
BEGIN_TIME 24
0 14 16 423886 19 33 539385
1 15 42 1114890 5 9 217709
2 58 124 1980738 41 55 879313
3 11 11 79112 8 15 246865
4 24 24 240279 78 129 1705139
5 42 67 1952738 16 20 315702
6 58 99 2630046 21 50 987794
7 39 77 1245298 6 10 78628
8 25 25 138506 4 5 129948
9 24 24 197792 15 18 307044
10 20 49 931517 9 30 529575
11 34 34 264104 38 40 561661
12 29 132 2948709 9 10 91384
13 18 42 666931 34 35 133232
14 39 41 694733 1561 1575 5125523
15 20 20 179047 12 15 172092
16 38 38 634342 12 17 272932
17 16 40 522776 18 19 268058
18 39 51 630143 32 38 285204
19 19 19 170154 14 29 531615
20 50 51 364309 15 42 923215
21 42 88 991717 1484 1489 4743307
22 35 36 1032289 10 14 183035
23 27 27 229488 16 20 342905
END_TIME

# Domain - Pages - Hits - Bandwidth
# The 25 first Pages must be first (order not required for others)
BEGIN_DOMAIN 27
us 447 581 6780502
cz 127 127 2511806
in 54 277 6476602
br 24 24 496856
hk 14 14 592197
ca 14 14 488765
ge 8 8 182084
ua 8 8 80234
fr 6 6 81202
gb 5 8 179168
sd 5 31 570004
ru 4 4 60500
id 4 33 750593
cl 2 2 39556
nl 2 27 739216
sk 2 2 39556
at 1 1 19778
hr 1 1 19778
kz 1 1 19778
eu 1 1 19778
kr 1 1 3853
bg 1 1 19778
tr 1 1 19778
th 1 1 19778
ae 1 1 19778
cn 1 1 19778
za 0 1 12848
END_DOMAIN

# Cluster ID - Pages - Hits - Bandwidth
BEGIN_CLUSTER 0
END_CLUSTER

# Login - Pages - Hits - Bandwidth - Last visit
# The 10 first Pages must be first (order not required for others)
BEGIN_LOGIN 0
END_LOGIN

# Robot ID - Hits - Bandwidth - Last visit - Hits on robots.txt
# The 25 first Hits must be first (order not required for others)
BEGIN_ROBOT 7
googlebot 168 3531486 20170930095010 19
bot[\s_+:,\.\;\/\\-] 95 1935439 20170928052400 8
spider 91 2351908 20170930110515 0
unknown 20 1340 20170929020926 20
googlebot\-image 4 124714 20170919053819 0
netcraft 3 59375 20170907200119 0
no_user_agent 2 19778 20170903232317 0
END_ROBOT

# Worm ID - Hits - Bandwidth - Last visit
# The 5 first Hits must be first (order not required for others)
BEGIN_WORMS 0
END_WORMS

# EMail - Hits - Bandwidth - Last visit
# The 20 first Hits must be first (order not required for others)
BEGIN_EMAILSENDER 0
END_EMAILSENDER

# EMail - Hits - Bandwidth - Last visit
# The 20 first hits must be first (order not required for others)
BEGIN_EMAILRECEIVER 0
END_EMAILRECEIVER

# Files type - Hits - Bandwidth - Bandwidth without compression - Bandwidth after compression
BEGIN_FILETYPES 11
html 369 9019757 0 0
php 350 76059 0 0
woff 2 167176 0 0
xml 5 5225 0 0
js 195 2936067 0 0
css 137 2716251 0 0
txt 42 3143 0 0
jpg 57 4719390 0 0
png 4 12447 0 0
woff2 10 599616 0 0
gif 6 8413 0 0
END_FILETYPES

# Downloads - Hits - Bandwidth
BEGIN_DOWNLOADS 14
/.well-known/pki-validation/A44CBE65D8F60A24460EF5D63FE60D9F.txt 14 0 1078
/.well-known/pki-validation/28C68C7529478DF04AF13B8ADE1B89CC.txt 6 0 462
/.well-known/pki-validation/81C127CDDA60611BB9393A0E487256D4.txt 5 0 385
/.well-known/pki-validation/E55545DD16B96A5D56C39B151CE1510C.txt 4 0 308
/.well-known/pki-validation/EDE03E46B2C83BDA133B9D68A70BD4C4.txt 3 0 231
/.well-known/pki-validation/79CA327F7B5BA916043FA2F1CFC702A9.txt 2 0 154
/.well-known/pki-validation/4DD6701ACF6CC6751904349AED141A7E.txt 1 0 64
/.well-known/pki-validation/54045104A4F5BCF8A8653157871E0AFD.txt 1 0 64
/.well-known/pki-validation/0A92DC1D994EE6E3F94A85E5F5B10CD9.txt 1 0 77
/.well-known/pki-validation/3D909928C2E484296CFA9B36AE139811.txt 1 0 64
/.well-known/pki-validation/C2ACF394753D95FE8B97375521AD34BA.txt 1 0 64
/.well-known/pki-validation/E6A337F4113B08D6C13075422817E8E0.txt 1 0 64
/.well-known/pki-validation/30FB2EC5DCB19AF0EEE39EF4C26D2CC3.txt 1 0 64
/.well-known/pki-validation/3AC95081244624B42EF4FA536044D5EA.txt 1 0 64
END_DOWNLOADS

# OS ID - Hits
BEGIN_OS ID - Hits - Pages 13
linux 36 11
win8.1 1 1
java 2 2
win7 235 180
winlong 2 2
winnt 181 38
macosx 89 40
linuxandroid 143 33
winxp 39 37
macosx9 1 1
win2000 4 4
macosx7 1 1
Unknown 443 386
END_OS

# Browser ID - Hits - Pages
BEGIN_BROWSER 48
msie9.0 7 7
mozilla 21 21
chrome45.0.2454.93 1 1
opera36.0.2130.32 5 5
chrome45.0.2454.101 30 29
chrome57.4.9550.4823 2 2
chrome61.0.3163.100 1 0
chrome36.0.1985.143 127 127
firefox25.0 1 1
chrome33.0.1750.152 1 1
opera7.02 1 1
chrome61.0.3163.98 89 25
chrome34.0.1847.116 1 1
firefox32.0 1 1
seamonkey 1 1
firefox2.0.0.9 1 1
chrome60.0.3112.101 5 5
firefox33.0 3 3
firefox47.0 13 13
chrome54.8.3197.9469 2 2
firefox3.6.3 1 1
chrome37.0.2062.120 5 5
firefox20.0 2 2
firefox51.0 1 1
firefox55.0 92 10
Unknown 396 354
safari 27 2
firefox11.0 2 0
chrome41.0.2272.104 52 4
android 1 1
netscape 13 13
chrome60.0.3112.113 120 14
chrome21.0.1180.82 1 1
chrome41.0.2228.0 1 1
msie10.0 1 1
firefox52.59.11 1 1
chrome58.0.3029.110 5 5
cloudflare 15 0
chrome46.0.2490.85 52 6
chrome45.0.2454.94 1 1
chrome39.0.2171.95 13 13
chrome46.0.2486.0 10 1
opera8.50 28 28
firefox53.0 2 2
firefox48.0 1 1
msie6.0 10 10
firefox50.0 10 10
chrome33.0.1750.517 1 1
END_BROWSER

# Screen size - Hits
BEGIN_SCREENSIZE 0
END_SCREENSIZE

# Unknown referer OS - Last visit date
BEGIN_UNKNOWNREFERER 7
Mozilla/5.0_(compatible;_CloudFlare-AlwaysOnline/1.0;__http://www.cloudflare.com/always-online)_AppleWebKit/534.34 20170925063941
Mozilla 20170928050706
COMODO_DCV 20170916215517
AppEngine-Google;_(_http://code.google.com/appengine;_appid:_s~buzzstream-tools-hrd) 20170903132137
Mozilla/5.0_(compatible;_ips-agent) 20170917060934
Mozilla/5.0_(compatible;_Dataprovider.com;) 20170916161747
WordPress/4.7.4;_http://ecomatrixnutrients.in 20170930092949
END_UNKNOWNREFERER

# Unknown referer Browser - Last visit date
BEGIN_UNKNOWNREFERERBROWSER 4
WordPress/4.7.4;_http://ecomatrixnutrients.in 20170930092949
COMODO_DCV 20170916215517
AppEngine-Google;_(_http://code.google.com/appengine;_appid:_s~buzzstream-tools-hrd) 20170903132137
Java/1.8.0_144 20170903104953
END_UNKNOWNREFERERBROWSER

# Origin - Pages - Hits 
BEGIN_ORIGIN 6
From0 302 365
From1 4 4
From2 2 3
From3 14 14
From4 414 791
From5 0 0
END_ORIGIN

# Search engine referers ID - Pages - Hits
BEGIN_SEREFERRALS 2
google 1 2
bing 1 1
END_SEREFERRALS

# External page referers - Pages - Hits
# The 25 first Pages must be first (order not required for others)
BEGIN_PAGEREFS 3
http://econahar.com 8 8
http://burger-imperia.com 5 5
http://www.urlopener.com/homepage.html 1 1
END_PAGEREFS

# Search keyphrases - Number of search
# The 10 first number of search must be first (order not required for others)
BEGIN_SEARCHWORDS 0
END_SEARCHWORDS

# Search keywords - Number of search
# The 25 first number of search must be first (order not required for others)
BEGIN_KEYWORDS 0
END_KEYWORDS

# Errors - Hits - Bandwidth
BEGIN_ERRORS 8
404 113 1960024
403 25 11386
405 4 168
500 33 0
401 8 864
301 54 0
206 10 408185
503 3087 9166598
END_ERRORS

# URL with 404 errors - Hits - Last URL referrer
BEGIN_SIDER_404 44
/wp-content/plugins/wp-mobile-detector/cache/db.php 2 -
/soil-conditioners/ 4 -
/wp-config.php.bak 1 http://ecomatrixnutrients.in/wp-config.php.bak
/img/logo_img.php 1 http://ecomatrixnutrients.in/img/logo_img.php
/wp-content/plugins/wp-symposium/server/php/yKWuXhLrIXhqde.php 1 -
/sites/all/libraries/elfinder/files/sfn.php 1 -
/wp-content/uploads/sfn.php 1 -
/wp-content/themes/pagelines/js/less.min.js 1 -
/wp-content/plugins/simple-ads-manager/js/slider/tmpl.js 1 -
/js/mage/cookies.js 2 ecomatrixnutrients.in
/compost-based-organic-fertilizer/ 2 -
/wp-content/plugins/revslider/sfn.php 1 -
/wp-content/uploads/2017/9/sfn.php 1 -
/sitemap.xml 1 -
/wp-content/plugins/revslider/temp/update_extract/sfn.php 1 -
/wp-content/plugins/revslider/temp/update_extract/revslider/db.php 4 -
/wp-content/themes/wp-update.php 1 -
/liquid-organic-growth-promoters/ 3 -
/wp-content/plugins/wp-symposium/server/php/VyrWAPfxusUJFx.php 1 -
/sfn.php 3 -
/ 53 -
/wp-content/plugins/revslider/temp/update_extract/revslider/db1.php 1 -
/potassium-humate-fulvic/ 1 -
/organic-biocontrol-agents/ 1 -
/liquid-plant-supplements/ 1 -
/wp-content/plugins/wp-mobile-detector/cache/db1.php 1 -
/wp-content/plugins/profile-builder/assets/js/jquery-epf-rf.js 1 -
/wp-content/plugins/asgaros-forum/skin/style.css 1 -
/wp-config.php~ 2 http://ecomatrixnutrients.in/wp-config.php~
/downloader 4 -
/bio-fungicide/ 1 -
/wp-content/plugins/Login-wall-etgFB/login_wall.php 1 -
/wp-content/uploads/uploads.php 1 -
/run.php 1 -
/wp-content/plugins/formcraft/file-upload/server/php/upload.php 1 -
/wp-content/themes/platform/admin/js/type.cufon.js 1 -
/wp-content/plugins/apikey/apikey.php 1 http://ecomatrixnutrients.in/wp-content/plugins/apikey/apikey.php
/wp-content/plugins/contact-form-7/includes/js/jquery.form.min.js 1 http://ecomatrixnutrients.in/organic-pesticides/
/wp-content/uploads.php 1 -
/modules/mod_simplefileuploadv1.3/elements/sfn.php 1 -
/wp-content/plugins/wp-db-ajax-made/wp-ajax.php 1 http://ecomatrixnutrients.in/wp-content/plugins/wp-db-ajax-made/wp-ajax.php
/wp-content/uploads/files/guest/sfn.php 1 -
/bio-insecticide/ 1 -
/wp-content/plugins/gravityforms/css/preview.css 1 -
END_SIDER_404

# Host - Pages - Hits - Bandwidth - Last visit date - [Start date of last visit] - [Last page of last visit]
# [Start date of last visit] and [Last page of last visit] are saved only if session is not finished
# The 25 first Hits must be first (order not required for others)
BEGIN_VISITOR 107
104.37.189.66 350 389 3272 20170930092949
176.121.10.57 127 127 2511806 20170930092332
104.192.74.31 26 26 1154188 20170928050706
27.97.66.38 15 54 1687024 20170929062542
118.140.38.6 13 13 577094 20170905222948
167.114.209.38 12 12 449209 20170916161749
69.58.178.58 10 10 356014 20170917060934
67.207.94.179 10 10 197780 20170928183745
174.138.41.218 10 10 178688 20170920025642
27.97.47.32 10 35 991132 20170928142146
159.203.78.63 9 10 181124 20170909022056
109.172.167.29 8 8 182084 20170915133335
49.15.166.170 6 52 1417058 20170914125526
197.252.11.104 5 31 570004 20170929120526
139.167.13.102 5 34 751920 20170907124226
110.137.42.225 4 33 750593 20170904023406
201.18.18.173 4 4 41646 20170928154825
122.175.209.5 4 33 750593 20170925071527
117.98.172.232 4 33 750593 20170906100831
37.59.178.110 4 4 41646 20170911141347
74.208.163.15 3 3 40164 20170903041337
122.168.218.124 3 25 19778 20170911171810
103.212.222.13 3 3 25723 20170903113456
69.30.225.58 3 3 10268 20170909141214
103.212.223.161 3 3 12540 20170915210950
193.171.202.150 1 1 19778 20170930072144
46.119.59.49 1 1 4180 20170902063021
54.169.192.196 1 1 19778 20170920084429
185.82.216.201 1 1 19778 20170907074331
185.188.182.33 1 1 19778 20170923155235
51.15.72.53 1 1 19778 20170927102501
187.38.252.33 2 2 45521 20170927223353
202.46.51.103 1 1 19778 20170908060951
189.122.15.198 2 2 45521 20170911213515
222.117.125.111 1 1 3853 20170904064552
177.142.163.9 2 2 45521 20170925220555
182.156.198.210 1 10 283418 20170907072633
91.200.12.35 1 1 4180 20170922174607
162.158.65.182 0 1 180186 
162.158.65.41 0 1 180186 
69.46.36.28 1 1 0 20170926203747
173.255.210.226 1 1 19778 20170912225151
54.224.203.65 1 13 214805 20170909022011
179.218.131.30 2 2 45521 20170919225046
187.36.246.224 2 2 45521 20170909234605
162.158.64.239 0 2 360372 
177.34.31.231 2 2 45521 20170906232534
54.242.31.0 1 13 214805 20170909022041
189.120.68.26 2 2 45521 20170921195242
85.248.227.163 1 1 19778 20170929110227
128.199.124.86 3 3 139381 20170929120510
69.171.217.105 1 1 19778 20170926015221
107.178.194.45 1 1 19778 20170903090937
91.142.166.62 1 1 19778 20170901135330
162.158.65.13 0 1 180186 
104.197.141.11 1 1 19778 20170907234830
107.178.194.43 1 1 19778 20170903132137
75.149.221.170 2 2 39556 20170929182201
134.19.181.29 2 27 739216 20170909050138
185.45.192.66 1 1 19778 20170909182402
31.45.207.27 1 1 19778 20170926105751
162.158.64.132 0 1 180186 
74.208.121.187 1 1 19778 20170926203736
163.172.67.180 1 1 19778 20170908020322
38.131.148.112 1 1 19778 20170912212414
64.233.173.149 0 2 63991 
69.46.36.20 1 1 11 20170911213523
151.250.140.169 1 1 19778 20170928075025
51.255.68.116 2 2 39556 20170918184649
185.183.96.29 1 1 19778 20170913151835
91.200.12.28 1 1 4180 20170927000638
62.109.17.234 1 1 19778 20170908185905
41.160.147.68 0 1 12848 
179.217.219.34 2 2 45521 20170929043417
74.50.56.232 1 1 19778 20170908115257
162.158.64.14 0 1 180186 
187.22.94.73 2 2 45521 20170914212436
54.163.163.104 1 13 214805 20170928183727
185.117.72.134 1 1 1166 20170905164953
183.87.114.130 2 2 20823 20170913062257
188.226.129.55 1 1 19778 20170923161632
107.178.113.231 1 1 4180 20170907135901
162.158.64.137 0 1 180186 
162.158.65.176 0 1 180186 
91.199.212.132 0 3 231 
179.61.181.178 1 1 19778 20170907040200
38.145.85.152 1 1 19778 20170918101818
162.158.64.178 0 1 180186 
162.158.64.250 0 1 180186 
91.200.12.91 2 2 23958 20170930024547
111.91.236.21 1 1 15103 20170922044517
103.208.244.175 2 2 42478 20170903104953
54.91.78.60 1 13 214805 20170920025620
162.158.65.44 0 1 180186 
85.248.227.164 1 1 19778 20170930101544
162.158.64.102 0 1 180186 
186.204.90.12 2 2 45521 20170928214454
181.214.161.166 1 1 19778 20170928091459
103.229.233.98 1 25 475442 20170908013324
27.145.29.93 1 1 19778 20170923171422
91.200.12.22 2 2 23958 20170921021047
173.208.132.138 2 2 39556 20170923115733
2.134.162.148 1 1 19778 20170921063044
162.158.65.81 0 1 180186 
142.4.204.22 1 1 19778 20170913024802
167.114.228.206 1 1 19778 20170903141806
162.158.65.80 0 1 180186 
END_VISITOR

# Date - Pages - Hits - Bandwidth - Visits
BEGIN_DAY 30
20170901 3 4 199964 3
20170902 5 7 410073 4
20170903 24 24 213220 12
20170904 12 41 775269 7
20170905 27 27 578296 7
20170906 10 39 796114 6
20170907 19 57 1098864 11
20170908 12 37 734740 10
20170909 41 93 1866046 22
20170910 19 20 318644 15
20170911 41 63 204861 22
20170912 22 22 203745 20
20170913 16 16 179047 14
20170914 20 68 1605694 12
20170915 23 23 156963 15
20170916 23 66 751206 12
20170917 29 29 474718 13
20170918 26 29 738350 19
20170919 17 17 164189 15
20170920 29 41 531951 17
20170921 20 20 207925 16
20170922 23 23 157729 20
20170923 35 36 397792 22
20170924 19 19 118680 13
20170925 30 62 1547887 18
20170926 30 31 190898 18
20170927 23 23 188159 18
20170928 80 117 2802263 23
20170929 45 110 2527409 22
20170930 13 13 122848 11
END_DAY

# Session range - Number of visits
BEGIN_SESSION 7
1h+ 6
2mn-5mn 2
30s-2mn 12
0s-30s 374
15mn-30mn 8
5mn-15mn 5
30mn-1h 30
END_SESSION

# URL - Pages - Bandwidth - Entry - Exit
# The 25 first Pages must be first (order not required for others)
BEGIN_SIDER 24
/wp-cron.php 274 0 196 197
/ 259 4564740 197 182
/wp-admin/admin-ajax.php 61 360 16 15
/contact-us/ 40 903059 14 19
/wp-login.php 14 55921 8 11
/soil-application/ 10 1191520 1 0
/wp-content/themes/safreen/fonts/awesome/fonts/fontawesome-webfont.woff2 10 599616 1 1
/about/ 7 130548 1 0
/foliar-application/ 7 450400 0 1
/organic-pesticides/ 6 503549 0 0
/about-director/ 6 124218 0 0
/bulk-supply/ 6 123749 0 0
/wp-includes/wlwmanifest.xml 5 5225 0 5
/mission-vision/ 5 104570 0 0
/microbiol-fertilizers/ 5 582693 0 0
/products/ 5 94550 0 0
/our-facility/ 5 110603 0 0
/shop/ 4 79040 0 2
/wp-content/themes/safreen/fonts/awesome/fonts/fontawesome-webfont.woff 2 167176 0 1
/wp-json/ 1 52979 0 1
/wp-content/uploads/ 1 1166 1 1
/index.php 1 19778 1 1
/feed/ 1 1765 0 0
/wordpress/ 1 608 1 0
END_SIDER
