AWSTATS DATA FILE 7.6 (build 20161204)
# If you remove this file, all statistics for date 201801 will be lost/reset.
# Last config file used to build this data file was /home/guruhomeshops/tmp/awstats/ssl/awstats.guruhomeshops.com.conf.

# Position (offset in bytes) in this file for beginning of each section for
# direct I/O access. If you made changes somewhere in this file, you should
# also remove completely the MAP section (AWStats will rewrite it at next
# update).
BEGIN_MAP 28
POS_GENERAL 2023                
POS_TIME 2682                
POS_VISITOR 6178                
POS_DAY 6458                
POS_DOMAIN 3305                
POS_LOGIN 3560                
POS_ROBOT 3715                
POS_WORMS 3959                
POS_EMAILSENDER 4090                
POS_EMAILRECEIVER 4233                
POS_SESSION 6802                
POS_SIDER 6949                
POS_FILETYPES 4368                
POS_DOWNLOADS 4452                
POS_OS 4500                
POS_BROWSER 4610                
POS_SCREENSIZE 4716                
POS_UNKNOWNREFERER 4790                
POS_UNKNOWNREFERERBROWSER 5053                
POS_ORIGIN 5135                
POS_SEREFERRALS 5267                
POS_PAGEREFS 5411                
POS_SEARCHWORDS 5559                
POS_KEYWORDS 5711                
POS_MISC 2346                
POS_ERRORS 5770                
POS_CLUSTER 3416                
POS_SIDER_404 5869                
END_MAP

# LastLine    = Date of last record processed - Last record line number in last log - Last record offset in last log - Last record signature value
# FirstTime   = Date of first visit for history file
# LastTime    = Date of last visit for history file
# LastUpdate  = Date of last update - Nb of parsed records - Nb of parsed old records - Nb of parsed new records - Nb of parsed corrupted - Nb of parsed dropped
# TotalVisits = Number of visits
# TotalUnique = Number of unique visitors
# MonthHostsKnown   = Number of hosts known
# MonthHostsUnKnown = Number of hosts unknown
BEGIN_GENERAL 8
LastLine 20180201090018 1 0 11107093110814
FirstTime 0
LastTime 20180126044749
LastUpdate 20180201093149 1 0 0 0 0
TotalVisits 15                  
TotalUnique 5                   
MonthHostsKnown 0                   
MonthHostsUnknown 5                   
END_GENERAL

# Misc ID - Pages - Hits - Bandwidth
BEGIN_MISC 10
AddToFavourites 0 0 0
QuickTimeSupport 0 0 0
TotalMisc 0 0 0
PDFSupport 0 0 0
FlashSupport 0 0 0
WindowsMediaPlayerSupport 0 0 0
RealPlayerSupport 0 0 0
DirectorSupport 0 0 0
JavaEnabled 0 0 0
JavascriptDisabled 0 0 0
END_MISC

# Hour - Pages - Hits - Bandwidth - Not viewed Pages - Not viewed Hits - Not viewed Bandwidth
BEGIN_TIME 24
0 2 2 815450 0 0 0
1 1 1 407730 1 1 36274
2 1 1 407730 2 4 1793691
3 0 0 0 4 5 2242818
4 1 1 407720 3 5 2242705
5 2 2 160000 1 1 448317
6 1 1 407730 1 1 448218
7 0 0 0 4 6 2692618
8 1 1 407720 2 3 1346394
9 2 2 815460 3 3 1346137
10 0 0 0 0 0 0
11 2 2 352000 0 0 0
12 1 1 407730 0 0 0
13 0 0 0 0 0 0
14 0 0 0 3 3 336087
15 1 1 404632 7 8 1905952
16 0 0 0 1 2 897173
17 0 0 0 2 3 896538
18 0 0 0 1 1 448181
19 0 0 0 0 0 0
20 0 0 0 0 0 0
21 0 0 0 0 0 0
22 2 2 687730 0 0 0
23 1 1 384000 1 2 897174
END_TIME

# Domain - Pages - Hits - Bandwidth
# The 25 first Pages must be first (order not required for others)
BEGIN_DOMAIN 3
de 9 9 2399180
us 8 8 3261820
fr 1 1 404632
END_DOMAIN

# Cluster ID - Pages - Hits - Bandwidth
BEGIN_CLUSTER 0
END_CLUSTER

# Login - Pages - Hits - Bandwidth - Last visit
# The 10 first Pages must be first (order not required for others)
BEGIN_LOGIN 0
END_LOGIN

# Robot ID - Hits - Bandwidth - Last visit - Hits on robots.txt
# The 25 first Hits must be first (order not required for others)
BEGIN_ROBOT 3
Googlebot/ 21 9420636 20180131073112 7
googlebot 17 7624616 20180110040555 5
netcraft 3 824000 20180109152456 0
END_ROBOT

# Worm ID - Hits - Bandwidth - Last visit
# The 5 first Hits must be first (order not required for others)
BEGIN_WORMS 0
END_WORMS

# EMail - Hits - Bandwidth - Last visit
# The 20 first Hits must be first (order not required for others)
BEGIN_EMAILSENDER 0
END_EMAILSENDER

# EMail - Hits - Bandwidth - Last visit
# The 20 first hits must be first (order not required for others)
BEGIN_EMAILRECEIVER 0
END_EMAILRECEIVER

# Files type - Hits - Bandwidth - Bandwidth without compression - Bandwidth after compression
BEGIN_FILETYPES 1
html 18 6065632 0 0
END_FILETYPES

# Downloads - Hits - Bandwidth
BEGIN_DOWNLOADS 0
END_DOWNLOADS

# OS ID - Hits
BEGIN_OS ID - Hits - Pages 4
macosx 3 3
Unknown 9 9
macosx12 5 5
win7 1 1
END_OS

# Browser ID - Hits - Pages
BEGIN_BROWSER 3
netscape5.0 9 9
chrome61.0.3163.100 8 8
firefox56.0 1 1
END_BROWSER

# Screen size - Hits
BEGIN_SCREENSIZE 0
END_SCREENSIZE

# Unknown referer OS - Last visit date
BEGIN_UNKNOWNREFERER 2
Mozilla/5.0_zgrab/0.x 20180114113757
Mozilla/5.0_zgrab/0.x_--_We_are_scanning_for_research,_further_information_at_http://researchscan.comsys.rwth-aachen.de/_-- 20180121051250
END_UNKNOWNREFERER

# Unknown referer Browser - Last visit date
BEGIN_UNKNOWNREFERERBROWSER 0
END_UNKNOWNREFERERBROWSER

# Origin - Pages - Hits 
BEGIN_ORIGIN 6
From0 18 18
From1 0 0
From2 0 0
From3 0 0
From4 0 0
From5 0 0
END_ORIGIN

# Search engine referers ID - Pages - Hits
BEGIN_SEREFERRALS 0
END_SEREFERRALS

# External page referers - Pages - Hits
# The 25 first Pages must be first (order not required for others)
BEGIN_PAGEREFS 0
END_PAGEREFS

# Search keyphrases - Number of search
# The 10 first number of search must be first (order not required for others)
BEGIN_SEARCHWORDS 0
END_SEARCHWORDS

# Search keywords - Number of search
# The 25 first number of search must be first (order not required for others)
BEGIN_KEYWORDS 0
END_KEYWORDS

# Errors - Hits - Bandwidth
BEGIN_ERRORS 2
401 4 108869
400 3 156
END_ERRORS

# URL with 404 errors - Hits - Last URL referrer
BEGIN_SIDER_404 0
END_SIDER_404

# Host - Pages - Hits - Bandwidth - Last visit date - [Start date of last visit] - [Last page of last visit]
# [Start date of last visit] and [Last page of last visit] are saved only if session is not finished
# The 25 first Hits must be first (order not required for others)
BEGIN_VISITOR 5
54.183.130.127 8 8 3261820 20180126044749
137.226.113.26 4 4 1039730 20180114113757
137.226.113.28 3 3 1199450 20180120232727
137.226.113.27 2 2 160000 20180121051250
212.83.177.250 1 1 404632 20180117154228
END_VISITOR

# Date - Pages - Hits - Bandwidth - Visits
BEGIN_DAY 13
20180103 1 1 407730 1
20180106 1 1 407730 1
20180107 3 3 1095460 2
20180109 1 1 407730 1
20180112 1 1 407730 1
20180114 3 3 759720 2
20180116 1 1 407720 1
20180117 1 1 404632 1
20180118 1 1 407730 1
20180120 1 1 384000 1
20180121 2 2 160000 1
20180123 1 1 407730 1
20180126 1 1 407720 1
END_DAY

# Session range - Number of visits
BEGIN_SESSION 1
0s-30s 15
END_SESSION

# URL - Pages - Bandwidth - Entry - Exit
# The 25 first Pages must be first (order not required for others)
BEGIN_SIDER 1
/ 18 6065632 15 15
END_SIDER
