AWSTATS DATA FILE 7.4 (build 20140726)
# If you remove this file, all statistics for date 201712 will be lost/reset.
# Last config file used to build this data file was /home/anvinfosystem/tmp/awstats/ssl/awstats.anvinfosystem.com.conf.

# Position (offset in bytes) in this file for beginning of each section for
# direct I/O access. If you made changes somewhere in this file, you should
# also remove completely the MAP section (AWStats will rewrite it at next
# update).
BEGIN_MAP 28
POS_GENERAL 2023                
POS_TIME 2697                
POS_VISITOR 39380               
POS_DAY 56663               
POS_DOMAIN 3449                
POS_LOGIN 3703                
POS_ROBOT 3858                
POS_WORMS 4024                
POS_EMAILSENDER 4155                
POS_EMAILRECEIVER 4298                
POS_SESSION 57375               
POS_SIDER 57585               
POS_FILETYPES 4433                
POS_DOWNLOADS 4799                
POS_OS 4847                
POS_BROWSER 5016                
POS_SCREENSIZE 5567                
POS_UNKNOWNREFERER 5641                
POS_UNKNOWNREFERERBROWSER 6138                
POS_ORIGIN 6352                
POS_SEREFERRALS 6495                
POS_PAGEREFS 6639                
POS_SEARCHWORDS 28091               
POS_KEYWORDS 28243               
POS_MISC 2360                
POS_ERRORS 28302               
POS_CLUSTER 3559                
POS_SIDER_404 28469               
END_MAP

# LastLine    = Date of last record processed - Last record line number in last log - Last record offset in last log - Last record signature value
# FirstTime   = Date of first visit for history file
# LastTime    = Date of last visit for history file
# LastUpdate  = Date of last update - Nb of parsed records - Nb of parsed old records - Nb of parsed new records - Nb of parsed corrupted - Nb of parsed dropped
# TotalVisits = Number of visits
# TotalUnique = Number of unique visitors
# MonthHostsKnown   = Number of hosts known
# MonthHostsUnKnown = Number of hosts unknown
BEGIN_GENERAL 8
LastLine 20180101043007 3 289 8513655353575
FirstTime 20171201112848
LastTime 20171230184030
LastUpdate 20180101121136 3 0 2 0 0
TotalVisits 369                 
TotalUnique 173                 
MonthHostsKnown 0                   
MonthHostsUnknown 573                 
END_GENERAL

# Misc ID - Pages - Hits - Bandwidth
BEGIN_MISC 10
DirectorSupport 0 0 0
FlashSupport 0 0 0
TotalMisc 0 0 0
WindowsMediaPlayerSupport 0 0 0
RealPlayerSupport 0 0 0
PDFSupport 0 0 0
JavascriptDisabled 0 0 0
JavaEnabled 0 0 0
QuickTimeSupport 0 0 0
AddToFavourites 0 45 0
END_MISC

# Hour - Pages - Hits - Bandwidth - Not viewed Pages - Not viewed Hits - Not viewed Bandwidth
BEGIN_TIME 24
0 2 2 11931 2 2 0
1 2 2 0 2 2 0
2 3 3 46062 9 9 82396
3 64 99 830601 26 28 98062
4 36 50 340623 40 42 58709
5 179 269 2608834 53 68 139163
6 220 339 2163185 67 73 230810
7 49 103 953724 24 33 94673
8 110 414 2801911 32 60 102129
9 250 535 4663043 76 108 211783
10 437 750 4494099 89 123 205404
11 365 647 8107808 137 141 624542
12 128 196 1539727 71 75 377749
13 199 404 2851852 73 86 171206
14 321 421 1810784 68 72 121873
15 72 92 602992 19 24 53063
16 111 338 7221866 69 69 366946
17 10 50 746230 10 11 12714
18 5 100 2376928 4 4 237
19 2 2 12139 0 0 0
20 0 0 0 31 31 8742
21 0 0 0 2 2 237
22 0 0 0 3 3 237
23 1 1 0 0 0 0
END_TIME

# Domain - Pages - Hits - Bandwidth
# The 25 first Pages must be first (order not required for others)
BEGIN_DOMAIN 2
us 1775 3589 33682463
eu 791 1228 10501876
END_DOMAIN

# Cluster ID - Pages - Hits - Bandwidth
BEGIN_CLUSTER 0
END_CLUSTER

# Login - Pages - Hits - Bandwidth - Last visit
# The 10 first Pages must be first (order not required for others)
BEGIN_LOGIN 0
END_LOGIN

# Robot ID - Hits - Bandwidth - Last visit - Hits on robots.txt
# The 25 first Hits must be first (order not required for others)
BEGIN_ROBOT 1
netcraft 8 95428 20171210030220 0
END_ROBOT

# Worm ID - Hits - Bandwidth - Last visit
# The 5 first Hits must be first (order not required for others)
BEGIN_WORMS 0
END_WORMS

# EMail - Hits - Bandwidth - Last visit
# The 20 first Hits must be first (order not required for others)
BEGIN_EMAILSENDER 0
END_EMAILSENDER

# EMail - Hits - Bandwidth - Last visit
# The 20 first hits must be first (order not required for others)
BEGIN_EMAILRECEIVER 0
END_EMAILRECEIVER

# Files type - Hits - Bandwidth - Bandwidth without compression - Bandwidth after compression
BEGIN_FILETYPES 16
css 421 2120850 0 0
svg 43 392747 0 0
Unknown 207 1261442 0 0
tt 1 581 0 0
php 191 437181 0 0
jpg 82 936048 0 0
html 1947 6741269 0 0
cgi 35 705 0 0
phtml 48 19680 0 0
gif 56 99686 0 0
js 1142 16136323 0 0
woff2 16 908480 0 0
png 494 11029208 0 0
bmp 13 983502 0 0
ptt 5 2045 0 0
woff 116 3114592 0 0
END_FILETYPES

# Downloads - Hits - Bandwidth
BEGIN_DOWNLOADS 0
END_DOWNLOADS

# OS ID - Hits
BEGIN_OS ID - Hits - Pages 7
win7 2894 1794
winnt 239 145
Unknown 619 226
macosx 8 8
linux 161 5
ios_iphone 1 1
linuxandroid 895 387
END_OS

# Browser ID - Hits - Pages
BEGIN_BROWSER 23
Unknown 20 20
chrome40.0.2214.85 15 15
chrome56.0.2924.87 1 1
safari11.0 1 1
netscape5.0 3 3
firefox31.0 1 1
chrome63.0.3239.107 30 12
chrome62.0.3202.75 1 1
cloudflare 596 203
chrome63.0.3239.111 187 129
firefox35.0 1 1
chrome51.0.2704.79 46 26
chrome63.0.3239.84 300 183
chrome53.0.2785.146 48 25
chrome61.0.3163.100 8 8
chrome62.0.3202.94 2005 1250
firefox50.0 161 5
chrome42.0.2311.135 2 2
chrome58.0.3029.83 419 180
msie9.0 1 1
chrome63.0.3239.108 760 458
chrome62.0.3202.84 210 40
msie11.0 1 1
END_BROWSER

# Screen size - Hits
BEGIN_SCREENSIZE 0
END_SCREENSIZE

# Unknown referer OS - Last visit date
BEGIN_UNKNOWNREFERER 6
Mozilla/5.0_(compatible;_CloudFlare-AlwaysOnline/1.0;__http://www.cloudflare.com/always-online) 20171227163558
WhatsApp/2.17.395_A 20171208101007
Mozilla/5.0_zgrab/0.x 20171230184030
WordPress/4.8.4;_https://www.anvinfosystem.com 20171230015354
WhatsApp/2.17.427_A 20171213083826
Mozilla/5.0_(compatible;_CloudFlare-AlwaysOnline/1.0;__http://www.cloudflare.com/always-online)_AppleWebKit/534.34 20171227163650
END_UNKNOWNREFERER

# Unknown referer Browser - Last visit date
BEGIN_UNKNOWNREFERERBROWSER 3
WhatsApp/2.17.427_A 20171213083826
WordPress/4.8.4;_https://www.anvinfosystem.com 20171230015354
WhatsApp/2.17.395_A 20171208101007
END_UNKNOWNREFERERBROWSER

# Origin - Pages - Hits 
BEGIN_ORIGIN 6
From0 210 366
From1 0 0
From2 0 0
From3 2314 4239
From4 42 212
From5 0 0
END_ORIGIN

# Search engine referers ID - Pages - Hits
BEGIN_SEREFERRALS 0
END_SEREFERRALS

# External page referers - Pages - Hits
# The 25 first Pages must be first (order not required for others)
BEGIN_PAGEREFS 230
https://webmail.anvinfosystem.com/cpsess6602935114/3rdparty/roundcube/ 220 237
https://webmail.anvinfosystem.com/cpsess9852447450/3rdparty/roundcube/ 132 169
https://webmail.anvinfosystem.com/cpsess4620815767/3rdparty/roundcube/ 118 155
https://webmail.anvinfosystem.com/cpsess5748604320/3rdparty/roundcube/ 118 135
https://webmail.anvinfosystem.com 107 158
https://webmail.anvinfosystem.com/cpsess2367923541/3rdparty/roundcube/ 91 127
https://webmail.anvinfosystem.com/cpsess8661718317/3rdparty/roundcube/ 73 81
https://webmail.anvinfosystem.com/cpsess0426705418/3rdparty/roundcube/ 72 84
https://webmail.anvinfosystem.com/cpsess3162985904/3rdparty/roundcube/ 67 84
https://webmail.anvinfosystem.com/cpsess2725027484/3rdparty/roundcube/ 58 75
https://cpanel.anvinfosystem.com/cpsess0465994065/frontend/paper_lantern/mail/pops/index.html 57 179
https://webmail.anvinfosystem.com/cpsess7232408386/3rdparty/roundcube/ 56 74
https://webmail.anvinfosystem.com/cpsess8126195222/3rdparty/roundcube/ 52 65
https://webmail.anvinfosystem.com/cpsess2508153692/3rdparty/roundcube/ 40 76
https://webmail.anvinfosystem.com/cpsess5909842133/3rdparty/roundcube/ 36 48
https://webmail.anvinfosystem.com/cpsess3402446354/3rdparty/squirrelmail/src/left_main.php 32 33
https://webmail.anvinfosystem.com/cpsess6404049834/3rdparty/roundcube/ 32 49
https://webmail.anvinfosystem.com/cpsess1113071830/3rdparty/roundcube/ 31 48
https://cpanel.anvinfosystem.com/cpsess1036437144/frontend/paper_lantern/mail/pops/index.html 30 56
https://webmail.anvinfosystem.com/cpsess6138212224/3rdparty/roundcube/ 30 47
https://webmail.anvinfosystem.com/cpsess1254393205/3rdparty/roundcube/ 29 47
https://cpanel.anvinfosystem.com 28 72
https://webmail.anvinfosystem.com/cpsess8607557605/3rdparty/roundcube/ 28 41
https://webmail.anvinfosystem.com/cpsess7401664412/3rdparty/roundcube/ 27 39
https://cpanel.anvinfosystem.com/cpsess8809564405/frontend/paper_lantern/mail/pops/index.html 24 25
https://cpanel.anvinfosystem.com/cpsess1382891704/frontend/paper_lantern/mail/pops/index.html 19 45
https://webmail.anvinfosystem.com/cpsess1113071830/3rdparty/roundcube/skins/larry/watermark.html 0 1
https://webmail.anvinfosystem.com/cpsess5526237070/webmail/paper_lantern/index.html 3 3
https://webmail.anvinfosystem.com/cpsess2625201751/3rdparty/squirrelmail/src/read_body.php 1 1
https://webmail.anvinfosystem.com/cpsess2725027484/3rdparty/roundcube/skins/larry/watermark.html 0 1
https://webmail.anvinfosystem.com/cpsess8264279603/3rdparty/squirrelmail/src/webmail.php 3 6
https://webmail.anvinfosystem.com/cpsess5748604320/3rdparty/roundcube/skins/larry/styles.min.css 0 1
https://webmail.anvinfosystem.com/cpsess9057185276/3rdparty/roundcube/skins/larry/mail.min.css 0 1
https://webmail.anvinfosystem.com/cpsess3402446354/webmail/paper_lantern/index.html 2 6
https://webmail.anvinfosystem.com/cPanel_magic_revision_1510620526/unprotected/cpanel/style_v2_optimized.css 0 30
https://webmail.anvinfosystem.com/cpsess6744940510/3rdparty/roundcube/skins/larry/watermark.html 0 1
https://webmail.anvinfosystem.com/unprotected/cpanel/fonts/open_sans/open_sans.min.css 2 2
https://webmail.anvinfosystem.com/cpsess2514076653/3rdparty/roundcube/skins/larry/mail.min.css 0 1
https://webmail.anvinfosystem.com/cpsess1113071830/webmail/paper_lantern/index.html 3 19
https://cpanel.anvinfosystem.com/cpsess1036437144/xferwebmail 2 2
https://webmail.anvinfosystem.com/cpsess8546037098/webmail/paper_lantern/index.html 2 6
https://cpanel.anvinfosystem.com/cpsess0465994065/frontend/paper_lantern/index.html 2 41
https://webmail.anvinfosystem.com/cpsess2514076653/3rdparty/roundcube/skins/larry/styles.min.css 0 2
https://webmail.anvinfosystem.com/cpsess2116334510/3rdparty/squirrelmail/src/right_main.php 4 4
https://webmail.anvinfosystem.com/cpsess1254393205/3rdparty/roundcube/skins/larry/watermark.html 0 1
https://webmail.anvinfosystem.com/cpsess3469100092/webmail/paper_lantern/index.html 3 14
https://webmail.anvinfosystem.com/cpsess7083395159/3rdparty/roundcube/skins/larry/mail.min.css 0 1
https://webmail.anvinfosystem.com/cpsess5909842133/3rdparty/roundcube/skins/larry/styles.min.css 0 8
https://webmail.anvinfosystem.com/cpsess0471234682/webmail/paper_lantern/index.html 3 3
https://webmail.anvinfosystem.com/cpsess5909842133/webmail/paper_lantern/index.html 10 35
https://webmail.anvinfosystem.com/cpsess1254393205/webmail/paper_lantern/index.html 6 6
https://webmail.anvinfosystem.com/cpsess0100619516/horde/imp/themes/default/screen.css 0 6
https://webmail.anvinfosystem.com/cpsess8126195222/3rdparty/roundcube/skins/larry/watermark.html 0 1
https://webmail.anvinfosystem.com/cpsess5526237070/3rdparty/squirrelmail/src/left_main.php 1 2
https://webmail.anvinfosystem.com/cpsess7401664412/webmail/paper_lantern/index.html 3 3
https://webmail.anvinfosystem.com/cpsess6404049834/3rdparty/roundcube/skins/larry/watermark.html 0 1
https://webmail.anvinfosystem.com/cpsess7232408386/webmail/paper_lantern/index.html 7 7
https://webmail.anvinfosystem.com/cpsess5748604320/3rdparty/roundcube/skins/larry/watermark.html 0 1
https://webmail.anvinfosystem.com/cpsess0100619516/horde/imp/dynamic.php 20 69
https://webmail.anvinfosystem.com/cpsess5909842133/3rdparty/roundcube/skins/larry/watermark.html 0 1
https://webmail.anvinfosystem.com/cpsess1772729381/3rdparty/roundcube/skins/larry/watermark.html 0 1
https://webmail.anvinfosystem.com/cpsess0426705418/3rdparty/roundcube/skins/larry/watermark.html 0 1
https://webmail.anvinfosystem.com/cpsess3983715645/webmail/paper_lantern/index.html 2 2
https://webmail.anvinfosystem.com/cpsess2367923541/3rdparty/roundcube/skins/larry/watermark.html 0 1
https://webmail.anvinfosystem.com/cpsess8126195222/3rdparty/squirrelmail/src/left_main.php 2 3
https://webmail.anvinfosystem.com/cpsess0230206978/webmail/paper_lantern/index.html 3 3
https://webmail.anvinfosystem.com/cpsess9057185276/3rdparty/roundcube/skins/larry/watermark.html 0 1
https://webmail.anvinfosystem.com/cpsess2508153692/3rdparty/roundcube/skins/larry/watermark.html 0 1
https://webmail.anvinfosystem.com/cpsess9790166083/3rdparty/roundcube/ 5 16
https://webmail.anvinfosystem.com/cpsess4238001492/3rdparty/roundcube/skins/larry/watermark.html 0 1
https://webmail.anvinfosystem.com/cpsess2625201751/webmail/paper_lantern/index.html 6 23
https://webmail.anvinfosystem.com/cpsess3469100092/3rdparty/squirrelmail/src/webmail.php 3 6
https://webmail.anvinfosystem.com/cpsess5909842133/horde/imp/themes/default/dynamic/screen.css 0 8
https://webmail.anvinfosystem.com/cpsess8126195222/3rdparty/squirrelmail/src/options.php 2 2
https://webmail.anvinfosystem.com/cpsess6744940510/3rdparty/roundcube/ 20 32
https://cpanel.anvinfosystem.com/cpsess8809564405/frontend/paper_lantern/index.html 7 18
https://webmail.anvinfosystem.com/cpsess8546037098/3rdparty/squirrelmail/src/webmail.php 3 6
https://webmail.anvinfosystem.com/cpsess7232408386/3rdparty/roundcube/index.php 4 4
https://webmail.anvinfosystem.com/cpsess9790166083/webmail/paper_lantern/index.html 2 2
https://webmail.anvinfosystem.com/cpsess8126195222/3rdparty/roundcube/index.php 2 2
https://webmail.anvinfosystem.com/cpsess9057185276/webmail/paper_lantern/index.html 3 20
https://webmail.anvinfosystem.com/cpsess6210084701/3rdparty/roundcube/skins/larry/watermark.html 0 1
https://webmail.anvinfosystem.com/cpsess6744940510/webmail/paper_lantern/index.html 3 3
https://webmail.anvinfosystem.com/cpsess0426705418/webmail/paper_lantern/index.html 3 3
https://webmail.anvinfosystem.com/cpsess5748604320/webmail/paper_lantern/index.html 4 4
https://webmail.anvinfosystem.com/cpsess6522974902/3rdparty/squirrelmail/src/webmail.php 3 6
https://webmail.anvinfosystem.com/cpsess3983715645/3rdparty/roundcube/skins/larry/watermark.html 0 1
https://webmail.anvinfosystem.com/cpsess8264279603/3rdparty/squirrelmail/src/options.php 2 2
https://webmail.anvinfosystem.com/cpsess3469100092/3rdparty/squirrelmail/src/left_main.php 1 2
https://webmail.anvinfosystem.com/cpsess6522974902/horde/themes/default/smartmobile/screen.css 0 1
https://cpanel.anvinfosystem.com/cPanel_magic_revision_1510620526/unprotected/cpanel/style_v2_optimized.css 0 12
https://cpanel.anvinfosystem.com/cPanel_magic_revision_1392312282/frontend/paper_lantern/3rdparty/bootstrap/optimized/css/bootstrap.min.css 1 1
https://webmail.anvinfosystem.com/cpsess8661718317/3rdparty/roundcube/skins/larry/watermark.html 0 1
https://webmail.anvinfosystem.com/cpsess5526237070/3rdparty/squirrelmail/src/read_body.php 4 4
https://webmail.anvinfosystem.com/cpsess8546037098/3rdparty/squirrelmail/src/left_main.php 15 16
https://webmail.anvinfosystem.com/cPanel_magic_revision_1386192030/unprotected/cpanel/fonts/open_sans/open_sans.min.css 16 16
https://webmail.anvinfosystem.com/cpsess6346174205/webmail/paper_lantern/index.html 13 17
https://webmail.anvinfosystem.com/cpsess6138212224/3rdparty/roundcube/skins/larry/watermark.html 0 1
https://webmail.anvinfosystem.com/cpsess3402446354/3rdparty/squirrelmail/src/webmail.php 3 6
https://webmail.anvinfosystem.com/cpsess5649763462/horde/js/jquery.mobile/jquery.mobile.min.css 0 2
https://webmail.anvinfosystem.com/cpsess5909842133/3rdparty/roundcube/skins/larry/mail.min.css 0 1
https://cpanel.anvinfosystem.com/cPanel_magic_revision_1386192030/unprotected/cpanel/fonts/open_sans/open_sans.min.css 6 6
https://webmail.anvinfosystem.com/cpsess7083395159/3rdparty/roundcube/skins/larry/styles.min.css 0 6
https://webmail.anvinfosystem.com/cpsess0100619516/webmail/paper_lantern/index.html 4 9
https://webmail.anvinfosystem.com/cpsess8264279603/horde/imp/smartmobile.php 3 23
https://cpanel.anvinfosystem.com/cpsess1036437144/frontend/paper_lantern/mail/clientconf.html 2 7
https://webmail.anvinfosystem.com/cpsess8264279603/3rdparty/squirrelmail/src/left_main.php 2 3
https://webmail.anvinfosystem.com/cpsess6522974902/3rdparty/roundcube/skins/larry/watermark.html 0 1
https://webmail.anvinfosystem.com/cpsess8511353901/3rdparty/roundcube/skins/larry/watermark.html 0 1
https://webmail.anvinfosystem.com/cpsess8511353901/webmail/paper_lantern/index.html 3 3
https://webmail.anvinfosystem.com/cpsess2116334510/3rdparty/squirrelmail/src/read_body.php 4 4
https://webmail.anvinfosystem.com/cpsess7083395159/webmail/paper_lantern/index.html 3 5
https://webmail.anvinfosystem.com/cpsess8661718317/webmail/paper_lantern/index.html 3 3
https://webmail.anvinfosystem.com/cpsess3162985904/3rdparty/roundcube/skins/larry/mail.min.css 0 2
https://webmail.anvinfosystem.com/cpsess0006803374/3rdparty/roundcube/ 3 14
https://webmail.anvinfosystem.com/cpsess2508153692/3rdparty/roundcube/program/js/tinymce/skins/lightgray/skin.min.css 1 1
https://webmail.anvinfosystem.com/cpsess3469100092/3rdparty/squirrelmail/src/right_main.php 1 1
https://webmail.anvinfosystem.com/cpsess8126195222/webmail/paper_lantern/index.html 9 10
https://webmail.anvinfosystem.com/cpsess5909842133/horde/themes/default/screen.css 0 24
https://webmail.anvinfosystem.com/cpsess6602935114/3rdparty/roundcube/skins/larry/mail.min.css 0 2
https://webmail.anvinfosystem.com/cpsess8607557605/webmail/paper_lantern/index.html 3 3
https://cpanel.anvinfosystem.com/cpsess1382891704/frontend/paper_lantern/index.html 1 120
https://webmail.anvinfosystem.com/cpsess7401664412/3rdparty/roundcube/skins/larry/watermark.html 0 1
https://webmail.anvinfosystem.com/cpsess0006803374/3rdparty/roundcube/skins/larry/watermark.html 0 1
https://webmail.anvinfosystem.com/cPanel_magic_revision_1424892677/webmail/paper_lantern/3rdparty/fontawesome/css/font-awesome.min.css 12 12
https://webmail.anvinfosystem.com/cpsess9057185276/3rdparty/roundcube/ 11 23
https://webmail.anvinfosystem.com/cpsess9057185276/3rdparty/roundcube/skins/larry/styles.min.css 0 6
https://webmail.anvinfosystem.com/cpsess2514076653/webmail/paper_lantern/index.html 3 3
https://webmail.anvinfosystem.com/cpsess2725027484/webmail/paper_lantern/index.html 2 2
https://webmail.anvinfosystem.com/cpsess9852447450/3rdparty/roundcube/program/js/tinymce/skins/lightgray/skin.min.css 1 1
https://webmail.anvinfosystem.com/cpsess2116334510/webmail/paper_lantern/index.html 2 2
https://webmail.anvinfosystem.com/cpsess4134133502/3rdparty/roundcube/skins/larry/watermark.html 0 1
https://webmail.anvinfosystem.com/cpsess8607557605/3rdparty/roundcube/skins/larry/watermark.html 0 1
https://webmail.anvinfosystem.com/cpsess8511353901/3rdparty/roundcube/ 16 33
https://webmail.anvinfosystem.com/cpsess5649763462/horde/imp/smartmobile.php 4 24
https://webmail.anvinfosystem.com/cpsess6522974902/3rdparty/roundcube/skins/larry/styles.min.css 0 6
https://webmail.anvinfosystem.com/cpsess2625201751/3rdparty/squirrelmail/src/webmail.php 6 9
https://webmail.anvinfosystem.com/cpsess7083395159/3rdparty/roundcube/skins/larry/watermark.html 0 1
https://webmail.anvinfosystem.com/cpsess6210084701/webmail/paper_lantern/index.html 3 3
https://webmail.anvinfosystem.com/cpsess6522974902/3rdparty/squirrelmail/src/left_main.php 1 2
https://webmail.anvinfosystem.com/cpsess6602935114/webmail/paper_lantern/index.html 6 31
https://cpanel.anvinfosystem.com/styled/current_style/sprites/icon_spritemap.css 0 3
https://webmail.anvinfosystem.com/cPanel_magic_revision_1392312282/webmail/paper_lantern/3rdparty/bootstrap/optimized/css/bootstrap.min.css 6 6
https://webmail.anvinfosystem.com/cpsess2514076653/3rdparty/roundcube/skins/larry/watermark.html 0 1
https://webmail.anvinfosystem.com/cpsess5909842133/horde/imp/themes/default/screen.css 0 4
https://webmail.anvinfosystem.com/cpsess6522974902/3rdparty/roundcube/index.php 4 4
https://webmail.anvinfosystem.com/cpsess6522974902/3rdparty/squirrelmail/src/right_main.php 1 1
https://webmail.anvinfosystem.com/cpsess1113071830/3rdparty/roundcube/skins/larry/styles.min.css 0 9
https://webmail.anvinfosystem.com/cpsess7083395159/3rdparty/roundcube/ 17 29
https://webmail.anvinfosystem.com/cpsess7232408386/3rdparty/roundcube/skins/larry/watermark.html 0 1
https://webmail.anvinfosystem.com/cpsess2508153692/webmail/paper_lantern/index.html 5 5
https://webmail.anvinfosystem.com/cpsess3162985904/3rdparty/roundcube/skins/larry/watermark.html 0 1
https://webmail.anvinfosystem.com/cpsess0230206978/3rdparty/roundcube/skins/larry/watermark.html 0 1
https://webmail.anvinfosystem.com/cpsess0100619516/horde/themes/default/screen.css 0 27
https://webmail.anvinfosystem.com/cpsess5526237070/3rdparty/squirrelmail/src/right_main.php 7 7
https://webmail.anvinfosystem.com/cpsess4620815767/webmail/paper_lantern/index.html 3 3
https://webmail.anvinfosystem.com/cpsess8126195222/3rdparty/roundcube/skins/larry/mail.min.css 0 1
https://webmail.anvinfosystem.com/cpsess4238001492/3rdparty/roundcube/ 20 38
https://webmail.anvinfosystem.com/cpsess0006803374/webmail/paper_lantern/index.html 3 3
https://webmail.anvinfosystem.com/cpsess7588178801/webmail/paper_lantern/index.html 2 10
https://webmail.anvinfosystem.com/cpsess1113071830/3rdparty/roundcube/skins/larry/mail.min.css 0 2
https://webmail.anvinfosystem.com/cpsess4238001492/webmail/paper_lantern/index.html 3 3
https://webmail.anvinfosystem.com/cpsess6602935114/3rdparty/roundcube/skins/larry/watermark.html 0 1
https://webmail.anvinfosystem.com/cpsess8599434217/webmail/paper_lantern/index.html 3 3
https://webmail.anvinfosystem.com/cpsess0471234682/3rdparty/roundcube/ 3 14
https://webmail.anvinfosystem.com/cpsess5909842133/horde/imp/dynamic.php 1 37
https://webmail.anvinfosystem.com/cpsess6138212224/webmail/paper_lantern/index.html 3 3
https://webmail.anvinfosystem.com/cpsess5419716355/3rdparty/roundcube/skins/larry/watermark.html 0 1
https://webmail.anvinfosystem.com/cpsess2116334510/3rdparty/squirrelmail/src/webmail.php 3 6
https://webmail.anvinfosystem.com/cpsess0471234682/3rdparty/roundcube/skins/larry/watermark.html 0 1
https://webmail.anvinfosystem.com/cpsess2508153692/3rdparty/roundcube/plugins/jqueryui/themes/larry/jquery-ui.css 0 1
https://webmail.anvinfosystem.com/cpsess5419716355/webmail/paper_lantern/index.html 3 3
https://webmail.anvinfosystem.com/cpsess3162985904/3rdparty/roundcube/skins/larry/styles.min.css 0 8
https://cpanel.anvinfosystem.com/cpsess1382891704/frontend/paper_lantern/mail/clientconf.html 1 3
https://webmail.anvinfosystem.com/cpsess6602935114/3rdparty/roundcube/skins/larry/styles.min.css 0 8
https://webmail.anvinfosystem.com/cpsess3402446354/3rdparty/squirrelmail/src/right_main.php 10 10
https://cpanel.anvinfosystem.com/cPanel_magic_revision_1386192030/frontend/paper_lantern/3rdparty/ui-fonts/open_sans/optimized/open_sans.min.css 6 6
https://webmail.anvinfosystem.com/cpsess5649763462/webmail/paper_lantern/index.html 4 4
https://webmail.anvinfosystem.com/cpsess3983715645/3rdparty/roundcube/ 6 22
https://cpanel.anvinfosystem.com/unprotected/loader.html 12 12
https://webmail.anvinfosystem.com/cpsess8546037098/3rdparty/squirrelmail/src/right_main.php 10 10
https://cpanel.anvinfosystem.com/cpsess1036437144/frontend/paper_lantern/mail/webmailform.html 3 4
https://webmail.anvinfosystem.com/cpsess8546037098/3rdparty/squirrelmail/src/read_body.php 5 5
https://mail.anvinfosystem.com 8 155
https://webmail.anvinfosystem.com/cpsess6522974902/horde/imp/smartmobile.php 13 33
https://cpanel.anvinfosystem.com/cPanel_magic_revision_1424892677/frontend/paper_lantern/3rdparty/fontawesome/css/font-awesome.min.css 3 3
https://webmail.anvinfosystem.com/cpsess2625201751/3rdparty/squirrelmail/src/left_main.php 6 7
https://webmail.anvinfosystem.com/cpsess6404049834/webmail/paper_lantern/index.html 3 4
https://webmail.anvinfosystem.com/cpsess0230206978/3rdparty/roundcube/skins/larry/styles.min.css 0 1
https://webmail.anvinfosystem.com/logout/ 16 18
https://webmail.anvinfosystem.com/cpsess4620815767/3rdparty/roundcube/program/js/tinymce/skins/lightgray/skin.min.css 1 1
https://webmail.anvinfosystem.com/cpsess5526237070/3rdparty/squirrelmail/src/compose.php 2 2
https://webmail.anvinfosystem.com/cpsess1113071830/3rdparty/roundcube/plugins/jqueryui/themes/larry/jquery-ui.css 0 1
https://webmail.anvinfosystem.com/cpsess8599434217/3rdparty/roundcube/ 6 17
https://webmail.anvinfosystem.com/cPanel_magic_revision_1386192030/webmail/paper_lantern/3rdparty/ui-fonts/open_sans/optimized/open_sans.min.css 12 12
https://webmail.anvinfosystem.com/cpsess4620815767/3rdparty/roundcube/skins/larry/watermark.html 0 1
https://webmail.anvinfosystem.com/unprotected/loader.html 9 9
https://webmail.anvinfosystem.com/cpsess9852447450/3rdparty/roundcube/skins/larry/watermark.html 0 1
https://webmail.anvinfosystem.com/cpsess2625201751/3rdparty/squirrelmail/src/right_main.php 7 7
https://webmail.anvinfosystem.com/cpsess6210084701/3rdparty/roundcube/ 11 23
https://webmail.anvinfosystem.com/cpsess5526237070/3rdparty/squirrelmail/src/webmail.php 3 6
https://webmail.anvinfosystem.com/cpsess8264279603/webmail/paper_lantern/index.html 8 8
https://webmail.anvinfosystem.com/unprotected/cpanel/style_v2_optimized.css 0 4
https://webmail.anvinfosystem.com/cpsess8126195222/3rdparty/roundcube/skins/larry/styles.min.css 0 2
https://webmail.anvinfosystem.com/cpsess2367923541/webmail/paper_lantern/index.html 9 9
https://webmail.anvinfosystem.com/cpsess6522974902/webmail/paper_lantern/index.html 16 16
https://webmail.anvinfosystem.com/cpsess6522974902/3rdparty/roundcube/plugins/jqueryui/themes/larry/jquery-ui.css 0 1
https://webmail.anvinfosystem.com/cpsess6346174205/3rdparty/roundcube/ 4 20
https://webmail.anvinfosystem.com/cpsess8599434217/3rdparty/roundcube/skins/larry/watermark.html 0 1
https://cpanel.anvinfosystem.com/cpsess1036437144/frontend/paper_lantern/webmaillogin.html 1 6
https://webmail.anvinfosystem.com/cpsess3162985904/webmail/paper_lantern/index.html 3 6
https://webmail.anvinfosystem.com/cpsess8126195222/3rdparty/squirrelmail/src/webmail.php 3 6
https://webmail.anvinfosystem.com/cpsess4134133502/3rdparty/roundcube/ 3 14
https://webmail.anvinfosystem.com/cpsess1772729381/webmail/paper_lantern/index.html 3 3
https://webmail.anvinfosystem.com/cpsess4134133502/webmail/paper_lantern/index.html 3 3
https://webmail.anvinfosystem.com/cpsess7232408386/3rdparty/roundcube/plugins/jqueryui/themes/larry/jquery-ui.css 0 1
https://webmail.anvinfosystem.com/cpsess0100619516/horde/imp/themes/default/dynamic/screen.css 0 13
https://webmail.anvinfosystem.com/cpsess9790166083/3rdparty/roundcube/skins/larry/watermark.html 0 1
https://webmail.anvinfosystem.com/cpsess5068159461/3rdparty/roundcube/skins/larry/watermark.html 0 1
https://webmail.anvinfosystem.com/cpsess2116334510/3rdparty/squirrelmail/src/left_main.php 2 3
https://webmail.anvinfosystem.com/cpsess6522974902/horde/js/jquery.mobile/jquery.mobile.min.css 0 2
https://webmail.anvinfosystem.com/cpsess0230206978/3rdparty/roundcube/ 17 33
https://webmail.anvinfosystem.com/cpsess5068159461/webmail/paper_lantern/index.html 3 3
https://webmail.anvinfosystem.com/cpsess9790166083/3rdparty/roundcube/skins/larry/styles.min.css 0 6
https://webmail.anvinfosystem.com/cpsess5419716355/3rdparty/roundcube/ 9 21
https://webmail.anvinfosystem.com/cpsess6522974902/3rdparty/roundcube/ 24 36
https://webmail.anvinfosystem.com/cpsess1772729381/3rdparty/roundcube/ 3 14
https://webmail.anvinfosystem.com/cpsess5068159461/3rdparty/roundcube/ 8 20
https://cpanel.anvinfosystem.com/cpsess1036437144/frontend/paper_lantern/index.html 1 130
https://webmail.anvinfosystem.com/cpsess2514076653/3rdparty/roundcube/ 19 35
END_PAGEREFS

# Search keyphrases - Number of search
# The 10 first number of search must be first (order not required for others)
BEGIN_SEARCHWORDS 0
END_SEARCHWORDS

# Search keywords - Number of search
# The 25 first number of search must be first (order not required for others)
BEGIN_KEYWORDS 0
END_KEYWORDS

# Errors - Hits - Bandwidth
BEGIN_ERRORS 7
401 238 2071376
301 187 40831
400 21 416
404 177 614304
308 261 37243
302 127 5648
502 2 0
END_ERRORS

# URL with 404 errors - Hits - Last URL referrer
BEGIN_SIDER_404 77
/cpsess8661718317/3rdparty/roundcube/program/resources/blank.webp 2 https://webmail.anvinfosystem.com/cpsess8661718317/3rdparty/roundcube/
/cpsess2725027484/3rdparty/roundcube/program/resources/blank.tiff 2 https://webmail.anvinfosystem.com/cpsess2725027484/3rdparty/roundcube/
/cpsess6404049834/3rdparty/roundcube/program/resources/blank.tiff 2 https://webmail.anvinfosystem.com/cpsess6404049834/3rdparty/roundcube/
/cpsess6346174205/3rdparty/roundcube/program/resources/blank.webp 1 https://webmail.anvinfosystem.com/cpsess6346174205/3rdparty/roundcube/
/cpsess5068159461/3rdparty/roundcube/program/resources/blank.webp 2 https://webmail.anvinfosystem.com/cpsess5068159461/3rdparty/roundcube/
/cpsess2508153692/3rdparty/roundcube/program/resources/blank.webp 5 https://webmail.anvinfosystem.com/cpsess2508153692/3rdparty/roundcube/
/cpsess6602935114/3rdparty/roundcube/program/resources/blank.webp 2 https://webmail.anvinfosystem.com/cpsess6602935114/3rdparty/roundcube/
/cpsess1772729381/3rdparty/roundcube/program/resources/blank.tiff 1 https://webmail.anvinfosystem.com/cpsess1772729381/3rdparty/roundcube/
/cpsess6744940510/3rdparty/roundcube/program/resources/blank.tiff 2 https://webmail.anvinfosystem.com/cpsess6744940510/3rdparty/roundcube/
/cpsess5909842133/3rdparty/roundcube/program/resources/blank.webp 2 https://webmail.anvinfosystem.com/cpsess5909842133/3rdparty/roundcube/
/cpsess6404049834/3rdparty/roundcube/program/resources/blank.webp 2 https://webmail.anvinfosystem.com/cpsess6404049834/3rdparty/roundcube/
/cpsess0426705418/3rdparty/roundcube/program/resources/blank.webp 2 https://webmail.anvinfosystem.com/cpsess0426705418/3rdparty/roundcube/
/cpsess6522974902/3rdparty/roundcube/program/resources/blank.tiff 5 https://webmail.anvinfosystem.com/cpsess6522974902/3rdparty/roundcube/
/cpsess2508153692/3rdparty/roundcube/program/resources/blank.tiff 5 https://webmail.anvinfosystem.com/cpsess2508153692/3rdparty/roundcube/
/cpsess2367923541/3rdparty/roundcube/program/resources/blank.tiff 5 https://webmail.anvinfosystem.com/cpsess2367923541/3rdparty/roundcube/
/cpsess4134133502/3rdparty/roundcube/program/resources/blank.tiff 1 https://webmail.anvinfosystem.com/cpsess4134133502/3rdparty/roundcube/
/cpsess3983715645/3rdparty/roundcube/program/resources/blank.webp 2 https://webmail.anvinfosystem.com/cpsess3983715645/3rdparty/roundcube/
/cpsess3162985904/3rdparty/roundcube/program/resources/blank.webp 2 https://webmail.anvinfosystem.com/cpsess3162985904/3rdparty/roundcube/
/cpsess7401664412/3rdparty/roundcube/program/resources/blank.tiff 2 https://webmail.anvinfosystem.com/cpsess7401664412/3rdparty/roundcube/
/cpsess5909842133/3rdparty/roundcube/program/resources/blank.tiff 2 https://webmail.anvinfosystem.com/cpsess5909842133/3rdparty/roundcube/
/cpsess3162985904/3rdparty/roundcube/program/resources/blank.tiff 2 https://webmail.anvinfosystem.com/cpsess3162985904/3rdparty/roundcube/
/cpsess5068159461/3rdparty/roundcube/program/resources/blank.tiff 2 https://webmail.anvinfosystem.com/cpsess5068159461/3rdparty/roundcube/
/cpsess5419716355/3rdparty/roundcube/program/resources/blank.webp 2 https://webmail.anvinfosystem.com/cpsess5419716355/3rdparty/roundcube/
/cpsess3983715645/3rdparty/roundcube/program/resources/blank.tiff 2 https://webmail.anvinfosystem.com/cpsess3983715645/3rdparty/roundcube/
/cpsess7232408386/3rdparty/roundcube/program/resources/blank.tiff 2 https://webmail.anvinfosystem.com/cpsess7232408386/3rdparty/roundcube/
/cpsess4620815767/3rdparty/roundcube/program/resources/blank.tiff 2 https://webmail.anvinfosystem.com/cpsess4620815767/3rdparty/roundcube/
/cpsess6602935114/3rdparty/roundcube/program/resources/blank.tiff 2 https://webmail.anvinfosystem.com/cpsess6602935114/3rdparty/roundcube/
/bigdata-hadoop-training-in-pune 1 -
/cpsess6522974902/3rdparty/roundcube/program/resources/blank.webp 5 https://webmail.anvinfosystem.com/cpsess6522974902/3rdparty/roundcube/
/cpsess8661718317/3rdparty/roundcube/program/resources/blank.tiff 2 https://webmail.anvinfosystem.com/cpsess8661718317/3rdparty/roundcube/
/cpsess0006803374/3rdparty/roundcube/program/resources/blank.tiff 1 https://webmail.anvinfosystem.com/cpsess0006803374/3rdparty/roundcube/
/cpsess4134133502/3rdparty/roundcube/program/resources/blank.webp 1 https://webmail.anvinfosystem.com/cpsess4134133502/3rdparty/roundcube/
/cpsess8511353901/3rdparty/roundcube/program/resources/blank.webp 2 https://webmail.anvinfosystem.com/cpsess8511353901/3rdparty/roundcube/
/cpsess8607557605/3rdparty/roundcube/program/resources/blank.webp 2 https://webmail.anvinfosystem.com/cpsess8607557605/3rdparty/roundcube/
/cpsess6346174205/3rdparty/roundcube/program/resources/blank.tiff 1 https://webmail.anvinfosystem.com/cpsess6346174205/3rdparty/roundcube/
/cpsess6744940510/3rdparty/roundcube/program/resources/blank.webp 2 https://webmail.anvinfosystem.com/cpsess6744940510/3rdparty/roundcube/
/cpsess0426705418/3rdparty/roundcube/program/resources/blank.tiff 2 https://webmail.anvinfosystem.com/cpsess0426705418/3rdparty/roundcube/
/cpsess1254393205/3rdparty/roundcube/program/resources/blank.tiff 4 https://webmail.anvinfosystem.com/cpsess1254393205/3rdparty/roundcube/
/cpsess8126195222/3rdparty/roundcube/program/resources/blank.tiff 4 https://webmail.anvinfosystem.com/cpsess8126195222/3rdparty/roundcube/
/cpsess1254393205/3rdparty/roundcube/program/resources/blank.webp 4 https://webmail.anvinfosystem.com/cpsess1254393205/3rdparty/roundcube/
/cpsess6138212224/3rdparty/roundcube/program/resources/blank.tiff 2 https://webmail.anvinfosystem.com/cpsess6138212224/3rdparty/roundcube/
/cpsess9057185276/3rdparty/roundcube/program/resources/blank.webp 2 https://webmail.anvinfosystem.com/cpsess9057185276/3rdparty/roundcube/
/cpsess5419716355/3rdparty/roundcube/program/resources/blank.tiff 2 https://webmail.anvinfosystem.com/cpsess5419716355/3rdparty/roundcube/
/cpsess7083395159/3rdparty/roundcube/program/resources/blank.tiff 2 https://webmail.anvinfosystem.com/cpsess7083395159/3rdparty/roundcube/
/cpsess2367923541/3rdparty/roundcube/program/resources/blank.webp 5 https://webmail.anvinfosystem.com/cpsess2367923541/3rdparty/roundcube/
/cpsess9790166083/3rdparty/roundcube/program/resources/blank.tiff 1 https://webmail.anvinfosystem.com/cpsess9790166083/3rdparty/roundcube/
/cpsess8511353901/3rdparty/roundcube/program/resources/blank.tiff 2 https://webmail.anvinfosystem.com/cpsess8511353901/3rdparty/roundcube/
/cpsess0230206978/3rdparty/roundcube/program/resources/blank.tiff 3 https://webmail.anvinfosystem.com/cpsess0230206978/3rdparty/roundcube/
/cpsess5748604320/3rdparty/roundcube/program/resources/blank.tiff 4 https://webmail.anvinfosystem.com/cpsess5748604320/3rdparty/roundcube/
/cpsess9852447450/3rdparty/roundcube/program/resources/blank.tiff 2 https://webmail.anvinfosystem.com/cpsess9852447450/3rdparty/roundcube/
/cpsess4238001492/3rdparty/roundcube/program/resources/blank.webp 2 https://webmail.anvinfosystem.com/cpsess4238001492/3rdparty/roundcube/
/cpsess4238001492/3rdparty/roundcube/program/resources/blank.tiff 2 https://webmail.anvinfosystem.com/cpsess4238001492/3rdparty/roundcube/
/cpsess1113071830/3rdparty/roundcube/program/resources/blank.webp 2 https://webmail.anvinfosystem.com/cpsess1113071830/3rdparty/roundcube/
/cpsess0471234682/3rdparty/roundcube/program/resources/blank.webp 1 https://webmail.anvinfosystem.com/cpsess0471234682/3rdparty/roundcube/
/cpsess8607557605/3rdparty/roundcube/program/resources/blank.tiff 2 https://webmail.anvinfosystem.com/cpsess8607557605/3rdparty/roundcube/
/cpsess7232408386/3rdparty/roundcube/program/resources/blank.webp 2 https://webmail.anvinfosystem.com/cpsess7232408386/3rdparty/roundcube/
/cpsess0006803374/3rdparty/roundcube/program/resources/blank.webp 1 https://webmail.anvinfosystem.com/cpsess0006803374/3rdparty/roundcube/
/cpsess1772729381/3rdparty/roundcube/program/resources/blank.webp 1 https://webmail.anvinfosystem.com/cpsess1772729381/3rdparty/roundcube/
/cpsess9057185276/3rdparty/roundcube/program/resources/blank.tiff 2 https://webmail.anvinfosystem.com/cpsess9057185276/3rdparty/roundcube/
/cpsess6210084701/3rdparty/roundcube/program/resources/blank.tiff 2 https://webmail.anvinfosystem.com/cpsess6210084701/3rdparty/roundcube/
/cpsess6138212224/3rdparty/roundcube/program/resources/blank.webp 2 https://webmail.anvinfosystem.com/cpsess6138212224/3rdparty/roundcube/
/cpsess7083395159/3rdparty/roundcube/program/resources/blank.webp 2 https://webmail.anvinfosystem.com/cpsess7083395159/3rdparty/roundcube/
/cpsess8126195222/3rdparty/roundcube/program/resources/blank.webp 4 https://webmail.anvinfosystem.com/cpsess8126195222/3rdparty/roundcube/
/cpsess6210084701/3rdparty/roundcube/program/resources/blank.webp 2 https://webmail.anvinfosystem.com/cpsess6210084701/3rdparty/roundcube/
/cpsess4620815767/3rdparty/roundcube/program/resources/blank.webp 2 https://webmail.anvinfosystem.com/cpsess4620815767/3rdparty/roundcube/
/cpsess8599434217/3rdparty/roundcube/program/resources/blank.webp 1 https://webmail.anvinfosystem.com/cpsess8599434217/3rdparty/roundcube/
/cpsess0230206978/3rdparty/roundcube/program/resources/blank.webp 3 https://webmail.anvinfosystem.com/cpsess0230206978/3rdparty/roundcube/
/cpsess2514076653/3rdparty/roundcube/program/resources/blank.webp 5 https://webmail.anvinfosystem.com/cpsess2514076653/3rdparty/roundcube/
/cpsess0471234682/3rdparty/roundcube/program/resources/blank.tiff 1 https://webmail.anvinfosystem.com/cpsess0471234682/3rdparty/roundcube/
/cpsess1113071830/3rdparty/roundcube/program/resources/blank.tiff 2 https://webmail.anvinfosystem.com/cpsess1113071830/3rdparty/roundcube/
/cpsess2725027484/3rdparty/roundcube/program/resources/blank.webp 2 https://webmail.anvinfosystem.com/cpsess2725027484/3rdparty/roundcube/
/cpsess9790166083/3rdparty/roundcube/program/resources/blank.webp 1 https://webmail.anvinfosystem.com/cpsess9790166083/3rdparty/roundcube/
/cpsess8599434217/3rdparty/roundcube/program/resources/blank.tiff 1 https://webmail.anvinfosystem.com/cpsess8599434217/3rdparty/roundcube/
/cpsess9852447450/3rdparty/roundcube/program/resources/blank.webp 2 https://webmail.anvinfosystem.com/cpsess9852447450/3rdparty/roundcube/
/cpsess7401664412/3rdparty/roundcube/program/resources/blank.webp 2 https://webmail.anvinfosystem.com/cpsess7401664412/3rdparty/roundcube/
/cpsess2514076653/3rdparty/roundcube/program/resources/blank.tiff 5 https://webmail.anvinfosystem.com/cpsess2514076653/3rdparty/roundcube/
/cpsess5748604320/3rdparty/roundcube/program/resources/blank.webp 4 https://webmail.anvinfosystem.com/cpsess5748604320/3rdparty/roundcube/
END_SIDER_404

# Host - Pages - Hits - Bandwidth - Last visit date - [Start date of last visit] - [Last page of last visit]
# [Start date of last visit] and [Last page of last visit] are saved only if session is not finished
# The 25 first Hits must be first (order not required for others)
BEGIN_VISITOR 573
162.158.154.245 677 679 1569893 20171228095447
141.101.98.32 280 286 896004 20171213142716
141.101.107.82 144 144 347498 20171213115846
162.158.155.12 115 117 474267 20171230050530
162.158.154.161 94 97 797063 20171230050556
172.68.144.65 92 96 277257 20171222131820
141.101.99.231 73 75 356724 20171230050556
162.158.167.70 64 67 71337 20171208100750
141.101.107.166 62 63 131845 20171212145203
141.101.107.214 53 57 78122 20171213105538
162.158.167.130 52 55 131282 20171221140008
162.158.166.93 47 57 77732 20171208110656
141.101.98.122 42 46 184189 20171214065345
162.158.166.99 42 44 114886 20171211082915
172.68.162.80 39 40 108130 20171208111207
172.68.146.54 38 50 95724 20171211084551
162.158.166.237 37 40 100863 20171220092611
162.158.154.131 37 41 149164 20171214054321
172.68.146.42 36 40 63066 20171217064952
172.68.144.101 29 42 208865 20171221133949
141.101.107.28 25 33 202221 20171230050530
141.101.98.152 23 25 72916 20171227122326
162.158.167.76 22 31 63607 20171214071438
141.101.107.112 21 21 62393 20171228034408
141.101.98.110 18 26 65213 20171216060350
172.69.62.56 0 3 1467 
162.158.166.207 0 3 12125 
172.68.65.4 0 1 3529 
162.158.155.60 0 5 107181 
162.158.90.106 0 1 15815 
162.158.166.129 0 7 10392 
172.68.143.118 0 1 6588 
162.158.90.196 0 1 11341 
162.158.154.233 0 7 156334 
141.101.99.237 0 3 54846 
141.101.98.14 0 3 13221 
172.68.143.160 1 3 1506 20171206110217
162.158.166.249 0 4 6794 
141.101.99.153 0 4 9067 
162.158.167.34 0 9 18249 
162.158.154.23 0 3 16595 
162.158.154.179 0 3 58230 
162.158.165.230 6 9 342510 20171221134901
162.158.78.140 0 4 16372 
162.158.167.226 12 17 67798 20171208101019
173.245.54.41 1 4 24262 20171206110257
172.69.22.96 1 1 0 20171220163504
172.68.133.112 0 1 538 
162.158.154.119 0 8 76193 
141.101.107.58 0 2 56135 
162.158.79.69 1 3 11957 20171206110249
172.68.162.92 0 1 10005 
172.69.62.98 3 6 34848 20171227163644
141.101.107.172 0 4 10965 
162.158.79.165 3 4 75092 20171227163605
162.158.154.107 3 16 190107 20171229091100
172.68.143.142 0 1 3824 
141.101.99.111 7 10 216621 20171229091100
162.158.78.236 3 3 24587 20171227163612
162.158.155.72 0 4 59560 
172.68.144.5 0 6 55319 
162.158.79.189 1 2 23198 20171206110222
141.101.99.165 0 4 171766 
141.101.98.56 0 1 47960 
162.158.166.225 10 13 29494 20171211132715
162.158.166.117 0 3 3699 
162.158.78.188 0 1 962 
141.101.99.159 0 2 56135 
198.41.242.55 0 12 29572 
162.158.154.41 0 5 6194 
172.68.162.8 0 3 14047 
162.158.154.167 0 9 41238 
172.68.65.142 0 5 22736 
162.158.165.122 0 1 1341 
141.101.99.105 0 3 18865 
141.101.99.219 0 2 10410 
162.158.166.33 0 2 1193 
162.158.78.248 0 6 22764 
173.245.54.11 1 1 8202 20171206110220
162.158.106.64 0 1 11108 
162.158.78.134 3 7 53278 20171227163605
108.162.216.176 1 1 12148 20171229123434
108.162.246.141 1 1 0 20171206110203
162.158.166.75 0 2 88766 
162.158.255.8 0 3 6912 
162.158.93.49 0 1 5604 
172.68.65.184 0 1 6626 
172.68.162.62 0 2 7090 
172.68.143.94 0 2 1694 
172.68.142.63 0 1 986 
141.101.99.249 0 8 314732 
162.158.78.200 0 2 4302 
162.158.165.242 1 5 84196 20171208115724
162.158.166.51 0 6 42547 
141.101.107.52 0 3 226702 
141.101.107.190 0 22 22783 
141.101.99.141 0 4 177282 
141.101.107.184 0 10 120917 
198.41.242.61 4 16 549243 20171230180651
172.69.23.91 0 1 1821 
162.158.155.108 0 9 263826 
162.158.167.16 2 3 68451 20171208095304
172.68.65.64 3 3 25851 20171227163646
172.69.62.26 3 3 23923 20171227163626
141.101.107.46 0 2 1220 
141.101.99.93 0 3 9425 
162.158.92.236 0 1 2304 
162.158.155.6 1 9 53634 20171215085249
162.158.166.195 0 6 2643 
162.158.91.195 1 1 0 20171201112848
141.101.98.68 0 5 121330 
172.68.132.9 0 2 7648 
141.101.98.92 3 9 125228 20171229091026
198.41.242.37 0 12 21628 
172.69.62.92 1 1 4 20171227163639
162.158.165.98 0 6 31596 
162.158.165.128 0 2 1524 
141.101.107.34 0 4 19512 
141.101.99.45 0 3 19032 
141.101.98.248 0 6 98616 
172.68.146.12 0 7 5251 
162.158.167.184 0 2 2226 
108.162.246.99 1 1 0 20171206110205
141.101.107.250 1 7 244034 20171230050530
162.158.79.33 5 6 150633 20171227163620
162.158.165.68 0 8 16729 
162.158.165.116 0 7 8439 
162.158.255.68 1 1 83588 20171213110221
172.69.62.86 0 6 13302 
198.41.242.31 0 7 17793 
108.162.246.63 0 2 1502 
141.101.98.206 0 1 47960 
162.158.255.200 0 2 2682 
162.158.78.230 1 2 10483 20171227163604
162.158.154.17 0 2 143100 
141.101.107.100 0 3 61873 
172.68.144.23 0 7 12065 
141.101.107.208 0 4 70836 
172.68.144.173 0 4 4458 
141.101.99.51 0 1 10073 
162.158.167.154 0 6 40805 
172.68.144.77 0 2 36357 
141.101.99.147 1 6 123695 20171230050600
172.68.146.24 0 3 36958 
162.158.165.140 0 13 191081 
172.68.144.167 1 7 41744 20171207174722
172.68.189.215 0 1 4014 
173.245.54.53 1 1 4 20171213110214
162.158.166.153 0 2 36302 
108.162.245.56 0 3 1938 
141.101.99.33 0 2 5265 
162.158.166.69 0 10 11686 
162.158.154.239 0 6 95797 
162.158.167.172 0 9 14343 
162.158.255.50 0 1 170931 
162.158.155.114 0 8 103374 
162.158.167.244 0 6 19439 
162.158.78.158 6 6 49490 20171227163625
141.101.107.142 0 4 116068 
172.68.144.47 0 6 10977 
162.158.154.191 0 5 15052 
162.158.165.194 2 5 48107 20171211080437
173.245.54.29 0 1 450 
172.68.133.130 0 3 533511 
141.101.99.57 0 2 9033 
172.68.132.123 0 2 2286 
162.158.165.80 2 13 66173 20171211080402
162.158.154.77 0 5 36259 
172.68.144.83 3 11 102123 20171221134902
172.69.62.32 0 3 2253 
172.68.162.32 0 1 10073 
141.101.98.8 0 5 47576 
198.41.242.67 0 20 96700 
172.69.22.144 5 5 60596 20171229063812
172.68.146.48 0 5 7164 
172.68.144.113 2 5 55134 20171221133950
162.158.166.87 1 5 39315 20171211094225
162.158.79.219 0 3 10587 
162.158.166.189 0 1 48152 
162.158.166.141 0 2 372 
141.101.98.218 1 2 33837 20171230050558
172.68.144.203 0 8 7984 
172.68.146.18 0 7 6060 
108.162.245.248 0 4 2536 
162.158.165.74 0 16 64361 
162.158.165.200 0 6 4584 
162.158.165.212 0 6 53060 
172.68.144.251 0 19 73730 
172.68.65.226 0 6 1174758 
162.158.154.29 0 2 34243 
162.158.154.155 0 2 143247 
162.158.78.110 0 1 3932 
162.158.93.73 0 1 3529 
172.68.189.77 0 1 11108 
172.69.62.62 0 12 18858 
141.101.99.81 0 5 25239 
141.101.98.26 0 2 10270 
108.162.246.75 0 5 17938 
162.158.88.126 0 1 751 
172.68.141.116 0 1 170931 
162.158.167.112 0 5 11341 
141.101.98.254 0 6 164239 
162.158.79.207 0 7 40866 
172.68.162.20 0 3 82162 
162.158.165.146 0 7 34635 
198.41.242.43 0 8 52748 
172.68.144.89 1 3 44307 20171208110122
172.68.144.149 0 6 6984 
162.158.154.251 0 4 201644 
141.101.98.128 0 4 20486 
141.101.107.70 0 1 8913 
108.162.246.195 0 2 67532 
141.101.98.20 0 1 605 
162.158.165.104 0 5 20970 
108.162.246.111 0 2 151308 
162.158.155.54 2 8 87825 20171230050556
162.158.154.185 0 5 46842 
141.101.107.202 0 6 223217 
162.158.91.201 0 1 75654 
141.101.98.50 0 3 87446 
108.162.246.225 0 2 3052 
141.101.98.224 0 4 68915 
172.68.141.104 1 1 11931 20171210105335
172.69.62.74 0 6 18678 
141.101.99.99 2 4 46437 20171230050559
162.158.79.237 3 10 33225 20171227163642
173.245.54.17 4 4 25662 20171227163650
162.158.167.220 0 14 115553 
162.158.154.113 0 4 123469 
141.101.98.200 0 4 23980 
162.158.79.153 0 2 14343 
141.101.98.104 3 6 162756 20171213135954
172.68.162.104 0 1 118 
141.101.99.117 1 5 126124 20171215085245
172.69.62.140 3 3 67980 20171227163605
162.158.154.83 0 6 107197 
162.158.167.40 0 7 111704 
162.158.79.39 0 1 1143 
172.68.144.53 5 16 111402 20171211080402
162.158.165.26 2 9 262199 20171211080402
141.101.98.38 8 12 440075 20171230050601
162.158.167.58 0 16 26410 
162.158.166.177 0 1 401 
108.162.246.39 0 2 31630 
141.101.107.40 0 3 21600 
162.158.79.177 2 2 30439 20171206110230
162.158.167.238 0 7 26987 
162.158.167.4 0 1 1115 
162.158.78.206 0 9 74862 
162.158.167.208 0 8 19281 
172.69.23.67 0 1 9658 
162.158.166.57 0 9 22711 
172.68.144.179 0 6 31014 
162.158.165.218 0 1 211 
172.68.144.197 0 4 13339 
141.101.98.158 0 4 61039 
108.162.245.206 0 3 13464 
141.101.98.170 0 6 33820 
141.101.107.76 0 1 54 
172.68.146.6 0 7 11254 
162.158.166.213 0 11 42839 
162.158.165.206 0 6 7587 
172.68.144.131 0 3 2568 
162.158.154.149 0 2 9033 
162.158.167.136 3 7 82593 20171221134901
172.68.65.58 1 1 8545 20171206110228
141.101.107.220 0 5 97562 
162.158.165.14 0 5 3206 
162.158.155.18 0 2 37279 
162.158.155.36 0 5 50112 
173.245.54.5 0 1 751 
172.68.65.220 1 2 6638 20171206110238
172.68.189.137 0 2 22216 
108.162.245.86 0 1 1821 
172.68.162.110 0 1 32112 
162.158.166.9 0 12 7773 
172.68.144.11 0 11 19568 
141.101.99.195 6 7 212451 20171214051815
108.162.246.57 3 4 362973 20171227163558
141.101.99.21 0 3 148588 
162.158.88.84 0 1 538 
141.101.98.194 2 3 99968 20171208105211
172.69.62.122 0 3 33324 
172.68.144.29 0 4 3035 
162.158.106.4 1 4 11852 20171213110207
162.158.167.100 0 6 10892 
172.68.144.59 0 6 879037 
172.68.65.172 0 5 21987 
198.41.242.79 1 5 795311 20171223192129
162.158.154.197 0 6 37573 
162.158.106.16 0 5 520677 
162.158.155.90 0 17 73673 
141.101.98.134 0 3 69393 
162.158.154.71 0 8 76701 
172.68.189.227 0 2 978 
141.101.107.22 0 1 5167 
162.158.165.188 0 8 53711 
198.41.242.97 0 4 19600 
162.158.154.35 1 8 191717 20171230050556
172.68.65.238 4 4 34472 20171227163611
162.158.166.165 0 3 5736 
172.69.62.44 0 3 12042 
162.158.88.96 0 1 646 
162.158.78.38 6 6 49480 20171227163629
141.101.98.176 0 6 106322 
162.158.78.14 3 4 28667 20171227163559
141.101.99.171 0 4 2292 
162.158.78.92 6 10 52597 20171227163631
172.68.65.160 2 5 24143 20171206110225
162.158.166.183 2 10 84157 20171221134902
141.101.98.182 0 7 53749 
162.158.155.102 0 6 41319 
172.68.141.188 0 1 75654 
162.158.155.24 3 6 160137 20171215053424
162.158.255.98 0 3 1614 
172.68.189.83 0 1 11341 
172.69.62.68 3 3 24579 20171227163610
162.158.166.111 0 3 10173 
173.245.54.35 1 1 7929 20171206110222
162.158.88.78 4 4 0 20171223080806
141.101.98.212 0 9 178451 
172.68.133.202 0 1 195793 
162.158.79.105 3 6 611017 20171227163614
162.158.155.48 0 7 67156 
162.158.92.164 0 1 11108 
198.41.242.109 0 15 1237393 
162.158.154.89 1 6 94397 20171208104440
172.68.144.191 0 5 3268 
172.68.144.215 0 3 3724 
172.68.133.16 0 1 33766 
172.68.143.172 0 1 2304 
172.68.162.26 0 3 57691 
162.158.88.36 0 1 6626 
172.68.142.249 0 1 3127 
172.68.144.107 0 2 11884 
162.158.165.56 0 8 43134 
162.158.166.171 0 7 138432 
162.158.79.159 5 9 465890 20171227163648
172.68.189.155 0 2 391586 
172.68.65.28 7 10 62431 20171227163633
141.101.98.230 3 12 146757 20171229091026
141.101.99.27 1 2 55020 20171230050557
172.69.22.54 0 2 3642 
172.68.65.244 9 13 99513 20171227163629
141.101.98.242 0 5 91802 
162.158.154.227 0 3 25245 
162.158.167.22 0 1 142982 
108.162.246.237 1 1 0 20171227163549
162.158.154.143 0 4 88428 
141.101.98.146 1 5 69157 20171230050530
162.158.154.5 1 4 130796 20171230050556
162.158.166.39 0 3 1743 
172.68.142.69 0 2 19316 
162.158.78.218 3 3 30089 20171227163636
162.158.106.70 0 3 34023 
172.68.65.40 4 5 162821 20171227163605
162.158.154.101 0 9 35758 
162.158.78.170 0 1 900 
141.101.98.236 0 2 11095 
162.158.91.213 0 1 489 
141.101.107.178 1 5 49616 20171230050531
172.68.65.250 0 6 25209 
162.158.155.66 0 3 147157 
162.158.79.27 0 4 4784 
172.68.189.209 0 1 4014 
162.158.88.108 0 1 9658 
172.68.133.172 2 3 33770 20171220163516
141.101.107.154 1 5 19026 20171212103446
162.158.90.238 1 2 5438 20171209092513
172.68.144.137 0 3 45152 
162.158.79.231 1 2 650 20171213110238
162.158.91.147 0 2 5886 
141.101.107.244 0 3 36169 
141.101.98.140 0 9 81506 
141.101.107.106 0 11 176040 
162.158.79.243 1 3 36165 20171206110223
162.158.79.9 0 1 21751 
162.158.79.129 3 7 73404 20171227163613
162.158.89.101 0 1 10479 
172.68.144.185 2 7 75015 20171221133935
141.101.107.124 0 4 16293 
162.158.92.176 0 1 33766 
162.158.165.38 0 3 3496 
173.245.54.23 0 6 8349 
162.158.167.52 0 3 289872 
162.158.166.15 0 5 405911 
172.69.62.50 3 6 67755 20171227163559
172.68.65.16 0 2 16841 
141.101.99.123 0 11 166676 
162.158.154.203 0 3 38116 
162.158.165.182 0 7 14971 
162.158.166.45 3 12 264737 20171211094407
162.158.167.10 0 4 68374 
162.158.78.86 0 1 3932 
141.101.107.88 0 3 53565 
162.158.79.81 1 1 4 20171206110216
172.68.65.208 3 3 67980 20171227163605
141.101.98.98 0 2 8811 
162.158.154.59 0 7 108139 
141.101.98.164 0 1 404 
162.158.79.21 3 4 30877 20171227163640
162.158.154.173 0 4 21901 
141.101.107.226 1 2 41731 20171211102358
162.158.90.64 0 1 1341 
162.158.78.32 4 4 74926 20171227163605
162.158.79.111 3 4 23699 20171227163618
162.158.165.50 0 7 28141 
172.68.162.98 0 2 6570 
162.158.88.204 0 1 634 
162.158.154.47 0 7 59115 
172.68.144.161 0 12 45792 
108.162.246.93 0 2 2682 
172.68.162.14 0 1 5167 
198.41.242.91 1 4 32026 20171230184030
172.69.62.170 0 3 1608 
162.158.89.23 0 1 1821 
162.158.167.166 0 6 11173 
172.68.144.125 0 7 8113 
162.158.88.6 0 1 2562 
162.158.88.144 0 1 1143 
162.158.166.159 0 2 49054 
162.158.165.248 0 2 640 
141.101.99.63 0 3 4302 
162.158.165.170 0 7 215115 
162.158.114.8 6 6 0 20171228082709
172.68.142.123 0 1 1143 
162.158.167.202 0 8 12050 
172.68.144.119 0 5 261783 
162.158.166.201 0 8 10057 
162.158.79.87 0 1 11108 
162.158.167.178 0 5 283286 
162.158.155.42 0 7 103983 
162.158.155.30 0 4 28286 
172.68.144.41 0 6 5672 
162.158.88.228 0 1 4014 
162.158.78.74 0 1 536 
162.158.165.158 0 9 30860 
162.158.255.248 0 2 1972 
162.158.167.46 0 9 13799 
172.68.144.245 0 8 49009 
172.68.162.74 0 1 3792 
198.41.242.103 1 9 62813 20171216165759
141.101.107.118 0 7 152904 
162.158.91.33 0 1 3800 
162.158.79.201 0 1 2304 
172.68.65.106 0 1 3127 
162.158.78.116 1 4 30804 20171206110223
162.158.79.93 0 3 14700 
162.158.167.88 0 4 45588 
172.68.65.112 3 3 66744 20171227163605
172.68.144.143 0 1 505 
162.158.155.96 0 8 106493 
162.158.79.141 0 1 9658 
162.158.155.84 0 11 126481 
173.245.54.47 2 6 23652 20171206110242
162.158.165.164 0 1 3808 
141.101.99.39 0 2 7307 
162.158.154.53 0 2 8068 
141.101.99.15 0 5 27093 
162.158.154.125 0 5 94274 
172.68.65.70 0 6 1067022 
162.158.78.56 0 3 4578 
198.41.242.7 0 12 62640 
172.68.144.95 0 10 16844 
141.101.99.189 0 5 16585 
162.158.90.208 0 1 3932 
141.101.99.201 0 1 382 
162.158.154.95 0 6 26621 
141.101.99.75 0 4 57122 
141.101.107.160 0 2 158364 
162.158.106.40 0 3 7686 
172.68.189.131 1 1 0 20171213110210
162.158.90.112 0 1 177837 
162.158.165.32 0 9 16163 
162.158.167.82 2 10 134596 20171221134902
141.101.107.130 0 2 105827 
162.158.165.224 2 10 54369 20171211080529
172.69.62.176 3 6 33158 20171227163602
162.158.165.44 3 8 7734 20171207174729
172.68.65.232 0 8 485813 
141.101.98.80 0 4 106285 
172.68.144.17 0 17 17580 
162.158.165.110 0 5 8985 
172.69.62.104 0 3 34023 
162.158.166.123 0 5 7647 
172.68.132.87 0 1 1526 
172.68.144.233 1 4 181716 20171211080350
162.158.79.123 1 1 4 20171220163555
141.101.99.129 1 13 202673 20171214070824
162.158.78.122 0 1 195402 
162.158.92.224 0 1 3824 
162.158.154.137 0 11 57310 
162.158.114.62 3 3 0 20171230015354
162.158.79.183 1 1 11926 20171206110207
141.101.98.86 0 2 20010 
108.162.246.243 1 1 0 20171227163558
172.68.142.177 1 1 83588 20171206110219
162.158.89.29 1 1 11931 20171202182746
172.69.62.20 6 12 385442 20171227163627
172.68.141.212 0 2 3806 
172.68.65.190 3 3 68724 20171227163605
172.68.133.226 0 1 1526 
162.158.78.20 3 4 41916 20171206110246
162.158.78.146 4 5 60185 20171227163551
162.158.90.88 0 1 6588 
162.158.79.51 0 3 1608 
172.69.23.73 1 1 4 20171227163557
172.68.141.26 0 1 15815 
162.158.90.130 0 1 195793 
162.158.78.152 4 7 107784 20171227163605
141.101.98.62 0 2 53201 
162.158.165.152 0 6 17550 
172.68.144.155 0 10 70573 
162.158.154.11 1 2 43952 20171214051936
172.69.22.240 0 4 22326 
162.158.79.75 3 17 364046 20171227163604
162.158.167.64 4 8 101005 20171221133950
198.41.242.25 0 8 35568 
162.158.167.232 3 6 102258 20171208101007
162.158.167.190 0 5 16682 
172.68.144.71 0 7 19401 
108.162.245.212 0 2 1694 
172.69.62.14 6 9 85923 20171227163631
162.158.78.224 3 4 73922 20171227163605
162.158.165.92 0 9 26664 
162.158.79.147 0 4 12246 
172.68.65.178 0 3 960 
162.158.79.171 0 3 3429 
172.68.146.36 0 7 52357 
162.158.167.250 0 12 21453 
172.68.146.30 0 6 6042 
172.68.189.197 0 1 75654 
141.101.98.44 0 1 5000 
162.158.165.86 0 8 44620 
108.162.245.242 0 1 1143 
172.68.65.196 6 6 56756 20171227163634
162.158.93.169 0 1 170931 
172.68.146.60 0 7 24192 
162.158.63.26 17 17 0 20171230015354
172.68.65.52 0 7 241939 
162.158.165.254 0 5 25005 
141.101.99.69 0 3 24159 
141.101.99.87 0 2 80072 
162.158.78.182 1 2 83523 20171206110253
162.158.255.104 2 2 23862 20171207052428
162.158.165.134 3 9 86161 20171217064610
172.69.62.116 0 3 3180 
141.101.107.136 0 4 287297 
162.158.78.62 2 2 7931 20171206110255
162.158.166.63 0 1 4323 
162.158.106.10 0 3 9381 
141.101.107.238 1 5 46330 20171230050530
141.101.107.4 3 6 86619 20171229091026
162.158.78.8 1 1 8203 20171206110220
162.158.78.128 0 2 341862 
162.158.165.8 0 2 19209 
162.158.167.160 0 7 215944 
162.158.167.124 2 8 84539 20171208095924
172.68.144.35 0 8 31374 
162.158.154.65 0 5 62681 
162.158.255.146 0 1 15815 
162.158.167.214 0 1 511 
172.68.65.22 1 7 1048018 20171206110223
172.69.62.152 1 7 28114 20171213110248
141.101.98.116 0 4 23972 
172.68.65.130 4 4 79835 20171227163605
141.101.99.183 2 5 119021 20171219063925
172.68.144.209 0 7 47135 
141.101.107.148 0 9 304380 
172.68.144.239 0 10 86697 
108.162.245.110 0 1 986 
162.158.155.78 9 13 46489 20171230050632
162.158.167.196 0 1 1426 
END_VISITOR

# Date - Pages - Hits - Bandwidth - Visits
BEGIN_DAY 26
20171201 1 1 0 1
20171202 1 32 785783 1
20171204 2 2 11931 2
20171206 43 142 3137260 33
20171207 9 19 146278 7
20171208 194 433 2746699 26
20171209 6 37 785783 6
20171210 4 4 11931 3
20171211 135 609 4104423 22
20171212 298 378 1951087 11
20171213 671 921 6938986 57
20171214 220 337 2641288 18
20171215 110 155 1068742 6
20171216 12 54 870290 5
20171217 38 50 111031 3
20171218 80 112 849349 2
20171219 77 140 1128642 4
20171220 90 207 3731388 44
20171221 62 189 1241415 11
20171222 184 256 1250637 5
20171223 8 40 813772 8
20171226 24 70 726851 9
20171227 109 262 4476329 48
20171228 54 85 685250 3
20171229 104 200 2397617 13
20171230 30 82 1571577 21
END_DAY

# Session range - Number of visits
BEGIN_SESSION 7
2mn-5mn 13
1h+ 4
30s-2mn 11
0s-30s 314
30mn-1h 4
15mn-30mn 9
5mn-15mn 14
END_SESSION

# URL - Pages - Bandwidth - Entry - Exit
# The 25 first Pages must be first (order not required for others)
BEGIN_SIDER 394
/cpsess6602935114/3rdparty/roundcube/ 204 411849 1 1
/cpsess9852447450/3rdparty/roundcube/ 121 462727 0 0
/cpsess5748604320/3rdparty/roundcube/ 110 276005 0 1
/cpsess4620815767/3rdparty/roundcube/ 107 290914 0 0
/cpsess2367923541/3rdparty/roundcube/ 84 305007 0 2
/cpsess0426705418/3rdparty/roundcube/ 71 59983 0 0
/cpsess8661718317/3rdparty/roundcube/ 69 66273 0 1
/cpsess3162985904/3rdparty/roundcube/ 62 160790 0 0
/login/ 56 9057 36 0
/cpsess2725027484/3rdparty/roundcube/ 54 118829 0 1
/cpsess7232408386/3rdparty/roundcube/ 53 172919 0 0
/ 48 301619 48 46
/cpsess8126195222/3rdparty/roundcube/ 47 134419 0 0
/cpsess2508153692/3rdparty/roundcube/ 38 128256 0 0
/cpsess5909842133/3rdparty/roundcube/ 35 74903 0 0
/logout/ 33 383811 0 26
/cpsess1113071830/3rdparty/roundcube/ 31 33023 0 0
/cpsess0465994065/backend/passwordstrength.cgi 29 585 0 0
/cpsess6404049834/3rdparty/roundcube/ 29 79128 0 0
/cpsess6138212224/3rdparty/roundcube/ 28 621009 0 0
/cpsess1254393205/3rdparty/roundcube/ 28 63708 0 0
/cpsess7401664412/3rdparty/roundcube/ 27 21143 0 0
/cpsess8607557605/3rdparty/roundcube/ 26 92839 0 0
/cpsess3402446354/3rdparty/squirrelmail/src/style.php 23 3943 0 1
/cpsess6522974902/3rdparty/roundcube/ 23 43238 0 0
/cpsess0100619516/horde/services/ajax.php/horde/topbarUpdate 3 381 0 1
/cPanel_magic_revision_1386192033/unprotected/cpanel/fonts/open_sans/OpenSans-Semibold-webfont.woff 15 343620 15 15
/cpsess1382891704/frontend/paper_lantern/mail/clientconf.html 1 13749 0 0
/cpsess2725027484/execute/Email/list_pops_with_disk 1 265 0 0
/cpsess0006803374/3rdparty/roundcube/ 3 11190 0 0
/cpsess7588178801/execute/Email/list_pops_with_disk 1 260 0 0
/cpsess1036437144/frontend/paper_lantern/libraries/cjt2/directives/actionButton.phtml 1 252 0 0
/cpsess1113071830/execute/Email/list_pops_with_disk 1 261 0 0
/cpsess5748604320/execute/Email/list_pops_with_disk 1 262 0 0
/cpsess0471234682/webmail/paper_lantern/ 1 7587 0 0
/cpsess1382891704/frontend/paper_lantern/mail/pops/ 1 16140 0 0
/cpsess3983715645/execute/Email/list_pops_with_disk 1 261 0 0
/cpsess8809564405/execute/NVData/get 1 132 0 0
/about-us/ 8 66795 7 8
/cpsess5526237070/3rdparty/squirrelmail/src/style.php 9 1548 0 0
/cpsess1036437144/frontend/paper_lantern/mail/clientconf.html 1 13779 0 0
/cpsess8661718317/execute/Email/list_pops_with_disk 1 257 0 0
/cpsess1036437144/execute/Email/get_main_account_disk_usage 2 152 0 0
/cPanel_magic_revision_1386192033/webmail/paper_lantern/3rdparty/ui-fonts/open_sans/optimized/OpenSans-LightItalic-webfont.woff 1 23400 1 1
/cpsess5909842133/execute/Email/list_pops_with_disk 4 1069 0 1
/cpsess8546037098/3rdparty/squirrelmail/src/webmail.php 1 833 0 0
/cpsess0100619516/horde/services/ajax.php/imp/poll 1 81 0 0
/cpsess0100619516/horde/services/ajax.php/horde/imple 9 306 0 0
/cpsess2116334510/3rdparty/squirrelmail/src/webmail.php 1 825 0 0
/cpsess8511353901/3rdparty/roundcube/ 15 42224 0 0
/cpsess2625201751/webmail/paper_lantern/ 2 15336 0 0
/cpsess0465994065/frontend/paper_lantern/libraries/cjt2/directives/pagination.ptt 1 409 0 0
/cpsess8809564405/frontend/paper_lantern/libraries/cjt2/directives/validationItem.phtml 1 246 0 0
/cpsess1254393205/3rdparty/roundcube/skins/larry/watermark.html 3 678 0 0
/cpsess1036437144/execute/NVData/get 2 264 0 0
/cPanel_magic_revision_1386192031/unprotected/cpanel/fonts/open_sans/OpenSans-BoldItalic-webfont.woff 1 23048 1 1
/cpsess0426705418/webmail/paper_lantern/ 1 7670 0 0
/cpsess2625201751/execute/Email/list_pops_with_disk 2 532 0 1
/cpsess1036437144/frontend/paper_lantern/libraries/cjt2/directives/growl.phtml 1 512 0 0
/cpsess1382891704/frontend/paper_lantern/libraries/cjt2/directives/alert.phtml 1 614 0 0
/cpsess0465994065/frontend/paper_lantern/libraries/cjt2/directives/toggleSortDirective.phtml 1 314 0 0
/cpsess2625201751/3rdparty/squirrelmail/src/style.php 11 1866 0 0
/cPanel_magic_revision_1386192032/webmail/paper_lantern/3rdparty/ui-fonts/open_sans/optimized/OpenSans-ExtraBoldItalic-webfont.woff 1 24568 1 1
/cpsess8264279603/webmail/paper_lantern/ 3 28498 0 0
/cpsess5649763462/webmail/paper_lantern/ 2 20831 0 0
/cpsess1036437144/frontend/paper_lantern/mail/webmailform.html 2 16874 0 0
/cpsess6744940510/execute/Email/list_pops_with_disk 1 262 0 0
/cpsess1382891704/frontend/paper_lantern/libraries/cjt2/directives/validationItem.phtml 1 246 0 0
/cpsess1036437144/frontend/paper_lantern/libraries/cjt2/directives/validationItem.phtml 1 246 0 0
/cpsess0465994065/frontend/paper_lantern/libraries/cjt2/directives/actionButton.phtml 1 252 0 0
/cpsess0465994065/execute/Notifications/get_notifications_count 1 66 0 0
/innovation/ 3 25248 3 3
/cpsess0100619516/horde/imp/dynamic.php 3 19661 0 0
/why-anvinfosystem/ 3 25977 3 3
/cpsess3162985904/execute/Email/list_pops_with_disk 1 259 0 0
/cpsess2514076653/webmail/paper_lantern/ 1 7670 0 0
/cpsess8546037098/3rdparty/squirrelmail/src/read_body.php 3 10632 0 0
/cPanel_magic_revision_1386192030/frontend/paper_lantern/3rdparty/ui-fonts/open_sans/optimized/OpenSans-Regular-webfont.woff 2 45320 2 2
/cpsess5526237070/3rdparty/squirrelmail/src/right_main.php 4 16019 0 0
/cpsess6138212224/3rdparty/roundcube/skins/larry/watermark.html 3 678 0 0
/cpsess9790166083/webmail/paper_lantern/ 1 7669 0 0
/cpsess6404049834/execute/Email/list_pops_with_disk 1 261 0 0
/cpsess4620815767/webmail/paper_lantern/ 1 7669 0 0
/cpsess0465994065/frontend/paper_lantern/libraries/cjt2/directives/passwordField.phtml 1 1476 0 0
/cpsess8809564405/frontend/paper_lantern/libraries/cjt2/directives/loadingPanel.phtml 1 245 0 0
/cpsess5649763462/execute/Email/list_pops_with_disk 2 525 0 0
/cpsess7232408386/webmail/paper_lantern/ 4 30676 0 0
/wp-content/themes/innovation-lite/fonts/fontawesome-webfont.woff 8 668704 8 8
/cpsess6522974902/3rdparty/roundcube/skins/larry/watermark.html 6 1356 0 0
/cpsess1382891704/frontend/paper_lantern/libraries/cjt2/directives/passwordField.phtml 1 1476 0 0
/cpsess0465994065/frontend/paper_lantern/ 1 23202 0 0
/cpsess6744940510/3rdparty/roundcube/skins/larry/watermark.html 2 452 0 0
/cpsess7083395159/3rdparty/roundcube/ 17 47373 0 1
/webmail 18 610728 10 12
/cpsess8126195222/3rdparty/squirrelmail/src/options.php 2 12496 0 0
/cpsess9790166083/3rdparty/roundcube/skins/larry/watermark.html 1 226 0 0
/services/ 4 31871 4 4
/wp-cron.php 17 0 16 16
/cpsess0465994065/execute/Email/get_main_account_disk_usage 1 76 0 0
/manual-testing/ 4 32761 4 4
/cpsess5419716355/webmail/paper_lantern/ 1 7669 0 0
/cPanel_magic_revision_1386192033/unprotected/cpanel/fonts/open_sans/OpenSans-SemiboldItalic-webfont.woff 1 23764 1 1
/cPanel_magic_revision_1424892677/frontend/paper_lantern/3rdparty/fontawesome/fonts/fontawesome-webfont.woff2 3 170340 3 3
/cpsess8599434217/webmail/paper_lantern/ 1 7670 0 0
/cpsess6522974902/horde/services/ajax.php/imp/viewport 6 3414 0 0
/cpsess5748604320/3rdparty/roundcube/skins/larry/watermark.html 9 2034 0 0
/cPanel_magic_revision_1386192033/webmail/paper_lantern/3rdparty/ui-fonts/open_sans/optimized/OpenSans-Semibold-webfont.woff 1 22908 1 1
/cpsess0465994065/frontend/paper_lantern/mail/pops/ 2 32339 0 0
/cpsess8264279603/horde/imp/smartmobile.php 1 3170 0 0
/cpsess5649763462/horde/imp/smartmobile.php 1 3169 0 0
/cpsess6602935114/webmail/paper_lantern/ 2 20844 0 0
/cpsess8809564405/frontend/paper_lantern/libraries/cjt2/directives/toggleSortDirective.phtml 1 314 0 0
/cpsess2116334510/webmail/paper_lantern/ 1 7670 0 0
/cpsess5649763462/horde/services/ajax.php/imp/showMessage 1 1019 0 0
/cPanel_magic_revision_1386192030/frontend/paper_lantern/3rdparty/ui-fonts/open_sans/optimized/OpenSans-Bold-webfont.woff 2 44864 2 2
/cpsess1036437144/frontend/paper_lantern/libraries/cjt2/directives/spinner.phtml 1 53 0 0
/cpsess3162985904/3rdparty/roundcube/skins/larry/watermark.html 6 1356 0 0
/selenium-training-in-pune/ 16 145244 8 8
/cpsess8809564405/frontend/paper_lantern/libraries/cjt2/directives/displayPasswordStrength.phtml 1 167 0 0
/cpsess8511353901/webmail/paper_lantern/ 1 7670 0 0
/cpsess1382891704/execute/Email/get_main_account_disk_usage 1 76 0 0
/cpsess8264279603/horde/services/ajax.php/imp/smartmobileFolderTree 1 280 0 0
/cpsess2367923541/webmail/paper_lantern/ 3 23007 0 0
/cpsess0100619516/execute/Email/list_pops_with_disk 2 523 0 0
/cpsess0465994065/frontend/paper_lantern/libraries/cjt2/directives/growl.phtml 1 512 0 0
/cpsess1382891704/frontend/paper_lantern/libraries/cjt2/directives/loadingPanel.phtml 1 245 0 0
/cpsess8599434217/3rdparty/roundcube/ 6 12094 0 0
/qtp-uft-training-in-pune/ 4 33068 3 3
/cpsess6522974902/3rdparty/squirrelmail/src/style.php 3 516 0 0
/cpsess2625201751/3rdparty/squirrelmail/src/webmail.php 2 1658 0 0
/cpsess0006803374/execute/Email/list_pops_with_disk 1 256 0 0
/cpsess3469100092/3rdparty/squirrelmail/src/right_main.php 1 4024 0 0
/cpsess5526237070/3rdparty/squirrelmail/src/read_body.php 2 5974 0 0
/cpsess5068159461/3rdparty/roundcube/skins/larry/watermark.html 1 226 0 0
/cpsess1036437144/frontend/paper_lantern/libraries/cjt2/directives/searchDirective.phtml 1 398 0 0
/cpsess2116334510/3rdparty/squirrelmail/src/left_main.php 1 1325 0 0
/cpsess8809564405/frontend/paper_lantern/libraries/cjt2/directives/passwordField.phtml 1 1476 0 0
/cpsess2116334510/3rdparty/squirrelmail/src/download.php 2 84348 0 1
/unprotected/loader.html 12 10860 11 1
/cpsess4134133502/webmail/paper_lantern/ 1 7669 0 0
/cpsess8126195222/3rdparty/roundcube/skins/larry/watermark.html 8 1808 0 0
/cpsess0006803374/webmail/paper_lantern/ 1 7669 0 0
/cpsess5526237070/execute/Email/list_pops_with_disk 1 265 0 0
/cpsess7232408386/3rdparty/roundcube/skins/larry/watermark.html 8 1808 0 0
/cpsess0465994065/frontend/paper_lantern/libraries/cjt2/directives/loadingPanel.phtml 1 245 0 0
/cpsess1036437144/frontend/paper_lantern/mail/pops/ 2 32978 0 0
/cpsess3469100092/3rdparty/squirrelmail/src/left_main.php 1 1325 0 0
/cpsess8126195222/3rdparty/squirrelmail/src/left_main.php 1 1311 0 0
/cpsess6346174205/3rdparty/roundcube/ 4 13716 0 0
/cpsess8809564405/frontend/paper_lantern/libraries/cjt2/directives/validationContainer.phtml 1 242 0 0
/cpsess2116334510/execute/Email/list_pops_with_disk 1 266 0 0
/cpsess9057185276/execute/Email/list_pops_with_disk 1 258 0 0
/cpsess6602935114/3rdparty/roundcube/skins/larry/watermark.html 17 3842 0 0
/cpsess3983715645/webmail/paper_lantern/ 1 7669 0 0
/cPanel_magic_revision_1386192033/unprotected/cpanel/fonts/open_sans/OpenSans-LightItalic-webfont.woff 1 23400 1 1
/cpsess8809564405/frontend/paper_lantern/libraries/cjt2/directives/growl.phtml 1 512 0 0
/cpsess0230206978/3rdparty/roundcube/skins/larry/watermark.html 2 452 0 0
/cpsess0465994065/execute/Email/add_pop 4 359 0 0
/cpsess8809564405/execute/Email/add_pop 1 91 0 0
/cpsess6346174205/3rdparty/roundcube/skins/larry/watermark.html 1 226 0 0
/cpsess0100619516/horde/services/ajax.php/imp/autoSaveDraft 2 264 0 0
/cpsess4134133502/execute/Email/list_pops_with_disk 1 262 0 0
/cpsess8264279603/execute/Email/list_pops_with_disk 3 811 0 0
/cpsess1382891704/frontend/paper_lantern/libraries/cjt2/directives/validationContainer.phtml 1 242 0 0
/cpsess1254393205/webmail/paper_lantern/ 3 23010 0 0
/cpsess5526237070/webmail/paper_lantern/ 1 7671 0 0
/cpsess8809564405/frontend/paper_lantern/libraries/cjt2/directives/actionButton.phtml 1 252 0 0
/cpsess8546037098/3rdparty/squirrelmail/src/left_main.php 5 6635 0 0
/cpsess4620815767/execute/Email/list_pops_with_disk 1 259 0 0
/cpsess2367923541/execute/Email/list_pops_with_disk 3 776 0 0
/tosca-training-in-pune/ 12 98315 8 8
/cPanel_magic_revision_1386192033/unprotected/cpanel/fonts/open_sans/OpenSans-Regular-webfont.woff 16 362560 16 15
/cpsess1254393205/execute/Email/list_pops_with_disk 2 529 0 0
/cpsess1382891704/execute/NVData/get 1 132 0 0
/cpsess1382891704/frontend/paper_lantern/libraries/cjt2/directives/searchDirective.phtml 1 398 0 0
/cpsess9790166083/3rdparty/roundcube/ 5 13407 0 1
/cpsess8607557605/webmail/paper_lantern/ 1 7587 0 0
/cpsess2367923541/3rdparty/roundcube/skins/larry/watermark.html 10 2260 0 0
/cpsess3469100092/webmail/paper_lantern/ 1 7670 1 0
/cpsess8511353901/3rdparty/roundcube/skins/larry/watermark.html 2 452 0 0
/cpsess6602935114/json-api/cpanel 1 174 0 0
/cpsess0465994065/frontend/paper_lantern/libraries/cjt2/directives/displayPasswordStrength.phtml 1 167 0 0
/cpsess6522974902/3rdparty/squirrelmail/src/webmail.php 1 833 0 0
/cpsess6522974902/horde/imp/smartmobile.php 1 3130 0 0
/courses/bigdata-hadoop-training-in-pune/ 2 18936 0 1
/cpsess1036437144/frontend/paper_lantern/libraries/cjt2/directives/passwordField.phtml 1 1476 0 0
/cpsess1382891704/frontend/paper_lantern/libraries/cjt2/directives/displayPasswordStrength.phtml 1 167 0 0
/cpsess2514076653/execute/Email/list_pops_with_disk 1 259 0 0
/category/uncategorized/ 4 24363 4 4
/cPanel_magic_revision_1386192032/unprotected/cpanel/fonts/open_sans/OpenSans-ExtraBoldItalic-webfont.woff 1 24568 1 1
/cPanel_magic_revision_1386192030/frontend/paper_lantern/3rdparty/ui-fonts/open_sans/optimized/OpenSans-Italic-webfont.woff 2 46376 2 2
/cpsess3469100092/3rdparty/squirrelmail/src/webmail.php 1 832 0 0
/cpsess2116334510/3rdparty/squirrelmail/src/right_main.php 2 7927 0 0
/cpsess0230206978/3rdparty/roundcube/ 16 39109 0 0
/cpsess7083395159/webmail/paper_lantern/ 1 7670 0 0
/cPanel_magic_revision_1386192031/webmail/paper_lantern/3rdparty/ui-fonts/open_sans/optimized/OpenSans-BoldItalic-webfont.woff 1 23048 1 1
/cpsess0006803374/3rdparty/roundcube/skins/larry/watermark.html 1 226 0 0
/cpsess9852447450/3rdparty/roundcube/skins/larry/watermark.html 12 2712 0 0
/cpsess4134133502/3rdparty/roundcube/ 3 11466 0 0
/cpsess0471234682/3rdparty/roundcube/ 3 11937 0 0
/cpsess5909842133/webmail/paper_lantern/ 4 41668 0 0
/angular-js-training-in-pune/ 9 77559 6 6
/cpsess5526237070/3rdparty/squirrelmail/src/left_main.php 1 1325 0 0
/cpsess2514076653/3rdparty/roundcube/ 17 55704 0 0
/cpsess8809564405/frontend/paper_lantern/mail/pops/ 1 16161 0 0
/staff-augmentation/ 12 98970 6 6
/cpsess2725027484/3rdparty/roundcube/skins/larry/watermark.html 5 1130 0 0
/cpsess2625201751/3rdparty/squirrelmail/src/left_main.php 2 2649 0 0
/cPanel_magic_revision_1386192032/unprotected/cpanel/fonts/open_sans/OpenSans-Light-webfont.woff 9 200232 9 7
/cpsess8661718317/webmail/paper_lantern/ 1 7669 0 0
/cpsess1036437144/frontend/paper_lantern/libraries/cjt2/directives/displayPasswordStrength.phtml 1 167 0 0
/cpsess7232408386/execute/Email/list_pops_with_disk 3 777 0 0
/cpsess9057185276/3rdparty/roundcube/skins/larry/watermark.html 1 226 0 0
/cpsess2625201751/3rdparty/squirrelmail/src/read_body.php 1 3113 0 0
/cpsess8546037098/webmail/paper_lantern/ 1 7671 0 0
/cpsess6522974902/3rdparty/roundcube/index.php 2 17640 0 0
/cpsess8546037098/3rdparty/squirrelmail/src/download.php 2 47500 0 0
/cpsess8264279603/3rdparty/squirrelmail/src/webmail.php 1 833 0 0
/cpsess6522974902/horde/services/ajax.php/imp/poll 2 164 0 0
/cpsess8511353901/execute/Email/list_pops_with_disk 1 263 0 0
/cpsess6138212224/webmail/paper_lantern/ 1 7669 0 0
/cpsess6404049834/webmail/paper_lantern/ 1 7669 0 0
/cpsess8264279603/3rdparty/squirrelmail/src/options.php 2 12502 0 0
/cpsess3983715645/3rdparty/roundcube/skins/larry/watermark.html 1 226 0 0
/cpsess8607557605/3rdparty/roundcube/skins/larry/watermark.html 3 678 0 0
/cpsess6522974902/webmail/paper_lantern/ 5 38314 0 0
/cpsess3983715645/3rdparty/roundcube/ 6 30396 1 1
/cpsess0465994065/execute/Email/list_pops_with_disk 5 2018 0 1
/cPanel_magic_revision_1386192033/webmail/paper_lantern/3rdparty/ui-fonts/open_sans/optimized/OpenSans-SemiboldItalic-webfont.woff 1 23764 1 1
/cpsess0230206978/webmail/paper_lantern/ 1 7670 0 0
/cpsess6522974902/horde/services/ajax.php/imp/showMessage 4 3145 0 1
/cpsess5068159461/webmail/paper_lantern/ 1 7670 0 0
/cpsess2625201751/3rdparty/squirrelmail/src/right_main.php 6 22691 0 0
/cpsess2725027484/webmail/paper_lantern/ 1 7669 0 0
/cPanel_magic_revision_1386192033/webmail/paper_lantern/3rdparty/ui-fonts/open_sans/optimized/OpenSans-Regular-webfont.woff 6 135960 6 6
/cpsess3402446354/webmail/paper_lantern/ 1 7586 0 0
/cpsess1772729381/3rdparty/roundcube/ 3 11427 0 0
/load-runner-training-in-pune/ 8 65708 8 8
/cpsess6522974902/horde/services/ajax.php/imp/smartmobileFolderTree 1 281 0 0
/cpsess2514076653/3rdparty/roundcube/skins/larry/watermark.html 3 678 0 0
/cpsess6522974902/json-api/cpanel 1 181 0 0
/cpsess1772729381/webmail/paper_lantern/ 1 7670 0 0
/cpsess1036437144/execute/Notifications/get_notifications_count 5 330 0 0
/cpsess0465994065/frontend/paper_lantern/libraries/cjt2/directives/spinner.phtml 1 53 0 0
/cpsess1382891704/frontend/paper_lantern/libraries/cjt2/directives/pagination.ptt 1 409 0 0
/cpsess6522974902/execute/Email/list_pops_with_disk 4 1050 0 0
/cpsess1036437144/frontend/paper_lantern/libraries/cjt2/directives/validationContainer.phtml 1 242 0 0
/cPanel_magic_revision_1386192031/webmail/paper_lantern/3rdparty/ui-fonts/open_sans/optimized/OpenSans-Bold-webfont.woff 4 89728 4 4
/cpsess1036437144/frontend/paper_lantern/libraries/cjt2/directives/pagination.ptt 2 818 0 0
/cpsess1113071830/webmail/paper_lantern/ 1 7585 0 0
/cpsess9057185276/webmail/paper_lantern/ 1 7670 0 0
/cpsess4134133502/3rdparty/roundcube/skins/larry/watermark.html 1 226 0 0
/cpsess8661718317/3rdparty/roundcube/skins/larry/watermark.html 3 678 0 0
/cpsess1036437144/frontend/paper_lantern/webmaillogin.html 1 8666 0 0
/cpsess0465994065/execute/DAV/has_shared_global_addressbook 1 79 0 0
/cpsess8809564405/frontend/paper_lantern/libraries/cjt2/directives/spinner.phtml 1 53 0 0
/cpsess8126195222/webmail/paper_lantern/ 3 23012 0 0
/cpsess8809564405/execute/Email/list_pops_with_disk 2 824 0 1
/cpsess1036437144/frontend/paper_lantern/libraries/cjt2/directives/toggleSortDirective.phtml 1 314 0 0
/cpsess4238001492/webmail/paper_lantern/ 1 7669 0 0
/cpsess8809564405/execute/Notifications/get_notifications_count 2 132 0 0
/wp-json/pum/v1/analytics/open 13 52 12 11
/cpsess8126195222/execute/Email/list_pops_with_disk 3 783 0 0
/cpsess4238001492/3rdparty/roundcube/ 19 40280 0 0
/cPanel_magic_revision_1392312282/webmail/paper_lantern/3rdparty/bootstrap/optimized/fonts/glyphicons-halflings-regular.woff 6 139920 6 6
/cpsess0465994065/frontend/paper_lantern/libraries/cjt2/directives/validationContainer.phtml 1 242 0 0
/cpsess3162985904/webmail/paper_lantern/ 1 7585 0 0
/cpsess8809564405/frontend/paper_lantern/libraries/cjt2/directives/alert.phtml 1 614 0 0
/cpsess7401664412/webmail/paper_lantern/ 1 7670 0 0
/cpsess0465994065/execute/Email/passwd_pop 1 69 0 0
/cpsess1382891704/frontend/paper_lantern/libraries/cjt2/directives/actionButton.phtml 1 252 0 0
/cpsess6522974902/3rdparty/squirrelmail/src/left_main.php 1 1324 0 0
/cpsess1382891704/frontend/paper_lantern/libraries/cjt2/directives/growl.phtml 1 512 0 0
/cPanel_magic_revision_1507232212/3rdparty/roundcube/program/js/tinymce/skins/lightgray/fonts/tinymce.woff 2 34968 2 2
/cpsess0426705418/3rdparty/roundcube/skins/larry/watermark.html 2 452 0 0
/classroom-gallery/ 1 7869 1 1
/cpanel 18 610638 12 10
/cpsess8809564405/backend/passwordstrength.cgi 6 120 0 0
/cpsess8546037098/3rdparty/squirrelmail/src/style.php 16 2739 0 1
/cpsess5526237070/3rdparty/squirrelmail/src/webmail.php 1 832 0 0
/cpsess0100619516/horde/services/ajax.php/imp/sendMessage 2 291 0 0
/cpsess5419716355/execute/Email/list_pops_with_disk 1 258 0 0
/cpsess5748604320/webmail/paper_lantern/ 1 7668 0 0
/courses/ 4 35277 4 4
/cpsess4620815767/3rdparty/roundcube/skins/larry/watermark.html 12 2712 0 0
/cpsess8546037098/3rdparty/squirrelmail/src/right_main.php 7 28096 0 0
/cpsess8809564405/frontend/paper_lantern/libraries/cjt2/directives/searchDirective.phtml 1 398 0 0
/cpsess5526237070/3rdparty/squirrelmail/src/compose.php 1 2536 0 0
/atg-endeca-training-in-pune/ 8 68409 7 8
/cpsess9057185276/3rdparty/roundcube/ 11 19944 0 0
/cpsess2116334510/3rdparty/squirrelmail/src/read_body.php 2 5878 0 0
/cpsess8809564405/execute/Themes/list 1 97 0 0
/cPanel_magic_revision_1507232212/3rdparty/roundcube/program/js/tinymce/skins/lightgray/fonts/tinymce-small.woff 1 9380 1 1
/cpsess6210084701/3rdparty/roundcube/skins/larry/watermark.html 2 452 0 0
/cpsess0100619516/webmail/paper_lantern/ 2 20835 0 0
/cpsess6346174205/execute/Email/list_pops_with_disk 1 257 0 0
/cpsess8264279603/3rdparty/squirrelmail/src/style.php 4 658 0 0
/cPanel_magic_revision_1424892677/webmail/paper_lantern/3rdparty/fontawesome/fonts/fontawesome-webfont.woff2 13 738140 11 12
/cpsess7588178801/json-api/cpanel 1 181 0 0
/cpsess8264279603/horde/services/ajax.php/imp/viewport 2 855 0 0
/cpsess6602935114/execute/Email/list_pops_with_disk 2 529 0 0
/cpsess8126195222/3rdparty/roundcube/index.php 1 8822 0 0
/cpsess8546037098/execute/Email/list_pops_with_disk 1 261 0 0
/cpsess5068159461/3rdparty/roundcube/ 8 19421 0 0
/cpsess8809564405/frontend/paper_lantern/home/views/statistics.html.tt 1 581 0 0
/cpsess7232408386/3rdparty/roundcube/index.php 2 17708 0 0
/cpsess7401664412/3rdparty/roundcube/skins/larry/watermark.html 1 226 0 0
/cpsess1036437144/frontend/paper_lantern/libraries/cjt2/directives/alert.phtml 1 614 0 0
/cpsess1036437144/frontend/paper_lantern/ 1 23579 0 0
/cpsess1382891704/execute/DAV/has_shared_global_addressbook 1 79 0 0
/cpsess1113071830/3rdparty/roundcube/skins/larry/watermark.html 1 226 0 0
/cpsess6210084701/3rdparty/roundcube/ 10 32726 0 0
/cpsess6346174205/webmail/paper_lantern/ 1 7587 0 0
/cpsess8599434217/3rdparty/roundcube/skins/larry/watermark.html 1 226 0 0
/cpsess1382891704/frontend/paper_lantern/libraries/cjt2/directives/pageSizeDirective.phtml 1 401 0 0
/cpsess1036437144/frontend/paper_lantern/libraries/cjt2/directives/pageSizeDirective.phtml 1 401 0 0
/cpsess3469100092/execute/Email/list_pops_with_disk 1 269 0 0
/cPanel_magic_revision_1386192032/webmail/paper_lantern/3rdparty/ui-fonts/open_sans/optimized/OpenSans-Light-webfont.woff 1 22248 1 1
/unprotected/redirect.html 21 9513 0 2
/cpsess5649763462/horde/services/ajax.php/imp/smartmobileFolderTree 1 280 0 1
/cpsess8809564405/frontend/paper_lantern/libraries/cjt2/directives/pagination.ptt 1 409 0 0
/cpsess0465994065/frontend/paper_lantern/libraries/cjt2/directives/alert.phtml 1 614 0 0
/bigdata-hadoop-training-in-pune/ 12 113518 6 6
/cpsess8126195222/3rdparty/squirrelmail/src/webmail.php 1 832 0 0
/cpsess1382891704/frontend/paper_lantern/libraries/cjt2/directives/spinner.phtml 1 53 0 0
/cpsess0471234682/execute/Email/list_pops_with_disk 1 257 0 0
/contact-us/ 4 40058 4 4
/cpsess5909842133/horde/services/ajax.php/imp/dynamicInit 1 1075 0 0
/cpsess8809564405/execute/DAV/has_shared_global_addressbook 1 79 0 0
/cpsess6744940510/webmail/paper_lantern/ 1 7584 0 0
/cpsess1036437144/execute/Email/list_pops_with_disk 2 907 0 0
/cpsess1382891704/execute/Email/list_pops_with_disk 1 385 0 0
/cpsess6744940510/3rdparty/roundcube/ 19 48786 0 0
/cpsess5068159461/execute/Email/list_pops_with_disk 1 263 0 0
/cpsess3402446354/execute/Email/list_pops_with_disk 1 268 0 0
/cpsess9790166083/execute/Email/list_pops_with_disk 1 256 0 0
/cpsess5649763462/horde/services/ajax.php/imp/viewport 2 1041 0 0
/cpsess7401664412/execute/Email/list_pops_with_disk 1 259 0 0
/cPanel_magic_revision_1386192031/unprotected/cpanel/fonts/open_sans/OpenSans-Bold-webfont.woff 17 381344 17 16
/cpsess8599434217/execute/Email/list_pops_with_disk 1 263 0 0
/cpsess0471234682/3rdparty/roundcube/skins/larry/watermark.html 1 226 0 0
/cpsess7083395159/execute/Email/list_pops_with_disk 1 260 0 0
/cpsess0100619516/horde/services/ajax.php/imp/dynamicInit 1 921 0 0
/cpsess7588178801/webmail/paper_lantern/ 1 13145 0 0
/cpsess5909842133/3rdparty/roundcube/skins/larry/watermark.html 2 452 0 0
/cpsess7083395159/3rdparty/roundcube/skins/larry/watermark.html 2 452 0 0
/cpsess8809564405/execute/Resellers/list_accounts 1 148 0 0
/cpsess1382891704/frontend/paper_lantern/ 1 23274 0 0
/cpsess1772729381/3rdparty/roundcube/skins/larry/watermark.html 1 226 0 0
/cpsess8809564405/frontend/paper_lantern/ 1 23129 0 0
/cpsess2116334510/3rdparty/squirrelmail/src/style.php 6 1019 0 0
/cpsess3402446354/3rdparty/squirrelmail/src/right_main.php 8 30326 0 0
/cpsess8607557605/execute/Email/list_pops_with_disk 1 254 0 0
/cpsess0465994065/execute/Email/delete_pop 1 179 0 0
/cpsess0465994065/execute/NVData/get 1 132 0 0
/cpsess0465994065/frontend/paper_lantern/libraries/cjt2/directives/pageSizeDirective.phtml 1 401 0 0
/cpsess2508153692/execute/Email/list_pops_with_disk 2 515 0 0
/cpsess6138212224/execute/Email/list_pops_with_disk 1 261 0 0
/cpsess2508153692/3rdparty/roundcube/skins/larry/watermark.html 4 904 0 0
/cpsess1772729381/execute/Email/list_pops_with_disk 1 260 0 0
/cpsess0426705418/execute/Email/list_pops_with_disk 1 256 0 0
/cpsess8264279603/3rdparty/squirrelmail/src/left_main.php 1 1241 0 0
/cpsess8809564405/frontend/paper_lantern/libraries/cjt2/directives/pageSizeDirective.phtml 1 401 0 0
/cPanel_magic_revision_1392312282/frontend/paper_lantern/3rdparty/bootstrap/optimized/fonts/glyphicons-halflings-regular.woff 1 23320 1 1
/cpsess3402446354/3rdparty/squirrelmail/src/left_main.php 14 18559 0 0
/cpsess1036437144/execute/DAV/has_shared_global_addressbook 2 158 0 0
/cpsess1036437144/execute/Email/delete_pop 2 358 0 0
/cPanel_magic_revision_1386192031/unprotected/cpanel/fonts/open_sans/OpenSans-ExtraBold-webfont.woff 9 213876 8 9
/cpsess6522974902/3rdparty/squirrelmail/src/right_main.php 1 3970 0 0
/cpsess6404049834/3rdparty/roundcube/skins/larry/watermark.html 4 904 0 0
/cPanel_magic_revision_1386192031/webmail/paper_lantern/3rdparty/ui-fonts/open_sans/optimized/OpenSans-ExtraBold-webfont.woff 1 23764 1 1
/salesforce-training-in-pune/ 8 65613 6 8
/cpsess0465994065/frontend/paper_lantern/libraries/cjt2/directives/searchDirective.phtml 1 398 0 0
/cPanel_magic_revision_1386192032/unprotected/cpanel/fonts/open_sans/OpenSans-Italic-webfont.woff 1 23188 1 1
/cpsess1036437144/xferwebmail 2 444 0 1
/cpsess8809564405/execute/Email/get_main_account_disk_usage 1 76 0 0
/cpsess4238001492/execute/Email/list_pops_with_disk 1 259 0 0
/cpsess5909842133/horde/imp/dynamic.php 1 8352 0 0
/cpsess0465994065/frontend/paper_lantern/libraries/cjt2/directives/validationItem.phtml 1 246 0 0
/cpsess0230206978/execute/Email/list_pops_with_disk 1 256 0 0
/cpsess6210084701/webmail/paper_lantern/ 1 7668 0 0
/cpsess8126195222/3rdparty/squirrelmail/src/style.php 4 688 0 0
/cpsess4238001492/3rdparty/roundcube/skins/larry/watermark.html 2 452 0 0
/cpsess1382891704/execute/Notifications/get_notifications_count 2 132 0 1
/cPanel_magic_revision_1386192032/webmail/paper_lantern/3rdparty/ui-fonts/open_sans/optimized/OpenSans-Italic-webfont.woff 4 92752 4 4
/cpsess5419716355/3rdparty/roundcube/skins/larry/watermark.html 1 226 0 0
/cpsess2508153692/webmail/paper_lantern/ 2 15338 0 0
/cpsess3469100092/3rdparty/squirrelmail/src/style.php 3 516 0 0
/cpsess5419716355/3rdparty/roundcube/ 9 21356 0 0
/cpsess5909842133/json-api/cpanel 1 181 0 0
/cpsess1382891704/frontend/paper_lantern/libraries/cjt2/directives/toggleSortDirective.phtml 1 314 0 0
/cpsess3402446354/3rdparty/squirrelmail/src/webmail.php 1 832 0 0
/cpsess6210084701/execute/Email/list_pops_with_disk 1 263 0 0
/cpsess1036437144/frontend/paper_lantern/libraries/cjt2/directives/loadingPanel.phtml 1 245 0 0
END_SIDER
