<fileupload size="2394160">
  <file name="code.zip" tmpfile="/home/anvinfosystem/tmp/Cpanel_Form_file.upload.HU62cioY87ZUSYX9">
    <progress bytes="392134" bps="225601.38"></progress>
    <progress bytes="523204" bps="141754.31"></progress>
    <progress bytes="654274" bps="243472.48"></progress>
    <progress bytes="785344" bps="222506.67"></progress>
    <progress bytes="916414" bps="221877.64"></progress>
    <progress bytes="1047484" bps="222019.71"></progress>
    <progress bytes="1178554" bps="219454.00"></progress>
    <progress bytes="1309624" bps="223634.60"></progress>
    <progress bytes="1440694" bps="223192.85"></progress>
    <progress bytes="1571764" bps="218657.36"></progress>
    <progress bytes="1702834" bps="224203.05"></progress>
    <progress bytes="1833904" bps="227098.28"></progress>
    <progress bytes="1964974" bps="224547.97"></progress>
    <progress bytes="2096044" bps="226794.92"></progress>
    <progress bytes="2227114" bps="218671.22"></progress>
    <progress bytes="2358184" bps="229891.71"></progress>
    <progress bytes="2393034" bps="162001.10"></progress>
    <progress filesize="2393032" complete="1"></progress>
  </file>
</fileupload>
