<fileupload size="42420">
  <file name="glyphicons-halflings-regular.ttf" tmpfile="/home/anvinfosystem/tmp/Cpanel_Form_file.upload.vN0pUQwRnbJM1dUW">
    <progress filesize="41236" complete="1"></progress>
  </file>
</fileupload>
