<fileupload size="2372865">
  <file name="html.zip" tmpfile="/home/anvinfosystem/tmp/Cpanel_Form_file.upload.dKqCYpEIPHQ8TD5o">
    <progress bytes="195537" bps="78189.97"></progress>
    <progress bytes="261072" bps="118920.16"></progress>
    <progress bytes="326607" bps="122307.18"></progress>
    <progress bytes="392142" bps="116420.77"></progress>
    <progress bytes="457677" bps="23235.87"></progress>
    <progress bytes="523212" bps="87954.16"></progress>
    <progress bytes="588747" bps="121340.44"></progress>
    <progress bytes="654282" bps="20357.33"></progress>
    <progress bytes="719817" bps="129782.30"></progress>
    <progress bytes="785352" bps="187186.17"></progress>
    <progress bytes="916422" bps="149782.47"></progress>
    <progress bytes="1047492" bps="117424.77"></progress>
    <progress bytes="1113027" bps="117093.07"></progress>
    <progress bytes="1178562" bps="121003.93"></progress>
    <progress bytes="1244097" bps="119748.94"></progress>
    <progress bytes="1309632" bps="116070.04"></progress>
    <progress bytes="1375167" bps="120303.77"></progress>
    <progress bytes="1440702" bps="125828.73"></progress>
    <progress bytes="1506237" bps="114301.31"></progress>
    <progress bytes="1571772" bps="118396.38"></progress>
    <progress bytes="1637307" bps="109144.05"></progress>
    <progress bytes="1702842" bps="120185.30"></progress>
    <progress bytes="1768377" bps="116016.61"></progress>
    <progress bytes="1833912" bps="125002.38"></progress>
    <progress bytes="1899447" bps="127671.14"></progress>
    <progress bytes="1964982" bps="119260.58"></progress>
    <progress bytes="2030517" bps="123400.42"></progress>
    <progress bytes="2096052" bps="119914.81"></progress>
    <progress bytes="2161587" bps="127327.83"></progress>
    <progress bytes="2227122" bps="112700.88"></progress>
    <progress bytes="2292657" bps="52924.39"></progress>
    <progress bytes="2358192" bps="145633333.33"></progress>
    <progress bytes="2371748" bps="43729032.26"></progress>
    <progress filesize="2371746" complete="1"></progress>
  </file>
</fileupload>
