<fileupload size="7770043">
  <file name="training.zip" tmpfile="/home/anvinfosystem/tmp/Cpanel_Form_file.upload._PJ7JeuqFNRpLOCk">
    <progress bytes="195556" bps="18436.83"></progress>
    <progress bytes="261091" bps="10459.90"></progress>
    <progress bytes="326626" bps="13016.10"></progress>
    <progress bytes="392161" bps="11241.04"></progress>
    <progress bytes="457696" bps="13609.69"></progress>
    <progress bytes="523231" bps="13739.71"></progress>
    <progress bytes="588766" bps="13292.78"></progress>
    <progress bytes="654301" bps="13091.70"></progress>
    <progress bytes="719836" bps="13431.32"></progress>
    <progress bytes="785371" bps="5746.07"></progress>
    <progress bytes="850906" bps="13429.39"></progress>
    <progress bytes="916441" bps="11250.21"></progress>
    <progress bytes="981976" bps="8327.03"></progress>
    <progress bytes="1047511" bps="19709.46"></progress>
    <progress bytes="1113046" bps="23481.36"></progress>
    <progress bytes="1178581" bps="9192.48"></progress>
    <progress bytes="1244116" bps="9824.82"></progress>
    <progress bytes="1309651" bps="10877.06"></progress>
    <progress bytes="1375186" bps="11903.86"></progress>
    <progress bytes="1440721" bps="11507.67"></progress>
    <progress bytes="1506256" bps="12749.91"></progress>
    <progress bytes="1571791" bps="11376.94"></progress>
    <progress bytes="1637326" bps="6217.89"></progress>
    <progress bytes="1702861" bps="14628.02"></progress>
    <progress bytes="1768396" bps="12024.70"></progress>
    <progress bytes="1833931" bps="8922.10"></progress>
    <progress bytes="1899466" bps="8510.18"></progress>
    <progress bytes="1965001" bps="10709.29"></progress>
    <progress bytes="2030536" bps="10814.31"></progress>
    <progress bytes="2096071" bps="10239.73"></progress>
    <progress bytes="2161606" bps="11298.74"></progress>
    <progress bytes="2227141" bps="12990.25"></progress>
    <progress bytes="2292676" bps="12799.53"></progress>
    <progress bytes="2358211" bps="7580.55"></progress>
    <progress bytes="2423746" bps="12812.66"></progress>
    <progress bytes="2489281" bps="6549.99"></progress>
    <progress bytes="2554816" bps="10311.34"></progress>
    <progress bytes="2620351" bps="8223.01"></progress>
    <progress bytes="2685886" bps="6605.75"></progress>
    <progress bytes="2751421" bps="10647.44"></progress>
    <progress bytes="2816956" bps="15909.67"></progress>
    <progress bytes="2882491" bps="7615.19"></progress>
    <progress bytes="2948026" bps="4659.70"></progress>
    <progress bytes="3013561" bps="11807.53"></progress>
    <progress bytes="3079096" bps="5743.40"></progress>
    <progress bytes="3144631" bps="7334.69"></progress>
    <progress bytes="3210166" bps="7541.70"></progress>
    <progress bytes="3275701" bps="9256.12"></progress>
    <progress bytes="3341236" bps="7881.13"></progress>
    <progress bytes="3406771" bps="10673.71"></progress>
    <progress bytes="3472306" bps="8934.64"></progress>
    <progress bytes="3537841" bps="13869.03"></progress>
    <progress bytes="3603376" bps="10832.38"></progress>
    <progress bytes="3668911" bps="9630.06"></progress>
    <progress bytes="3734446" bps="7938.85"></progress>
    <progress bytes="3799981" bps="8186.50"></progress>
    <progress bytes="3865516" bps="15752.94"></progress>
    <progress bytes="3931051" bps="14482.89"></progress>
    <progress bytes="3996586" bps="10206.97"></progress>
    <progress bytes="4062121" bps="10256.86"></progress>
    <progress bytes="4127656" bps="13666.63"></progress>
    <progress bytes="4193191" bps="5537.31"></progress>
    <progress bytes="4258726" bps="14595.17"></progress>
    <progress bytes="4324261" bps="6653.26"></progress>
    <progress bytes="4389796" bps="9630.46"></progress>
    <progress bytes="4455331" bps="12079.71"></progress>
    <progress bytes="4520866" bps="6666.74"></progress>
    <progress bytes="4586401" bps="8790.76"></progress>
    <progress bytes="4651936" bps="17735.23"></progress>
    <progress bytes="4717471" bps="15347.28"></progress>
    <progress bytes="4783006" bps="11980.60"></progress>
    <progress bytes="4848541" bps="5402.75"></progress>
    <progress bytes="4914076" bps="9795.38"></progress>
    <progress bytes="4979611" bps="10796.87"></progress>
    <progress bytes="5045146" bps="13596.14"></progress>
    <progress bytes="5110681" bps="1969.67"></progress>
    <progress bytes="5176216" bps="20366.41"></progress>
    <progress bytes="5241751" bps="12862.06"></progress>
    <progress bytes="5290981" bps="10181.44"></progress>
    <progress complete="1"></progress>
  </file>
</fileupload>
