AWSTATS DATA FILE 7.4 (build 20140726)
# If you remove this file, all statistics for date 201710 will be lost/reset.
# Last config file used to build this data file was /home/anvinfosystem/tmp/awstats/awstats.anvinfosystem.com.conf.

# Position (offset in bytes) in this file for beginning of each section for
# direct I/O access. If you made changes somewhere in this file, you should
# also remove completely the MAP section (AWStats will rewrite it at next
# update).
BEGIN_MAP 28
POS_GENERAL 2019                
POS_TIME 2702                
POS_VISITOR 9838                
POS_DAY 19436               
POS_DOMAIN 3507                
POS_LOGIN 3754                
POS_ROBOT 3909                
POS_WORMS 4434                
POS_EMAILSENDER 4565                
POS_EMAILRECEIVER 4708                
POS_SESSION 19628               
POS_SIDER 19836               
POS_FILETYPES 4843                
POS_DOWNLOADS 5120                
POS_OS 5168                
POS_BROWSER 5370                
POS_SCREENSIZE 6153                
POS_UNKNOWNREFERER 6227                
POS_UNKNOWNREFERERBROWSER 6408                
POS_ORIGIN 6584                
POS_SEREFERRALS 6724                
POS_PAGEREFS 6891                
POS_SEARCHWORDS 7121                
POS_KEYWORDS 7273                
POS_MISC 2365                
POS_ERRORS 7332                
POS_CLUSTER 3610                
POS_SIDER_404 7438                
END_MAP

# LastLine    = Date of last record processed - Last record line number in last log - Last record offset in last log - Last record signature value
# FirstTime   = Date of first visit for history file
# LastTime    = Date of last visit for history file
# LastUpdate  = Date of last update - Nb of parsed records - Nb of parsed old records - Nb of parsed new records - Nb of parsed corrupted - Nb of parsed dropped
# TotalVisits = Number of visits
# TotalUnique = Number of unique visitors
# MonthHostsKnown   = Number of hosts known
# MonthHostsUnKnown = Number of hosts unknown
BEGIN_GENERAL 8
LastLine 20171101000053 243 51573 10091219795160
FirstTime 20171027122811
LastTime 20171031224821
LastUpdate 20171101120324 243 0 242 0 0
TotalVisits 338                 
TotalUnique 203                 
MonthHostsKnown 0                   
MonthHostsUnknown 267                 
END_GENERAL

# Misc ID - Pages - Hits - Bandwidth
BEGIN_MISC 10
JavascriptDisabled 0 0 0
QuickTimeSupport 0 0 0
DirectorSupport 0 0 0
JavaEnabled 0 0 0
TotalMisc 0 0 0
FlashSupport 0 0 0
WindowsMediaPlayerSupport 0 0 0
RealPlayerSupport 0 0 0
AddToFavourites 0 16 0
PDFSupport 0 0 0
END_MISC

# Hour - Pages - Hits - Bandwidth - Not viewed Pages - Not viewed Hits - Not viewed Bandwidth
BEGIN_TIME 24
0 16 16 35605 10 17 58247
1 11 11 7094 5 8 51336
2 10 10 16217 21 34 493419
3 24 24 20311 13 36 191803
4 29 40 131289 16 32 469151
5 49 50 159348 12 39 562948
6 31 31 56417 15 49 1400739
7 33 40 172780 12 26 306565
8 51 72 919507 13 35 320265
9 37 38 161712 11 45 1498046
10 43 51 143305 22 37 365917
11 46 61 161959 23 30 353542
12 106 107 128662 15 26 154821
13 32 32 66491 15 26 127195
14 45 45 136646 56 70 1349674
15 30 55 242957 16 27 132184
16 36 37 63350 13 34 119310
17 91 91 52366 17 31 339666
18 50 61 203814 20 34 228096
19 40 49 230236 34 45 236156
20 20 20 30348 15 35 358838
21 130 160 639479 28 43 424367
22 70 75 403519 42 56 679473
23 10 10 35509 24 35 195995
END_TIME

# Domain - Pages - Hits - Bandwidth
# The 25 first Pages must be first (order not required for others)
BEGIN_DOMAIN 2
us 969 1104 3876529
eu 71 82 342392
END_DOMAIN

# Cluster ID - Pages - Hits - Bandwidth
BEGIN_CLUSTER 0
END_CLUSTER

# Login - Pages - Hits - Bandwidth - Last visit
# The 10 first Pages must be first (order not required for others)
BEGIN_LOGIN 0
END_LOGIN

# Robot ID - Hits - Bandwidth - Last visit - Hits on robots.txt
# The 25 first Hits must be first (order not required for others)
BEGIN_ROBOT 10
googlebot 295 2097985 20171031223617 99
bot[\s_+:,\.\;\/\\-] 101 668116 20171031233005 17
spider 55 1551802 20171031142858 5
bingpreview 41 1743009 20171031103214 0
unknown 16 102 20171031184838 16
googlebot\-image 6 373792 20171031085122 0
[\s_+:,\.\;\/\\-]bot 3 16162 20171028200646 0
robot 3 9709 20171028193718 2
no_user_agent 2 21891 20171031112208 0
ia_archiver 2 8431 20171028132529 1
END_ROBOT

# Worm ID - Hits - Bandwidth - Last visit
# The 5 first Hits must be first (order not required for others)
BEGIN_WORMS 0
END_WORMS

# EMail - Hits - Bandwidth - Last visit
# The 20 first Hits must be first (order not required for others)
BEGIN_EMAILSENDER 0
END_EMAILSENDER

# EMail - Hits - Bandwidth - Last visit
# The 20 first hits must be first (order not required for others)
BEGIN_EMAILRECEIVER 0
END_EMAILRECEIVER

# Files type - Hits - Bandwidth - Bandwidth without compression - Bandwidth after compression
BEGIN_FILETYPES 12
php 836 727888 0 0
gif 2 1694 0 0
jpg 3 193463 0 0
bmp 17 226962 0 0
html 149 1434362 0 0
woff2 6 399744 0 0
css 35 123895 0 0
Unknown 45 756 0 0
xml 3 1380 0 0
woff 1 83588 0 0
png 7 362288 0 0
js 82 662901 0 0
END_FILETYPES

# Downloads - Hits - Bandwidth
BEGIN_DOWNLOADS 0
END_DOWNLOADS

# OS ID - Hits
BEGIN_OS ID - Hits - Pages 10
win8 3 1
winxp 8 8
ios_ipad 15 15
macosx 31 16
Unknown 133 133
linuxandroid 119 32
winlong 460 460
winnt 300 276
win7 107 92
linux 10 7
END_OS

# Browser ID - Hits - Pages
BEGIN_BROWSER 36
chrome58.0.3029.81 12 3
firefox56.0 6 5
firefox52.0 6 5
chrome61.0.3163.98 49 17
opera46.0.2597.57 3 1
chrome34.0.1847.131 20 20
chrome58.0.3029.110 1 1
chrome49.0.2623.75 1 1
chrome58.0.3029.83 24 8
opera8.50 6 6
chrome60.0.3112.113 3 2
chrome60.0.3112.78 6 4
chrome59.0.3071.115 3 3
chrome57.0.2987.133 3 2
chrome38.0.1025.166 17 1
chrome40.0.2214.115 6 5
safari 15 15
opera12.15 2 2
firefox34.0 460 460
firefox54.0 24 11
msie9.0 3 3
msie10.0 3 1
chrome62.0.3202.73 16 2
firefox48.0 31 31
firefox40.1 18 18
opera36.0.2130.32 17 17
chrome52.0.2743.116 42 21
firefox47.0 4 4
chrome60.0.3112.90 3 2
Unknown 133 133
chrome51.0.2704.81 13 4
chrome61.0.3163.100 224 221
safari11.0 1 1
safari10.0.3 5 4
msie6.0 1 1
chrome22.0.1216.0 5 5
END_BROWSER

# Screen size - Hits
BEGIN_SCREENSIZE 0
END_SCREENSIZE

# Unknown referer OS - Last visit date
BEGIN_UNKNOWNREFERER 2
Go_1.1_package_http 20171028035400
WordPress/4.8;_http://www.anvinfosystem.com 20171031224820
END_UNKNOWNREFERER

# Unknown referer Browser - Last visit date
BEGIN_UNKNOWNREFERERBROWSER 2
WordPress/4.8;_http://www.anvinfosystem.com 20171031224820
Go_1.1_package_http 20171028035400
END_UNKNOWNREFERERBROWSER

# Origin - Pages - Hits 
BEGIN_ORIGIN 6
From0 553 567
From1 0 0
From2 18 18
From3 3 3
From4 466 598
From5 0 0
END_ORIGIN

# Search engine referers ID - Pages - Hits
BEGIN_SEREFERRALS 2
yahoo 1 1
google 17 17
END_SEREFERRALS

# External page referers - Pages - Hits
# The 25 first Pages must be first (order not required for others)
BEGIN_PAGEREFS 2
http://kinghorn.insure/personal-insurance-policies/ 2 2
http://m.facebook.com 1 1
END_PAGEREFS

# Search keyphrases - Number of search
# The 10 first number of search must be first (order not required for others)
BEGIN_SEARCHWORDS 0
END_SEARCHWORDS

# Search keywords - Number of search
# The 25 first number of search must be first (order not required for others)
BEGIN_KEYWORDS 0
END_KEYWORDS

# Errors - Hits - Bandwidth
BEGIN_ERRORS 2
404 139 3875547
301 171 32807
END_ERRORS

# URL with 404 errors - Hits - Last URL referrer
BEGIN_SIDER_404 45
/wp-content/themes/mTheme-Unus/css/css.php 4 -
/wp-content/plugins/wptf-image-gallery/lib-mbox/ajax_load.php 4 -
/project/kid/wp-content/uploads/2017/01/kidizens-program2.jpg 5 http://thekidizens.com/programs/kidizens-program/
/dede/inc/grouplist.txt 2 -
/omshankar/process/process.php 18 -
/project/kid/ 1 -
/wp-content/security.php 2 http://www.anvinfosystem.com/wp-content/security.php
/ 12 -
/images/portfolio/002.jpg 5 -
/project/kid/xmlrpc.php 2 -
/joomla/robots.txt 1 -
/images/portfolio/001.jpg 6 -
/wp-content/plugins/wp-mobile-detector/cache/db.php 4 -
/images/portfolio/004.jpg 5 -
/wp-content/plugins/wp-symposium/server/php/index.php 4 -
/images/portfolio/003.jpg 5 -
/qrzkadmin/adminmailto.asp 1 -
/images/portfolio/015.jpg 1 -
/services.html 1 -
/img/slider/slide-6.jpg 1 -
/wp-content/plugins/wp-symposium/server/php/wGxFUGVdDITrlA.php 1 -
/contact-us.html 2 http://anvinfosystem.com/contact-us.html
/wp-content/plugins/formcraft/file-upload/server/php/upload.php 4 -
/wp-content/plugins/wp-ecommerce-shop-styling/includes/download.php 4 -
/modules/mod_feed/mod_feed.xml 2 -
/wp-content/plugins/./simple-image-manipulator/controller/download.php 4 -
/wp-content/plugins/simple-ads-manager/js/slider/tmpl.js 4 -
/admin/adminmailto.asp 2 -
/project/kid/wp-json/wp/v2/users/ 1 -
/admin/inc/grouplist.txt 2 -
/wp-content/plugins/wp-mobile-detector/resize.php 4 -
/project/kid/wp-content/uploads/2016/11/gallery-03.jpg 1 -
/wp-content/plugins/candidate-application-form/downloadpdffile.php 4 -
/wp-content/plugins/wp-symposium/server/php/IbJAhbcYPrWPSN.php 1 -
/wp-content/plugins/revslider/temp/update_extract/revslider/db.php 5 -
/wp-content/plugins/recent-backups/download-file.php 4 -
/dlzladmin/inc/grouplist.txt 1 -
/wp-content/plugins/wp-symposium/server/php/TMkeHUYmlpRRHx.php 1 -
/project/kid/wp-includes/wlwmanifest.xml 1 -
/wp-includes.php 2 http://www.anvinfosystem.com/wp-includes.php
/wp-content/plugins/wp_module/ 1 -
/wp-content/plugins/wp-symposium/server/php/QkXHmPnQLGQSzB.php 1 -
/blog/robots.txt 1 -
/rvoldede/inc/grouplist.txt 1 -
/web-development.html 1 -
END_SIDER_404

# Host - Pages - Hits - Bandwidth - Last visit date - [Start date of last visit] - [Last page of last visit]
# [Start date of last visit] and [Last page of last visit] are saved only if session is not finished
# The 25 first Hits must be first (order not required for others)
BEGIN_VISITOR 267
173.245.52.77 132 132 0 20171031224820
172.68.11.117 68 68 32536 20171031094713
172.68.25.116 64 64 26906 20171031125416
172.68.238.80 63 63 14746 20171028174010
172.68.10.26 26 26 36738 20171030114526
162.158.63.236 22 22 187627 20171031185245
162.158.126.26 21 21 145260 20171030211206
162.158.89.137 18 18 25434 20171031224821
162.158.62.31 15 15 133123 20171028215734
162.158.63.212 15 15 132762 20171028224634
141.101.76.224 15 15 42285 20171031222036
141.101.98.68 14 14 70258 20171027122929
108.162.237.50 14 14 2884 20171030195105
108.162.219.32 12 12 71634 20171027143006
172.68.244.250 10 10 14130 20171031071112
172.68.245.95 10 10 14130 20171031115312
162.158.90.142 10 10 14130 20171031055744
172.68.244.214 8 8 11304 20171030101801
172.68.245.119 8 8 11304 20171031120411
172.68.245.167 8 8 11304 20171031091858
141.101.107.76 7 7 27342 20171027164330
162.158.126.44 7 10 3695 20171031013907
172.68.10.122 6 6 8478 20171031211019
172.68.11.183 6 6 8478 20171030123950
172.68.150.68 6 6 24290 20171031174940
172.68.244.58 2 2 2826 20171030184859
172.68.10.152 2 2 2826 20171029112015
162.158.154.53 0 2 978 
172.68.246.24 2 2 2826 20171030184645
172.68.244.142 2 2 2826 20171030161637
172.68.11.141 4 4 5652 20171031162303
172.68.11.87 2 2 2826 20171027151540
162.158.62.103 0 1 7286 
108.162.216.200 0 1 11108 
162.158.126.50 0 1 27325 
162.158.89.191 4 4 5652 20171029110219
162.158.90.232 2 2 2826 20171028184202
162.158.75.44 0 1 1821 
162.158.182.14 2 2 2826 20171031102615
172.68.144.71 2 2 13392 20171031161213
162.158.89.17 2 2 2826 20171030204709
173.245.51.60 0 1 4299 
162.158.88.156 4 4 5652 20171028103611
162.158.167.208 2 2 13391 20171028063213
162.158.91.69 4 4 5652 20171031031439
108.162.219.104 2 2 16950 20171027141600
162.158.62.121 2 2 12142 20171028195043
141.101.107.22 0 2 19316 
172.68.182.110 2 2 2826 20171030145315
172.68.11.237 2 2 2826 20171031053945
188.114.102.32 2 2 2826 20171028100211
162.158.165.86 0 3 2253 
141.101.99.153 2 2 8 20171029162509
172.68.245.11 4 4 5652 20171029145703
162.158.91.21 4 4 5652 20171031081439
172.68.244.226 2 2 2826 20171029152552
172.68.58.93 1 1 8182 20171030150621
108.162.219.236 0 3 18883 
162.158.126.8 2 2 13392 20171029095821
172.68.245.227 2 2 2826 20171028155308
172.68.146.18 0 5 0 
172.68.10.32 2 2 2826 20171031143529
172.68.245.77 2 2 2826 20171028073501
162.158.155.36 0 1 15815 
162.158.126.92 1 3 124718 20171030195248
162.158.154.245 5 5 28844 20171029105353
172.68.144.173 0 2 978 
162.158.75.152 0 1 538 
172.68.142.177 1 1 12162 20171029005738
172.68.10.98 2 2 2826 20171028103052
141.101.98.14 1 1 12161 20171028070426
162.158.75.128 0 1 6588 
108.162.219.218 0 4 44432 
172.68.245.197 4 4 5652 20171029093151
162.158.182.254 2 2 2826 20171030163113
162.158.91.15 2 2 2826 20171031110805
162.158.88.90 2 2 13368 20171029192245
162.158.91.33 2 2 2826 20171030194627
172.68.11.135 2 2 2826 20171029044033
172.68.10.38 2 2 2826 20171029054941
172.68.10.164 2 2 2826 20171031215708
172.68.182.56 4 4 5652 20171028073610
172.68.10.248 2 2 2826 20171029130531
162.158.88.84 2 2 2826 20171030060408
162.158.89.5 2 2 2826 20171031065253
172.68.144.77 1 1 4 20171029075830
173.245.51.61 0 1 1526 
162.158.167.52 4 4 23844 20171029084121
188.114.103.57 2 2 2826 20171031181925
172.68.246.150 4 4 5652 20171031130522
172.68.182.80 2 2 2826 20171030122935
141.101.98.44 2 2 2826 20171027170335
162.158.165.164 0 1 1903 
172.68.182.38 2 2 2826 20171027182116
108.162.216.38 2 3 78480 20171028034149
172.68.244.94 2 2 2826 20171029122453
162.158.75.8 0 1 3824 
162.158.167.34 1 1 8182 20171030043126
172.68.11.51 2 2 2826 20171029070508
162.158.155.12 2 2 8429 20171030115309
162.158.91.231 2 2 2826 20171029061049
162.158.63.158 0 1 33766 
162.158.182.104 2 2 2826 20171030184922
162.158.91.81 2 2 2826 20171031180735
172.68.182.140 4 4 5652 20171030055727
141.101.107.184 2 2 13392 20171027201848
172.68.246.78 4 4 5652 20171031102059
162.158.166.63 1 2 19947 20171029043109
172.68.146.48 0 1 9973 
162.158.182.80 2 2 2826 20171027165647
162.158.165.110 0 3 11472 
172.68.144.209 1 1 4 20171031185331
162.158.166.129 0 5 112502 
162.158.90.130 2 2 2826 20171028160327
172.68.10.206 4 4 5652 20171031184914
162.158.183.99 2 2 2826 20171031071834
172.68.245.35 2 2 2826 20171031080400
173.245.51.139 0 1 751 
162.158.183.33 2 2 2826 20171030082500
162.158.91.135 2 2 2826 20171027173105
108.162.216.116 0 1 33766 
172.68.244.112 2 2 2826 20171031083654
172.68.144.185 0 1 5438 
162.158.182.146 2 2 2826 20171030065129
162.158.62.229 0 4 10248 
172.68.11.165 2 2 2826 20171030103724
172.68.11.147 4 4 5652 20171031053722
141.101.107.250 4 4 21877 20171029070713
162.158.75.50 0 1 986 
162.158.165.152 1 1 83588 20171029082357
172.68.245.107 2 2 2826 20171030220748
141.101.105.196 2 2 24079 20171030132301
108.162.229.38 1 1 12139 20171031004011
172.68.246.144 2 2 2826 20171029110118
108.162.229.20 2 2 20383 20171031052247
162.158.90.178 2 2 2826 20171028000731
172.68.10.212 2 2 2826 20171027161115
172.68.11.39 2 2 2826 20171029130759
172.68.144.23 2 2 2826 20171031142855
162.158.92.188 4 4 5652 20171029191255
172.68.10.128 2 2 2826 20171031055559
108.162.219.182 0 4 3004 
172.68.245.89 2 2 2826 20171030081353
172.68.146.6 0 1 177837 
162.158.89.89 4 4 5652 20171028172209
172.68.10.194 6 6 8478 20171030210655
162.158.166.99 0 1 10285 
108.162.245.134 1 1 508 20171028035400
172.68.239.15 4 4 5652 20171030040728
172.68.144.233 1 1 4 20171030043132
141.101.98.170 2 2 13391 20171031022009
162.158.88.174 2 2 2826 20171031005216
162.158.165.68 1 1 4 20171031151312
162.158.92.50 4 4 5652 20171031212847
108.162.216.158 0 1 2562 
162.158.89.239 2 2 2826 20171028110910
162.158.91.171 4 4 5652 20171031100029
172.68.182.230 2 2 2826 20171030153107
162.158.154.65 3 3 199872 20171031054016
162.158.126.14 2 2 1208 20171027174708
162.158.92.104 2 2 2826 20171030072515
172.68.58.81 0 1 634 
172.68.238.158 2 2 2826 20171027143954
172.68.245.41 2 2 2826 20171031054304
162.158.62.205 0 2 54650 
172.68.244.10 6 6 8478 20171030124413
162.158.74.91 0 1 9658 
162.158.90.118 5 5 17814 20171031095544
172.68.245.251 2 2 2826 20171028171702
172.68.244.52 6 6 8478 20171031085146
141.101.107.226 2 2 8452 20171029084016
172.68.144.119 0 3 6912 
162.158.91.141 4 4 5652 20171031181235
172.68.244.22 2 2 2826 20171028145226
162.158.154.71 0 1 1341 
162.158.91.219 4 4 5652 20171031122424
172.68.10.86 4 4 5652 20171030054634
172.68.182.134 6 6 8478 20171030203537
172.68.65.124 3 3 25476 20171028131135
162.158.126.104 1 4 5484 20171030034852
162.158.88.36 2 2 2826 20171030073300
172.68.144.65 3 3 35975 20171031185323
108.162.216.26 0 1 1143 
172.68.25.182 2 2 13392 20171031175515
172.68.244.106 2 2 2826 20171031012214
162.158.63.26 0 3 11472 
162.158.165.32 1 1 4 20171029115031
162.158.88.6 6 6 8478 20171031141712
141.101.98.26 1 1 4 20171029080049
141.101.98.212 4 4 14748 20171029110015
162.158.92.68 2 2 2826 20171031135305
162.158.182.20 2 2 2826 20171030195006
162.158.183.39 6 6 8478 20171030220621
162.158.62.109 0 2 75654 
141.101.99.123 0 2 8028 
162.158.154.137 0 2 13176 
141.101.99.165 0 2 1076 
162.158.89.209 2 2 2826 20171030115114
162.158.62.19 0 1 37787 
172.68.58.105 0 1 4014 
162.158.92.164 2 2 2826 20171031113810
162.158.92.170 2 2 2826 20171028023426
141.101.98.182 1 1 12139 20171029091440
162.158.166.45 0 4 110054 
162.158.182.188 2 2 2826 20171028091638
172.68.150.8 6 6 1236 20171028151053
172.68.146.12 0 2 1694 
162.158.118.164 1 1 12161 20171030182525
162.158.92.122 4 4 5652 20171030142926
141.101.99.99 0 2 1972 
172.68.246.60 2 2 2826 20171028110348
162.158.155.66 2 2 12166 20171029090801
172.68.182.68 2 2 2826 20171029050221
162.158.92.26 4 4 5652 20171030072242
162.158.90.10 2 2 2826 20171030065230
162.158.155.60 0 1 11341 
162.158.183.9 6 6 8478 20171031032353
141.101.107.220 6 6 27063 20171030081923
162.158.126.98 0 3 7686 
172.68.144.107 1 2 37791 20171029043117
172.68.10.254 4 4 5652 20171028110107
162.158.126.86 0 9 57693 
162.158.63.116 0 1 9973 
172.68.244.196 2 2 2826 20171028085123
172.68.245.161 4 4 5652 20171029050731
172.68.182.104 2 2 2826 20171031102624
162.158.90.244 4 4 5652 20171030184539
162.158.165.20 1 1 9062 20171031151320
162.158.89.221 2 2 2826 20171031055120
172.68.244.232 2 2 2826 20171031054945
162.158.88.204 4 4 5652 20171031090937
141.101.99.33 0 1 646 
162.158.165.170 0 1 170931 
162.158.166.51 0 3 12042 
172.68.244.244 2 2 2826 20171031104741
162.158.91.105 2 2 2826 20171030180510
173.245.48.199 2 2 11940 20171029062907
162.158.155.90 0 1 2304 
172.68.245.191 4 4 5652 20171030074837
162.158.166.87 1 1 4 20171031151323
172.68.144.245 0 1 3127 
162.158.165.146 2 2 13391 20171028110703
172.68.11.249 2 2 2826 20171030135135
172.68.10.146 2 2 2826 20171031095839
172.68.244.82 2 2 2826 20171030182338
141.101.98.248 2 2 13391 20171027185912
162.158.165.92 3 3 199872 20171029082411
172.68.144.125 0 3 1938 
172.68.6.80 2 2 2826 20171028145316
162.158.154.107 2 2 12166 20171028083044
172.68.182.224 2 2 2826 20171028151440
162.158.154.167 0 2 1268 
172.68.246.84 2 2 2826 20171031160545
108.162.219.164 2 2 20521 20171027230401
141.101.99.105 0 2 2286 
162.158.88.72 2 2 2826 20171030092516
162.158.165.56 0 3 1902 
162.158.154.89 0 8 0 
108.162.238.219 2 2 20653 20171030091915
162.158.88.246 6 6 8478 20171030082954
162.158.62.127 0 4 7284 
162.158.92.38 2 2 2826 20171027232850
162.158.155.54 4 4 21473 20171031054027
172.68.144.161 4 4 5652 20171030085817
172.68.245.221 6 6 8478 20171030125320
162.158.165.242 0 3 47445 
162.158.154.173 0 2 67532 
END_VISITOR

# Date - Pages - Hits - Bandwidth - Visits
BEGIN_DAY 5
20171027 102 104 316670 34
20171028 236 260 906374 64
20171029 170 225 1556714 77
20171030 279 323 863551 84
20171031 253 274 575612 79
END_DAY

# Session range - Number of visits
BEGIN_SESSION 7
30mn-1h 9
2mn-5mn 1
15mn-30mn 4
1h+ 18
30s-2mn 7
0s-30s 296
5mn-15mn 3
END_SESSION

# URL - Pages - Bandwidth - Entry - Exit
# The 25 first Pages must be first (order not required for others)
BEGIN_SIDER 30
/wp-login.php 481 679399 232 223
/xmlrpc.php 153 34594 6 8
/wp-cron.php 132 0 36 36
//xmlrpc.php 61 13706 0 1
/ 54 640143 27 23
/wp-json/pum/v1/analytics/open 44 176 9 22
/contact-us/ 12 123885 4 4
/courses/bigdata-hadoop-training-in-pune/ 10 96696 1 3
/qtp-uft-training-in-pune/ 10 84848 3 3
/wp-admin/admin-ajax.php 9 189 3 1
/tosca-training-in-pune/ 8 67108 2 2
/selenium-training-in-pune/ 8 74120 1 2
/courses/ 7 62819 2 0
/load-runner-training-in-pune/ 6 50636 1 0
/wp-content/themes/innovation-lite/fonts/fontawesome-webfont.woff2 6 399744 5 5
/manual-testing/ 6 50258 2 1
/salesforce-training-in-pune/ 5 42129 0 0
/about-us/ 5 40589 0 1
/services/ 4 32575 0 0
/classroom-gallery/ 4 32320 0 0
/category/uncategorized/ 4 25349 0 0
/wp-includes/wlwmanifest.xml 2 920 0 0
/wp-json/wp/v2/users/ 2 1160 0 0
/feed/atom/ 1 750 0 0
/java/ 1 7889 1 1
/wp-json/wp/v2/users 1 580 0 0
/feed/ 1 508 1 1
//wp-json/wp/v2/users/ 1 580 0 0
//wp-includes/wlwmanifest.xml 1 460 1 0
/wp-content/themes/innovation-lite/fonts/fontawesome-webfont.woff 1 83588 1 1
END_SIDER
