AWSTATS DATA FILE 7.4 (build 20140726)
# If you remove this file, all statistics for date 201712 will be lost/reset.
# Last config file used to build this data file was /home/anvinfosystem/tmp/awstats/awstats.anvinfosystem.com.conf.

# Position (offset in bytes) in this file for beginning of each section for
# direct I/O access. If you made changes somewhere in this file, you should
# also remove completely the MAP section (AWStats will rewrite it at next
# update).
BEGIN_MAP 28
POS_GENERAL 2019                
POS_TIME 2702                
POS_VISITOR 22787               
POS_DAY 54581               
POS_DOMAIN 3640                
POS_LOGIN 3894                
POS_ROBOT 4049                
POS_WORMS 4748                
POS_EMAILSENDER 4879                
POS_EMAILRECEIVER 5022                
POS_SESSION 55475               
POS_SIDER 55688               
POS_FILETYPES 5157                
POS_DOWNLOADS 5530                
POS_OS 6650                
POS_BROWSER 6966                
POS_SCREENSIZE 10002               
POS_UNKNOWNREFERER 10076               
POS_UNKNOWNREFERERBROWSER 10706               
POS_ORIGIN 10997               
POS_SEREFERRALS 11148               
POS_PAGEREFS 11318               
POS_SEARCHWORDS 11650               
POS_KEYWORDS 11828               
POS_MISC 2364                
POS_ERRORS 11917               
POS_CLUSTER 3750                
POS_SIDER_404 12079               
END_MAP

# LastLine    = Date of last record processed - Last record line number in last log - Last record offset in last log - Last record signature value
# FirstTime   = Date of first visit for history file
# LastTime    = Date of last visit for history file
# LastUpdate  = Date of last update - Nb of parsed records - Nb of parsed old records - Nb of parsed new records - Nb of parsed corrupted - Nb of parsed dropped
# TotalVisits = Number of visits
# TotalUnique = Number of unique visitors
# MonthHostsKnown   = Number of hosts known
# MonthHostsUnKnown = Number of hosts unknown
BEGIN_GENERAL 8
LastLine 20180101002431 190 47343 8816451331687
FirstTime 20171201005718
LastTime 20171231230757
LastUpdate 20180101121135 190 0 189 0 0
TotalVisits 1165                
TotalUnique 455                 
MonthHostsKnown 0                   
MonthHostsUnknown 989                 
END_GENERAL

# Misc ID - Pages - Hits - Bandwidth
BEGIN_MISC 10
JavascriptDisabled 0 0 0
FlashSupport 0 0 0
TotalMisc 0 0 0
QuickTimeSupport 0 0 0
WindowsMediaPlayerSupport 0 0 0
JavaEnabled 0 0 0
RealPlayerSupport 0 0 0
DirectorSupport 0 0 0
PDFSupport 0 0 0
AddToFavourites 0 191 0
END_MISC

# Hour - Pages - Hits - Bandwidth - Not viewed Pages - Not viewed Hits - Not viewed Bandwidth
BEGIN_TIME 24
0 142 202 1073471 106 173 1220453
1 53 65 429633 268 350 3541328
2 1101 1293 5545692 142 186 2012980
3 1515 1796 6718964 143 226 1837477
4 720 1071 8663328 302 419 3603691
5 265 325 2224990 157 243 2418309
6 173 295 5925388 118 294 4937722
7 89 226 4804238 83 193 3365916
8 119 233 4654729 107 166 1253060
9 163 277 2658847 153 247 2303773
10 113 162 1522574 122 205 1853974
11 241 520 14189383 253 318 1473509
12 261 333 2003740 125 209 1718176
13 82 91 325420 87 145 1066219
14 1156 1243 2718124 121 181 2226452
15 97 116 577710 99 155 863831
16 244 527 14347151 76 182 2465419
17 174 210 2385764 92 145 1035532
18 291 308 539741 59 100 673475
19 73 143 2065057 96 149 1052454
20 61 72 435092 123 240 5274690
21 73 166 2221204 142 256 3137991
22 245 246 149085 119 160 1215028
23 69 85 393614 119 170 2427956
END_TIME

# Domain - Pages - Hits - Bandwidth
# The 25 first Pages must be first (order not required for others)
BEGIN_DOMAIN 2
us 6738 8485 70058640
eu 782 1520 16514299
END_DOMAIN

# Cluster ID - Pages - Hits - Bandwidth
BEGIN_CLUSTER 0
END_CLUSTER

# Login - Pages - Hits - Bandwidth - Last visit
# The 10 first Pages must be first (order not required for others)
BEGIN_LOGIN 0
END_LOGIN

# Robot ID - Hits - Bandwidth - Last visit - Hits on robots.txt
# The 25 first Hits must be first (order not required for others)
BEGIN_ROBOT 15
googlebot 1017 6030600 20171231181823 378
bot[\s_+:,\.\;\/\\-] 981 8873958 20171231220358 114
bingpreview 190 7917150 20171231202916 0
spider 145 4151329 20171231035837 17
unknown 65 1530 20171231230726 65
crawl 60 588199 20171220010406 3
googlebot\-image 38 2244940 20171229103304 0
ia_archiver 25 157167 20171221172030 7
no_user_agent 25 439412 20171228154008 0
robot 12 55404 20171228185604 7
[\s_+:,\.\;\/\\-]bot 5 220884 20171229210915 0
slurp 4 24493 20171214063219 2
netcraft 4 48140 20171207112906 0
curl 2 24707 20171213060920 0
php 1 3932 20171212090617 0
END_ROBOT

# Worm ID - Hits - Bandwidth - Last visit
# The 5 first Hits must be first (order not required for others)
BEGIN_WORMS 0
END_WORMS

# EMail - Hits - Bandwidth - Last visit
# The 20 first Hits must be first (order not required for others)
BEGIN_EMAILSENDER 0
END_EMAILSENDER

# EMail - Hits - Bandwidth - Last visit
# The 20 first hits must be first (order not required for others)
BEGIN_EMAILRECEIVER 0
END_EMAILRECEIVER

# Files type - Hits - Bandwidth - Bandwidth without compression - Bandwidth after compression
BEGIN_FILETYPES 16
woff2 41 2531712 0 0
gif 35 55742 0 0
png 347 18594135 0 0
svg 11 5388 0 0
html 1573 16530694 0 0
jpg 258 24361802 0 0
woff 32 2608712 0 0
ttf 1 83573 0 0
js 1005 6515162 0 0
bmp 144 2193966 0 0
php 4977 8444724 0 0
xml 6 2760 0 0
txt 44 4221 0 0
css 641 3078930 0 0
Unknown 880 853588 0 0
eot 10 707830 0 0
END_FILETYPES

# Downloads - Hits - Bandwidth
BEGIN_DOWNLOADS 15
/.well-known/pki-validation/73B53B414690D6DCAD9BAD16659E7683.txt 14 0 1120
/.well-known/pki-validation/953D4E466640853BFB576F617454A05B.txt 6 0 480
/.well-known/pki-validation/C94C93B12A923237CCE19D81787ED687.txt 5 0 403
/.well-known/pki-validation/BAF529B65E61830322DFA59C3A5DCFD8.txt 4 0 326
/.well-known/pki-validation/49A8BCCA16B916F32335813E3D1953A3.txt 3 0 252
/.well-known/pki-validation/5AC65FBCEB6F920489BD79818886ACED.txt 2 0 164
/wp-content/plugins/contact-form-7/license.txt 2 0 944
/.well-known/pki-validation/AC89FD933DF9A24A8C7AB01DE2C66E96.txt 1 0 64
/.well-known/pki-validation/385972D122CCCB277315953443DFB819.txt 1 0 64
/.well-known/pki-validation/A9C8DA74A34CFE1F1D21996AFDD1EA07.txt 1 0 64
/.well-known/pki-validation/60F07EFE565CDB1855128E82F8F718F4.txt 1 0 64
/.well-known/pki-validation/87A80022E1A4AA42744B58F5E7718689.txt 1 0 64
/.well-known/pki-validation/B44A153333032D6D318D2378127E2D1A.txt 1 0 64
/.well-known/pki-validation/0AC04E53B11E87F2831DB79C2EBB67BD.txt 1 0 64
/.well-known/pki-validation/DE401BADAE715BEE13EE9448B3ACAEDE.txt 1 0 84
END_DOWNLOADS

# OS ID - Hits
BEGIN_OS ID - Hits - Pages 18
linuxandroid 927 332
macosx 113 74
win8 60 27
winnt 3002 2897
win7 2980 2012
ios_iphone 139 53
macosx9 2 2
winxp 97 46
Unknown 2365 1886
linux 46 29
winlong 69 68
win2000 8 8
java 65 2
macosx4 5 5
ios_ipad 3 3
win2003 20 14
win8.1 102 60
macosx8 2 2
END_OS

# Browser ID - Hits - Pages
BEGIN_BROWSER 139
chrome57.5.0168.4896 1 1
safari10.1 4 4
opera44.0.2510.1449 2 2
chrome49.0.2646.93 1 1
safari 12 2
chrome12.0.742.53 1 1
chrome53.6.0989.5627 1 1
chrome58.0.3029.81 10 10
opera41.9.4141.9879 1 1
chrome61.0.3163.79 8 8
android 58 23
chrome53.7.3837.8109 1 1
chrome60.0.3112.90 5 2
safari4.7.2 5 5
firefox48.0 1899 1899
firefox52.48.95 1 1
msie7.0 61 58
safari5.4.8 2 2
chrome36.0.1985.67 10 10
chrome54.0.2840.98 17 2
chrome57.4.9411.4783 1 1
safari5.3.8 3 3
chrome53.8.3745.8017 1 1
chrome58.0.3029.96 2 2
iphone 51 6
chrome53.8.3325.8697 1 1
chrome54.9.4316.9688 1 1
chrome54.0.2840.71 19 13
firefox37.0 4 3
chrome60.0.3112.116 2 2
firefox52.47.94 1 1
firefox43.0 17 14
firefox24.0 1 1
chrome53.0.2785.49 3 0
chrome57.5.0050.5322 3 3
firefox50.0 16 10
firefox45.61.14 1 1
opera8.50 14 14
firefox4.0 3 3
safari5.2.7 2 2
opera43.0.2442.1144 4 4
msie6.0 41 9
chrome55.0.2883.87 2 2
chrome53.0.2785.146 52 36
firefox45.67.10 1 1
chrome40.0.2214.89 83 13
chrome56.2.6486.1114 1 1
firefox33.0 4 4
chrome54.0.2840.99 14 2
chrome34.0.1847.137 1 1
chrome55.1.6083.1711 1 1
chrome63.0.3239.84 2063 1360
chrome1.0.154.53 1 1
chrome62.0.3202.84 121 38
chrome59.0.3071.125 27 16
opera36.0.2130.32 44 44
chrome57.0.2987.110 4 4
chrome39.0.2171.95 4 0
chrome52.0.2743.98 43 6
firefox52.0 16 10
chrome26.0.1410.63 3 3
opera44.0.2510.857 2 2
firefox53.0 3 3
chrome54.8.3934.9206 1 1
chrome62.0.3202.75 7 4
opera45.0.2552.812 1 1
chrome44.0.2403.89 1 1
chrome46.0.2490.86 1 1
chrome52.0.2743.116 20 20
chrome50.0.2661.102 2 2
chrome53.7.3711.8083 1 1
opera42.0.4533.9261 1 1
firefox52.66.19 1 1
chrome39.0.2171.93 26 3
chrome61.0.3163.98 53 8
msie9.0 41 41
safari11.0 87 46
opera44.1.2246.123029 24 9
msie11.0 42 20
chrome10.0.648.133 1 0
chrome62.0.3202.94 349 235
chrome53.7.2599.8861 1 1
chrome38.0.1025.166 130 9
chrome41.0.2224.3 1 1
chrome53.6.1943.5671 1 1
chrome64.0.3282.39 1 1
mozilla 18 18
opera44.6.1915.6287 1 1
safari5.5.0 2 2
firefox52.58.95 1 1
firefox3.0.7 1 1
chrome61.0.3163.100 702 696
chrome57.5.0564.5836 1 1
chrome56.0.2924.87 94 41
msie10.0 52 10
chrome37.0.2049.0 1 1
chrome22.0.1216.0 2 2
chrome57.5.1718.6080 1 1
firefox52.51.14 1 1
chrome10.0.648.82 1 0
safari9.0 4 4
chrome53.8.3659.8921 1 1
nokia 65 2
chrome57.4.9680.4418 1 1
firefox41.0 1 1
safari4.6.1 3 3
chrome58.0.3029.110 14 13
firefox57.0 5 5
firefox29.0 6 6
chrome63.0.3239.111 156 103
chrome56.2.7987.1615 1 1
Unknown 1730 1688
chrome53.8.3509.8871 1 1
chrome63.0.3239.83 58 38
chrome45.0.2454.101 1 1
chrome31.0.1650.57 2 2
chrome57.5.0011.4749 1 1
chrome57.0.2987.133 5 5
chrome32.0.1700.76 33 16
chrome50.0.2697.22 1 1
cloudflare 617 180
chrome36.0.1985.125 116 116
msie8.0 32 19
chrome16.0.912.75 1 1
firefox45.0 22 21
firefox28.0 1 1
chrome63.0.3239.108 578 346
netscape5.0 1 1
chrome61.0.3163.91 5 3
safari10.1.1 2 2
chrome57.5.0619.6982 1 1
chrome63.0.3239.107 10 5
opera42.0.5276.0904 1 1
chrome51.0.2704.77 9 1
firefox25.0 2 2
opera12.17 1 1
opera46.0.2597.57 1 1
firefox40.1 63 63
firefox45.63.10 1 1
END_BROWSER

# Screen size - Hits
BEGIN_SCREENSIZE 0
END_SCREENSIZE

# Unknown referer OS - Last visit date
BEGIN_UNKNOWNREFERER 10
XML-RPC.NET 20171201145938
Go-http-client/1.1 20171225100158
Mozilla/5.0_(compatible;_CloudFlare-AlwaysOnline/1.0;__http://www.cloudflare.com/always-online)_AppleWebKit/534.34 20171227163651
SEMrushBot 20171216114855
WordPress/4.8.4;_http://www.anvinfosystem.com 20171231230726
Mozilla/5.0_(compatible;_CloudFlare-AlwaysOnline/1.0;__http://www.cloudflare.com/always-online) 20171227163611
Mozilla/4.0_(compatible;) 20171226104259
Mozilla/5.0_(compatible;_ips-agent) 20171212031334
Go_1.1_package_http 20171217040217
COMODO_DCV 20171201215521
END_UNKNOWNREFERER

# Unknown referer Browser - Last visit date
BEGIN_UNKNOWNREFERERBROWSER 6
SEMrushBot 20171216114855
WordPress/4.8.4;_http://www.anvinfosystem.com 20171231230726
COMODO_DCV 20171201215521
XML-RPC.NET 20171201145938
Go_1.1_package_http 20171217040217
Go-http-client/1.1 20171225100158
END_UNKNOWNREFERERBROWSER

# Origin - Pages - Hits 
BEGIN_ORIGIN 6
From0 4351 4418
From1 10 42
From2 116 117
From3 11 148
From4 3032 5280
From5 0 0
END_ORIGIN

# Search engine referers ID - Pages - Hits
BEGIN_SEREFERRALS 2
yandex 7 7
google 109 110
END_SEREFERRALS

# External page referers - Pages - Hits
# The 25 first Pages must be first (order not required for others)
BEGIN_PAGEREFS 5
http://mail.anvinfosystem.com 8 143
https://www.linkedin.com 1 1
http://googleweblight.com 1 1
http://www.openmultipleurl.com 1 1
http://mail.anvinfosystem.com/staff-augmentation/ 0 2
END_PAGEREFS

# Search keyphrases - Number of search
# The 10 first number of search must be first (order not required for others)
BEGIN_SEARCHWORDS 1
anv+infosystem+selenium 1
END_SEARCHWORDS

# Search keywords - Number of search
# The 25 first number of search must be first (order not required for others)
BEGIN_KEYWORDS 3
anv 1
selenium 1
infosystem 1
END_KEYWORDS

# Errors - Hits - Bandwidth
BEGIN_ERRORS 7
500 2 7202
405 11 378
404 777 21616131
400 1 115
206 6 61305
302 55 0
301 1494 296388
END_ERRORS

# URL with 404 errors - Hits - Last URL referrer
BEGIN_SIDER_404 181
/project/kid/summer-camp-palo-alto-location/ 1 -
/wp-content/plugins/zingiri-web-shop/admin.css 1 -
/wp-content/plugins/wp-symposium/server/php/hMvTPMpUgmPYRu.php 1 -
/wp-content/upgrade/theme-compat/popup-pomo.php 1 http://anvinfosystem.com/wp-content/upgrade/theme-compat/popup-pomo.php
/wp-content/themes/konzept/style.css 1 http://anvinfosystem.com/wp-content/themes/konzept/style.css
/abouts-tus/ 2 -
/theme_panel/theme_panel.js 2 http://www.anvinfosystem.com/contact-us.html
/roots.php 1 http://anvinfosystem.com/roots.php
/readme.php 2 http://www.anvinfosystem.com/readme.php
/index.html 1 -
/wp-content/plugins/gallery-plugin/gallery-plugin.php 1 -
/js/modernizr-latest.js 2 http://www.anvinfosystem.com/contact-us.html
/contact-us.html 17 http://www.anvinfosystem.com/contact-us.html
/ads.txt 12 -
/wp-content/themes/rayoflight/functions/upload-handler.php 1 http://anvinfosystem.com/wp-content/themes/rayoflight/functions/upload-handler.php
/mobile-development.html 7 -
/js/bootstrap.min.js 2 http://www.anvinfosystem.com/contact-us.html
/js/jquery.fitvids.js 2 http://www.anvinfosystem.com/contact-us.html
/wp-content/plugins/pretty-link/readme.txt 2 -
/wp-content/plugins/wp-mobile-detector/cache/db.php 11 -
/test/wp-admin/setup-config.php 5 -
/code.tidio.co 1 -
/wp-content/plugins/formcraft/file-upload/server/php/upload.php 10 -
/project/kid/programs/young-senators/ 1 -
/wp-content/themes/innovation-lite/images/overimage.png 1 http://www.anvinfosystem.com/
/wp-content/plugins/cimy-user-extra-fields/README_OFFICIAL.txt 1 -
/wp-content/themes/rockstar-theme/style.css 1 http://anvinfosystem.com/wp-content/themes/rockstar-theme/style.css
/uft/ 1 -
/omshankar/process/process.php 124 -
/wp-includes/css/modules.php 1 http://anvinfosystem.com/wp-includes/css/modules.php
/wp-content/plugins/wp-symposium/server/php/QJJGokTrtNdzNj.php 1 -
/license.php 2 -
/wp-content/plugins/custom-content-type-manager/index.html 1 -
/wp-content/plugins/woocommerce-catalog-enquiry/assets/frontend/js/chosen.js 1 -
/blogs/wp-admin/setup-config.php 2 -
/wp-content/plugins/simple-ads-manager/js/slider/tmpl.js 11 -
/wp-content/plugins/resume-submissions-job-postings/installer.php 1 -
/wp-content/plugins/candidate-application-form/downloadpdffile.php 10 -
/css/responsive.css 2 http://www.anvinfosystem.com/contact-us.html
/wp-content/plugins/wpmarketplace/readme.txt 2 -
/2017/07/26/hello-world/ 1 -
/wp-content/themes/twentyten/404.php 2 http://www.anvinfosystem.com/wp-content/themes/twentyten/404.php
/contact.html 2 -
/services.html 7 -
/user/ 1 -
/wp-content/plugins/wp-e-commerce/license.txt 1 -
/web-development.html 9 -
/security-d.php 2 http://www.anvinfosystem.com/security-d.php
/js/jquery-1.11.0.min.js 2 http://www.anvinfosystem.com/contact-us.html
/wp-inc.php 1 http://anvinfosystem.com/wp-inc.php
/selenide.html 5 -
/wp-content/plugins/another-wordpress-classifieds-plugin/AWPCP.po 1 -
/wp-content/plugins/revslider/temp/update_extract/revslider/db.php 14 -
/js/waypoints.min.js 2 http://www.anvinfosystem.com/contact-us.html
/images/portfolio/002.jpg 17 -
/wp-content/plugins/wp-property/action_hooks.php 1 -
/wp-content/plugins/wp-symposium/server/php/gahVvxmqAkabSE.php 1 -
/js/jquery.easing.1.3.js 2 http://www.anvinfosystem.com/contact-us.html
/selenium-training-in-pune.html 2 -
/wp-content/plugins/wp-symposium/server/php/opOvrjvFhKWNcQ.php 1 -
/wp-content/plugins/mac-dock-gallery/bugslist.txt 1 -
/img/slider/slide-6.jpg 22 -
/images/portfolio/001.jpg 20 -
/js/plugins.js 2 http://www.anvinfosystem.com/contact-us.html
/about-us.html 2 -
/wp-content/plugins/wp-symposium/server/php/VLqNtzcbJcYeQP.php 1 -
/setup.php 4 http://www.anvinfosystem.com/setup.php
/wp-content/plugins/mailin/readme.txt 2 -
/wp-content/plugins/fcchat/default.png 1 -
/wp-content/plugins/wpstorecart/readme.txt 1 http://anvinfosystem.com/wp-content/plugins/wpstorecart/readme.txt
/wp-content/themes/u-design/style.css 1 http://anvinfosystem.com/wp-content/themes/u-design/style.css
/wp-content/uploader.php.suspected 2 http://anvinfosystem.com/wp-content/uploader.php.suspected
/wp-content/uploader.php 2 http://anvinfosystem.com/wp-content/uploader.php
/project/kid/camps/lego-summer-camps/ 1 -
/wp-content/plugins/category-grid-view-gallery/cat_grid.php 1 -
/css/style.css 2 http://www.anvinfosystem.com/contact-us.html
/wp-content/themes/village/blueprint/gallery/ajaxupload/server/php.php 1 http://anvinfosystem.com/wp-content/themes/village/blueprint/gallery/ajaxupload/server/php.php
/css/night.css 2 http://www.anvinfosystem.com/contact-us.html
/wp-content/plugins/recent-backups/download-file.php 10 -
/ 41 -
/wp-content/plugins/wp-image-news-slider/functions.php 1 -
/js/owl.carousel.js 2 http://www.anvinfosystem.com/contact-us.html
/project/kid/programs/ 1 -
/sites.php 4 http://www.anvinfosystem.com/sites.php
/js/jquery.appear.js 2 http://www.anvinfosystem.com/contact-us.html
/wp-content/plugins/nextgen-gallery/changelog.txt 1 -
/project/kid/summer-camp-belmont-location/ 1 -
/offered-courses.html 10 -
/js/jquery.parallax-1.1.3.js 2 http://www.anvinfosystem.com/contact-us.html
/wp-content/plugins/wptf-image-gallery/lib-mbox/ajax_load.php 10 -
/old/wp-admin/setup-config.php 5 -
/downloader 1 -
/ogShow.aspx 8 -
/wp-content/plugins/wp-editor/readme.txt 1 -
/wp-content/plugins/front-end-upload/destination.php 2 -
/wp-content/plugins/wp-symposium/server/php/XBlidmWYJlvVid.php 1 -
/blog/wordpress/wp-admin/setup-config.php 2 -
/css/animate.min.css 2 http://www.anvinfosystem.com/contact-us.html
/wp-content/plugins/wpstorecart/lgpl.txt 1 -
/automation-testing-training-pune.html 3 -
/wp-content/plugins/ckeditor-for-wordpress/ckeditor.config.js 1 -
/wp-content/plugins/auto-attachments/a-a.css 1 -
/wp-content/plugins/wp-symposium/server/php/index.php 11 -
/images/portfolio/003.jpg 18 -
/css/font-awesome.min.css 2 http://www.anvinfosystem.com/contact-us.html
/wp-content/themes/twentyfourteen/404.php 4 http://www.anvinfosystem.com/wp-content/themes/twentyfourteen/404.php
/js/jquery.superslides.js 2 http://www.anvinfosystem.com/contact-us.html
/images/portfolio/004.jpg 16 -
/css/prettyPhoto.css 2 http://www.anvinfosystem.com/contact-us.html
/wp-content/themes/mTheme-Unus/css/css.php 10 -
/wp-content/plugins/user-avatar/readme.txt 1 -
/css/magnific-popup.css 2 http://www.anvinfosystem.com/contact-us.html
/css/socials.css 2 http://www.anvinfosystem.com/contact-us.html
/wp-content/themes/twentyfifteen/functions.php 4 http://www.anvinfosystem.com/wp-content/themes/twentyfifteen/functions.php
/project/kid/summer-camp-los-gatos-daves-location/ 1 -
/js/jquery.mb.YTPlayer.js 2 http://www.anvinfosystem.com/contact-us.html
/project/kid/birthday-parties/ 1 -
/wp-content/plugins/wp-homepage-slideshow/functions.php 1 -
/cms/wp-admin/setup-config.php 2 -
/wp-content/themes/radial-theme/functions/upload-handler.php 1 http://anvinfosystem.com/wp-content/themes/radial-theme/functions/upload-handler.php
/2092 1 -
/fa-cog 6 http://www.anvinfosystem.com/
/wp-content/plugins/wp-filemanager/fm.php 1 -
/css/player/YTPlayer.css 2 http://www.anvinfosystem.com/contact-us.html
/project/kid/summer-camp-saratoga-location/ 3 -
/beta/wp-admin/setup-config.php 2 -
/images/codeigniterdevelopment.png 1 -
/wp-content/plugins/ubh/up.php 1 http://anvinfosystem.com/wp-content/plugins/ubh/up.php
/wp-content/plugins/formcraft/file-upload/server/php/ 1 -
/wp-content/wp-link.php 1 http://anvinfosystem.com/wp-content/wp-link.php
/wp-content/plugins/nmedia-user-file-uploader/readme.txt 1 -
/apple-touch-icon-120x120-precomposed.png 1 -
/css/reset.css 2 http://www.anvinfosystem.com/contact-us.html
/wp-content/plugins/simple-dropbox-upload-form/ 1 -
/show.aspx 18 -
/project/kid/camps 1 -
/sitemap.php 4 http://www.anvinfosystem.com/sitemap.php
/project/kid/wp-content/uploads/2016/11/gallery-03.jpg 6 -
/js/SmoothScroll.js 2 http://www.anvinfosystem.com/contact-us.html
/css/bootstrap.min.css 2 http://www.anvinfosystem.com/contact-us.html
/wordpress/wp-admin/setup-config.php 7 -
/s.w.org 1 -
/training.html 2 -
/apple-touch-icon-120x120.png 1 -
/wp-content/plugins/wp-ecommerce-shop-styling/includes/download.php 10 -
/fonts.googleapis.com 1 -
/login.php 2 http://anvinfosystem.com/login.php
/wp-content/plugins/revslider/temp/update_extract/conf.php 1 http://anvinfosystem.com/wp-content/plugins/revslider/temp/update_extract/conf.php
/style.php 4 http://www.anvinfosystem.com/style.php
/wp/wp-admin/setup-config.php 5 -
/wp-content/plugins/wp-symposium/server/php/vUPDxxVjnKRQir.php 1 -
/wp-content/plugins/user-meta/readme.txt 1 -
/js/jquery.isotope.js 2 http://www.anvinfosystem.com/contact-us.html
/sftp-config.json 2 -
/wp-content/themes/innovation-lite/images/heading3back.png 1 http://www.anvinfosystem.com/
/wp-content/plugins/wp-symposium/readme.txt 1 http://anvinfosystem.com/wp-content/plugins/wp-symposium/readme.txt
/wp-content/plugins/ninja-forms/ninja_forms.php 1 -
/wp-content/plugins/wp-symposium/server/php/PXqlVeSFZsLtcA.php 1 -
/site/wp-admin/setup-config.php 2 -
/theme_panel/theme_panel.css 2 http://www.anvinfosystem.com/contact-us.html
/wp-content/plugins/magic-fields/MF_Constant.php 1 -
/js/jquery.magnific-popup.min.js 2 http://www.anvinfosystem.com/contact-us.html
/administrator/ 1 -
/project/kid/latest_news_front/project-based-learning-seminar%E2%80%8B/ 5 -
/wp-content/plugins/wp-symposium/server/php/kEvzVLIbCCUwvH.php 1 -
/wp-content/plugins/./simple-image-manipulator/controller/download.php 10 -
/wp-content/plugins/wp-mobile-detector/resize.php 11 -
/wp-content/plugins/user-photo/admin.css 1 -
/bigdata-hadoop-training-in-pune.html 1 -
/blog/wp-admin/setup-config.php 5 -
/js/jquery.prettyPhoto.js 2 http://www.anvinfosystem.com/contact-us.html
/css/owl.carousel.css 2 http://www.anvinfosystem.com/contact-us.html
/wp-content/plugins/wp-symposium/server/php/cqDqDqkyoICDeu.php 1 -
/project/kid/summer-camp-menlo-park-location/ 1 -
/bigdata-hadoop-training-in-pune 1 -
/project/kid/wp-content/uploads/2017/01/kidizens-program2.jpg 33 -
/wp-content/plugins/table-maker/readme.txt 2 -
/css/colors/red.css 2 http://www.anvinfosystem.com/contact-us.html
/wp-content/plugins/wp-symposium/server/php/ZooYERgEHnjwwU.php 1 -
/administrator/components/com_simplephotogallery/lib/uploadFile.php 1 http://anvinfosystem.com/administrator/components/com_simplephotogallery/lib/uploadFile.php
/js/jquery.flexslider.js 2 http://www.anvinfosystem.com/contact-us.html
END_SIDER_404

# Host - Pages - Hits - Bandwidth - Last visit date - [Start date of last visit] - [Last page of last visit]
# [Start date of last visit] and [Last page of last visit] are saved only if session is not finished
# The 25 first Hits must be first (order not required for others)
BEGIN_VISITOR 989
162.158.38.26 1824 1824 636176 20171220031234
162.158.154.11 900 903 8410466 20171227093048
172.68.143.112 744 744 153264 20171201145938
162.158.63.26 629 636 563 20171231230726
172.68.11.117 304 304 95069 20171230004949
172.68.46.207 300 300 61800 20171201145853
172.68.239.81 204 204 58874 20171226221841
141.101.99.105 188 198 2374498 20171222053615
162.158.155.30 119 139 584979 20171222182332
162.158.238.85 116 116 174369 20171223053823
141.101.107.148 102 106 1140717 20171228032020
162.158.155.66 97 100 463508 20171216124658
141.101.107.16 82 84 670910 20171228100732
162.158.62.37 66 66 27876 20171211173243
172.68.25.116 64 64 26992 20171207123333
162.158.155.24 57 67 307735 20171227090215
172.68.150.8 45 45 62095 20171226044001
172.68.10.20 44 44 540080 20171231175401
172.68.144.119 43 43 599009 20171230041550
141.101.98.80 39 44 235294 20171222112501
172.68.65.70 39 45 1419795 20171201033832
141.101.99.129 36 39 190389 20171213064743
141.101.107.250 32 40 284581 20171226104430
141.101.77.24 22 22 228302 20171231164515
172.68.58.123 22 25 58527 20171224024551
108.162.238.153 0 1 1903 
172.69.70.243 0 1 1903 
172.68.58.129 0 3 2958 
162.158.63.236 1 1 66624 20171227113934
162.158.79.69 2 3 20519 20171227163636
172.68.143.208 2 3 27854 20171205142309
172.69.33.105 0 1 1135 
172.68.143.124 0 1 310490 
162.158.79.237 3 4 27823 20171227163639
162.158.167.244 0 12 67904 
162.158.75.14 0 5 12490 
141.101.107.118 0 5 15131 
162.158.234.110 4 4 46894 20171218085116
172.68.10.254 2 2 2462 20171205220908
162.158.155.6 6 12 45932 20171213054228
172.68.58.165 0 2 20958 
172.68.141.236 0 2 468226 
172.68.11.183 1 1 83588 20171214004630
162.158.79.51 0 3 931470 
162.158.154.173 2 9 42452 20171224142407
162.158.182.188 0 1 3824 
108.162.245.56 0 3 1938 
172.68.189.197 0 5 75654 
141.101.98.218 0 4 16672 
108.162.216.158 0 1 2562 
162.158.78.158 13 13 67276 20171227163636
141.101.107.142 1 4 14213 20171217055746
162.158.167.52 9 9 57998 20171231170146
108.162.210.254 2 2 13651 20171223185631
108.162.237.44 0 1 76953 
141.101.98.62 2 13 42529 20171218093257
162.158.79.111 3 4 24470 20171227163619
162.158.79.57 0 1 234113 
172.69.62.20 6 15 703545 20171227163637
141.101.77.66 0 1 1526 
172.68.141.200 0 1 634 
172.68.25.56 2 2 20742 20171224163202
173.245.52.65 0 1 4323 
162.158.111.23 0 1 847 
108.162.219.134 0 1 195793 
172.68.245.11 0 5 9105 
162.158.106.40 0 7 17934 
188.114.102.176 1 1 12420 20171224200836
162.158.59.146 0 1 170931 
172.68.58.117 0 3 6912 
172.68.162.50 0 1 102742 
172.68.242.38 2 2 8916 20171229074925
108.162.216.86 0 3 51042 
141.101.77.30 0 1 1903 
141.101.99.117 0 5 19243 
108.162.221.93 0 1 538 
108.162.238.231 0 2 7450 
162.158.154.245 2 16 131936 20171214061240
172.68.26.9 2 2 13406 20171208005327
173.245.54.41 1 4 24477 20171206110305
172.68.146.42 1 1 4 20171231170333
162.158.167.130 1 4 31441 20171229142211
108.162.238.183 0 1 9973 
162.158.255.32 1 1 12341 20171213113957
172.69.70.57 0 1 847 
172.68.189.155 0 1 0 
141.101.98.146 2 6 14692 20171203030657
172.68.11.129 1 1 70783 20171223232859
172.68.182.230 0 1 1272 
141.101.99.213 2 2 12346 20171219110210
172.69.70.153 0 1 2304 
172.68.253.75 0 1 7286 
172.68.144.221 4 4 13605 20171231170251
162.158.165.32 3 3 83581 20171227161248
108.162.237.194 0 1 75654 
162.158.78.38 6 6 50887 20171227163633
162.158.166.237 7 7 37691 20171224080518
162.158.255.86 3 3 36496 20171212120051
162.158.186.16 0 2 9428 
108.162.219.8 1 2 15953 20171205104954
162.158.63.248 0 1 177837 
172.68.65.118 7 7 26940 20171224002723
141.101.77.228 2 4 25779 20171230074817
162.158.255.104 0 2 205484 
141.101.107.28 3 27 162730 20171222162954
172.68.46.27 1 1 12152 20171209084539
162.158.165.44 0 3 587379 
108.162.221.129 0 1 1821 
172.68.11.201 2 2 24772 20171231004946
162.158.167.184 11 11 44988 20171230041554
172.69.62.152 0 6 28110 
172.68.246.66 0 2 54654 
172.68.141.116 0 1 2562 
162.158.165.104 11 11 57376 20171229141335
162.158.166.15 2 2 8 20171213053750
172.69.22.48 0 1 234113 
162.158.155.12 2 6 46630 20171227114809
162.158.167.28 2 12 6468 20171226143751
141.101.98.248 13 18 69103 20171211164855
141.101.77.138 0 3 114972 
162.158.78.200 0 1 1903 
172.68.253.111 0 1 4323 
162.158.155.54 3 5 256061 20171213110016
172.68.162.38 20 22 172535 20171231164433
162.158.155.42 0 3 11405 
162.158.182.152 0 1 11108 
172.69.69.62 0 1 177837 
172.69.33.189 0 5 79075 
162.158.166.93 0 2 153906 
162.158.166.189 1 1 4 20171224080451
141.101.99.189 19 29 133671 20171219160916
162.158.78.74 4 4 18875 20171224002722
172.68.162.104 0 3 206690 
172.68.189.251 0 2 75580 
141.101.98.152 3 4 25450 20171215064707
162.158.74.121 7 14 636039 20171231130342
173.245.52.119 1 1 12153 20171205100709
162.158.165.26 9 9 61594 20171231115718
172.68.226.50 1 1 1231 20171224113922
172.69.33.249 1 1 12151 20171202025136
172.68.133.208 2 2 11927 20171208145418
141.101.99.21 0 7 631503 
172.68.65.142 0 4 22416 
172.68.65.58 1 1 8549 20171206110228
172.69.62.74 0 9 31647 
162.158.78.230 0 1 10479 
108.162.245.248 0 4 2536 
172.68.133.16 0 1 33766 
172.69.69.44 0 3 14925 
172.68.144.167 4 4 172531 20171213085826
172.68.242.74 0 2 42113 
172.68.58.21 2 5 59816 20171216044418
162.158.255.158 0 1 3503 
141.101.98.110 1 5 1976 20171218223120
162.158.154.101 0 6 29027 
172.68.144.197 1 4 16816 20171216094512
172.68.102.110 2 2 20630 20171224082619
172.68.142.21 1 1 4 20171206110219
108.162.238.177 0 2 42690 
162.158.165.50 0 3 292026 
162.158.62.121 0 1 3503 
172.68.254.118 1 2 15676 20171206094153
172.68.253.87 0 1 75654 
162.158.78.224 0 1 6626 
162.158.78.152 11 14 79189 20171225103132
162.158.78.92 6 6 49186 20171227163641
172.68.10.110 1 1 70783 20171227162121
188.114.102.248 1 3 17962 20171209211139
162.158.155.96 4 6 26469 20171223033721
172.68.144.47 2 12 31066 20171213053757
162.158.179.206 0 1 1903 
162.158.179.68 0 1 5438 
172.68.142.165 0 1 1341 
172.68.6.62 2 2 13599 20171221205835
108.162.249.122 0 1 3127 
172.68.242.110 0 1 3824 
108.162.249.206 0 1 7286 
162.158.238.103 1 1 12342 20171220212014
108.162.219.218 0 1 234113 
172.68.65.82 7 7 37421 20171220170703
172.68.47.172 0 4 135064 
108.162.237.164 0 1 1143 
162.158.165.176 2 2 13406 20171206103640
172.68.58.69 0 3 230859 
172.68.244.70 2 2 24325 20171211020334
141.101.104.249 0 1 76953 
108.162.216.56 0 5 32780 
172.68.144.173 1 2 11941 20171222045001
172.68.143.154 0 3 81981 
162.158.167.166 1 1 4 20171213053646
162.158.167.208 7 7 37701 20171231170224
172.68.25.86 2 2 13405 20171209131004
162.158.178.8 0 1 195793 
162.158.179.152 0 2 11499 
108.162.219.14 1 1 12151 20171205162426
108.162.238.45 0 3 206616 
108.162.238.135 0 1 170931 
108.162.245.116 1 1 12366 20171213110212
172.68.46.165 0 4 9216 
162.158.167.100 3 3 12 20171224081650
108.162.245.134 0 1 3503 
162.158.165.194 2 2 13574 20171214132748
172.68.144.5 3 3 12182 20171231170209
172.68.58.27 0 1 27327 
162.158.166.75 6 6 47309 20171217042418
141.101.99.165 3 9 44613 20171208171231
162.158.59.224 0 2 6254 
108.162.216.32 0 1 3800 
162.158.154.227 0 1 1580 
162.158.103.9 1 1 12150 20171207120822
141.101.107.136 0 1 760 
172.68.58.15 0 2 9800 
162.158.155.72 2 6 40728 20171206064529
162.158.78.188 1 1 4 20171220163520
172.68.242.26 0 1 11108 
172.68.143.196 1 1 11923 20171207203252
172.68.143.58 0 1 33766 
141.101.107.88 0 76 95355 
172.68.253.57 0 1 170931 
141.101.98.104 5 14 73457 20171222052830
162.158.78.218 3 3 30835 20171227163635
172.69.70.99 0 1 4014 
172.68.10.62 2 2 13650 20171226094610
108.162.216.200 1 5 23315 20171207003929
172.68.142.129 0 1 6588 
108.162.219.80 11 11 126107 20171227065956
172.68.133.88 0 1 3824 
172.68.144.89 1 3 10880 20171224080352
162.158.166.153 0 3 30855 
172.68.11.75 0 1 7286 
141.101.104.243 0 1 13357 
162.158.166.195 2 2 8 20171231170335
172.68.142.81 0 1 195793 
172.69.70.9 0 2 237616 
162.158.102.140 1 1 12420 20171222203737
141.101.104.147 8 8 82520 20171227160519
162.158.78.128 0 2 341862 
141.101.98.26 0 1 760 
172.68.10.68 2 2 9369 20171226163525
141.101.98.116 2 16 45759 20171206080402
162.158.111.35 1 1 12151 20171201204637
172.69.22.24 0 2 104645 
172.68.189.215 0 3 12042 
172.68.58.135 1 1 4 20171230190739
162.158.78.32 1 1 8439 20171206110237
173.245.54.29 1 1 9717 20171225102057
172.68.65.64 3 3 26618 20171227163645
141.101.98.254 0 15 333507 
162.158.154.179 5 9 47840 20171231105827
162.158.75.236 0 3 226962 
108.162.249.248 0 1 37790 
108.162.246.225 0 6 322671 
173.245.52.131 0 1 1526 
162.158.75.50 0 3 7240 
172.68.245.185 1 1 10400 20171223232853
172.68.10.182 1 1 12405 20171229000635
172.68.132.105 2 2 2819 20171217231106
172.68.146.18 0 2 355674 
162.158.155.84 0 2 5045 
162.158.154.41 10 14 76352 20171208163741
141.101.107.4 0 7 16399 
162.158.62.49 0 8 647 
141.101.107.58 2 3 16882 20171213062952
172.68.58.87 0 2 212062 
162.158.178.85 0 1 310490 
198.41.231.33 2 2 13406 20171208002436
172.68.65.238 4 4 34695 20171227163625
172.68.132.171 0 1 11341 
162.158.154.149 2 7 30293 20171217122917
141.101.99.183 0 6 26812 
172.68.46.9 2 2 22747 20171207222049
162.158.166.249 1 2 106035 20171229142255
172.68.143.130 1 1 12152 20171208095655
162.158.167.88 1 1 33940 20171211080325
172.68.230.20 1 1 10401 20171222094838
172.69.22.36 0 1 4323 
172.68.174.38 0 1 102742 
141.101.99.201 2 3 19409 20171213091729
172.68.253.165 0 1 4900 
162.158.106.16 0 9 1047771 
198.41.242.37 21 21 33348 20171210003223
162.158.165.200 1 1 4 20171213053606
141.101.99.39 0 5 16208 
141.101.99.219 0 1 125185 
141.101.98.8 4 5 21982 20171211020117
172.68.144.209 3 3 12 20171229142307
108.162.238.75 0 1 5438 
172.68.182.98 1 1 12343 20171221063810
162.158.102.206 2 2 20452 20171217223436
162.158.154.125 0 2 5297 
141.101.77.198 1 1 12174 20171209085511
141.101.99.75 10 15 50112 20171214114153
188.114.102.50 2 2 141566 20171224200843
141.101.99.87 1 1 12404 20171230071620
162.158.79.153 0 1 13357 
172.68.242.14 0 2 78781 
172.68.162.74 0 1 310490 
172.69.33.153 1 1 12150 20171207113159
162.158.102.218 1 1 12152 20171205215223
162.158.78.236 3 3 25345 20171227163609
162.158.166.123 2 2 8 20171226143951
162.158.167.16 1 2 6630 20171216094339
162.158.154.53 3 9 72874 20171219091908
172.68.65.130 2 2 8801 20171206110300
162.158.178.121 0 2 239717 
141.101.99.171 0 4 10038 
108.162.221.201 0 1 4900 
188.114.102.194 0 2 75580 
108.162.237.128 0 2 7574 
172.68.189.191 1 3 122219 20171211034759
162.158.154.17 1 6 7329 20171224174544
172.68.142.249 0 1 3800 
172.68.141.134 0 2 17734 
162.158.75.92 0 3 931470 
172.68.133.58 0 1 5438 
141.101.99.147 0 6 21221 
162.158.79.75 11 13 886938 20171227163557
162.158.178.235 1 1 66624 20171224063149
162.158.90.124 1 1 12151 20171202010100
173.245.54.23 0 6 10926 
162.158.75.122 1 2 13180 20171229123718
162.158.167.202 0 10 158150 
172.69.54.109 0 1 1272 
162.158.111.5 1 1 9310 20171213120715
188.114.102.218 2 2 13661 20171230123321
141.101.98.56 8 10 87466 20171219093935
172.69.54.103 0 1 10479 
162.158.79.21 3 4 31640 20171227163637
172.68.51.164 2 2 13637 20171227211142
162.158.79.33 6 8 257312 20171227163622
141.101.98.200 1 3 19399 20171213112202
172.69.22.108 1 1 0 20171213110211
162.158.182.230 1 1 70783 20171221063813
173.245.54.11 1 1 8453 20171206110220
108.162.238.81 0 1 634 
172.68.144.215 1 1 4 20171216094330
188.114.102.134 0 1 27327 
141.101.98.98 0 3 28220 
141.101.98.158 1 9 46541 20171213025502
172.68.11.207 0 1 75654 
172.68.133.172 0 2 67532 
162.158.155.78 0 10 23202 
162.158.166.183 1 1 4 20171213190242
172.68.141.68 0 1 3127 
172.69.22.90 0 4 10907 
172.68.133.238 1 1 0 20171213110211
172.68.178.98 1 1 1338 20171230052121
108.162.221.99 0 1 5604 
172.69.54.121 1 2 78069 20171213120719
162.158.111.83 1 1 12152 20171205210902
172.68.144.83 1 1 4 20171213053537
172.68.244.88 0 5 12810 
173.245.48.151 0 4 38632 
162.158.165.80 0 11 124751 
141.101.77.144 2 2 13382 20171206203009
188.114.102.110 0 2 2544 
172.68.178.80 1 1 1338 20171231002532
162.158.255.98 2 5 1618 20171227163611
141.101.98.194 0 1 7328 
172.69.23.37 1 1 4 20171227163616
162.158.78.206 0 2 5849 
172.68.189.11 0 1 1143 
162.158.167.136 11 11 732864 20171224045040
141.101.107.130 0 13 56686 
141.101.107.100 0 6 13005 
162.158.166.213 4 4 24694 20171219091823
172.68.141.188 0 2 0 
162.158.78.140 0 8 31668 
172.68.58.57 0 3 469752 
141.101.96.37 1 1 225 20171226235628
162.158.154.155 0 1 508 
141.101.98.20 0 1 4537 
172.68.253.213 0 1 106031 
172.68.144.143 2 2 8 20171231170248
162.158.166.9 8 26 405902 20171229142305
162.158.74.73 0 2 355674 
162.158.166.57 2 2 13599 20171218153906
172.68.132.69 7 7 86583 20171230054705
141.101.98.236 0 4 19973 
162.158.79.129 3 4 101580 20171227163627
108.162.215.158 1 1 12176 20171201215938
162.158.155.102 1 4 28769 20171217171629
172.68.144.35 0 1 1526 
172.68.245.17 0 2 20570 
141.101.98.122 2 6 25531 20171226174916
172.68.65.106 1 2 15470 20171216114855
172.68.162.20 0 6 29972 
173.245.48.181 0 6 3228 
172.68.174.98 1 2 172655 20171205071504
172.68.65.4 0 1 3529 
162.158.154.167 0 7 42329 
162.158.79.123 3 3 28611 20171225100041
141.101.76.206 0 1 3503 
141.101.77.102 1 1 12152 20171205210823
162.158.155.114 0 8 480634 
162.158.167.58 0 1 310490 
162.158.78.56 0 3 4578 
141.101.105.94 1 1 12151 20171205154145
162.158.166.45 5 5 21528 20171229141342
141.101.98.212 19 22 108930 20171216044827
172.68.162.92 0 6 232827 
172.68.110.62 0 1 37790 
162.158.166.51 14 34 485685 20171223092212
173.245.48.169 0 4 5364 
141.101.105.172 0 1 4900 
172.68.11.33 1 1 12152 20171205210845
172.68.132.123 0 1 1143 
162.158.106.58 0 2 20958 
162.158.154.161 20 24 110955 20171206064308
108.162.246.75 0 10 39553 
141.101.105.4 0 1 177837 
172.68.133.106 0 3 14700 
108.162.246.87 0 2 7058 
172.68.58.51 1 1 12152 20171201170447
162.158.126.32 1 1 66624 20171216045612
141.101.98.224 0 2 10214 
172.69.62.68 3 3 25338 20171227163606
172.68.133.226 0 2 3052 
162.158.255.92 0 1 170931 
141.101.104.237 3 3 13656 20171230222010
141.101.105.232 0 1 3529 
173.245.54.35 1 1 7930 20171206110222
162.158.166.225 1 1 4 20171216094409
172.68.142.111 16 16 9648 20171224124631
108.162.237.104 0 1 3529 
162.158.62.133 1 1 12151 20171205162503
162.158.166.111 0 1 7286 
162.158.154.59 0 1 7328 
172.68.245.77 0 1 1526 
172.68.143.34 0 1 5604 
108.162.238.63 0 1 33766 
172.69.62.32 0 6 4506 
141.101.99.159 0 4 18976 
172.68.11.21 0 2 19946 
162.158.154.137 0 10 151841 
162.158.78.134 13 13 66616 20171227163558
162.158.62.127 0 1 1903 
162.158.78.62 1 1 8184 20171206110303
162.158.154.95 0 5 48965 
162.158.165.158 1 16 187024 20171214104430
141.101.105.52 1 1 12430 20171231132355
162.158.111.101 0 2 7648 
141.101.104.57 0 1 3932 
162.158.79.141 1 1 12395 20171224002705
162.158.165.212 1 1 4 20171213053634
172.68.144.161 1 1 4 20171213190232
162.158.154.203 5 6 27675 20171216045615
172.68.142.123 0 1 1143 
172.68.11.105 1 1 12174 20171207010013
172.68.154.20 2 2 13661 20171228130854
108.162.237.140 0 1 1526 
141.101.98.92 2 8 88689 20171204093702
141.101.107.82 0 4 9784 
172.69.23.67 0 3 30424 
108.162.238.99 0 1 10479 
162.158.234.92 4 4 40811 20171213165612
162.158.78.104 0 1 310490 
162.158.165.56 1 1 4 20171229142321
141.101.76.110 1 1 12175 20171205210759
104.37.189.66 0 18 1334 
172.68.146.54 1 1 4 20171219110309
173.245.48.241 0 1 102742 
172.68.254.136 0 1 3824 
172.68.245.101 1 1 12151 20171205050518
108.162.216.50 2 2 20452 20171215194735
172.68.245.71 0 8 88864 
108.162.245.110 0 5 293998 
172.68.189.77 0 2 22216 
173.245.48.109 0 1 310490 
162.158.154.89 0 3 10398 
141.101.107.64 4 5 33590 20171221163909
162.158.255.176 2 2 24325 20171209204713
162.158.186.70 0 1 3503 
172.68.162.62 0 6 61996 
141.101.105.160 0 1 170931 
162.158.165.134 4 4 250768 20171229141155
162.158.178.169 4 4 20922 20171224063337
162.158.178.181 0 1 6626 
162.158.155.60 18 21 107281 20171223052728
162.158.166.129 1 1 4 20171231170149
162.158.154.5 8 10 45934 20171218053928
172.68.244.238 4 4 37746 20171216003518
108.162.238.93 0 1 3932 
172.68.144.95 1 3 7010 20171231170238
172.68.143.88 0 1 4323 
162.158.255.50 0 1 170931 
172.68.133.112 0 2 1076 
172.68.174.26 0 1 6588 
172.68.65.28 7 10 62686 20171227163643
162.158.58.253 0 6 19967 
172.68.133.130 0 1 177837 
162.158.63.134 0 1 3932 
141.101.107.214 2 4 3033 20171215130943
141.101.107.154 0 1 760 
141.101.99.249 0 2 1268 
172.69.23.103 0 1 3932 
162.158.79.105 9 12 648297 20171227163612
162.158.59.254 0 1 765627 
162.158.182.44 0 1 9973 
172.68.58.105 0 1 4014 
173.245.52.125 0 1 310490 
188.114.103.51 0 1 10285 
162.158.62.157 2 3 15935 20171227113935
141.101.99.111 17 21 116154 20171219104141
198.41.230.50 1 1 12343 20171221173209
172.68.141.212 0 2 3806 
108.162.210.242 1 1 12367 20171215130237
162.158.78.116 3 3 18643 20171224002724
141.101.105.142 1 1 12420 20171227012046
162.158.59.116 0 5 2445 
162.158.75.26 0 4 10248 
162.158.165.170 3 3 13385 20171228100616
162.158.154.185 0 10 29224 
172.68.150.56 13 13 44399 20171227085150
172.68.242.98 1 2 73910 20171229074909
172.68.133.22 0 1 10479 
172.68.142.159 0 3 931470 
141.101.98.182 0 5 11354 
162.158.62.13 0 2 17105 
162.158.62.229 1 1 12341 20171213114121
108.162.250.57 1 1 66624 20171206012741
108.162.245.206 0 6 26928 
162.158.78.254 0 4 29144 
108.162.219.110 1 1 12151 20171205162423
162.158.166.33 1 3 6258 20171216094434
162.158.111.65 2 2 13650 20171223010651
172.69.69.14 0 1 3127 
172.68.154.62 2 2 13406 20171207145445
172.68.141.128 0 1 10479 
162.158.165.242 2 2 9974 20171220034020
162.158.74.91 0 1 4323 
162.158.79.171 1 2 9647 20171225100158
162.158.167.214 2 2 12372 20171219085450
172.68.162.98 0 4 392707 
162.158.74.145 1 3 1698 20171230190742
172.69.33.27 2 2 20386 20171217023322
162.158.166.21 0 6 13824 
162.158.166.99 9 9 52958 20171213122834
162.158.79.147 0 3 11796 
108.162.221.171 0 1 6626 
172.68.162.56 0 1 106031 
141.101.99.153 0 5 13797 
141.101.107.178 0 2 15000 
172.68.186.8 2 2 13659 20171228191931
108.162.246.219 0 1 5604 
162.158.255.248 0 1 986 
162.158.106.34 0 3 113370 
141.101.99.195 6 9 75516 20171218101829
172.69.22.6 0 1 986 
172.68.46.63 1 1 10670 20171207094007
172.68.110.20 1 1 12403 20171228195535
172.68.174.74 0 1 4323 
172.68.143.70 1 1 511 20171217040217
141.101.99.63 0 2 1268 
172.68.174.92 1 2 10483 20171205071504
172.68.143.10 2 2 12370 20171213110222
108.162.221.183 0 2 171565 
172.68.244.178 0 3 5463 
141.101.107.220 5 16 499838 20171230064040
108.162.238.165 0 1 177837 
108.162.216.110 0 2 7864 
141.101.99.45 0 6 20975 
141.101.107.124 0 4 11950 
172.68.253.225 0 2 188945 
172.68.144.65 2 2 12347 20171213123312
162.158.165.128 0 9 8874 
172.68.189.107 2 2 9980 20171205103927
162.158.111.107 2 3 30146 20171230001811
162.158.63.116 0 1 5438 
172.69.22.240 0 6 27450 
172.68.255.6 2 2 13661 20171228110910
172.68.245.227 0 1 3127 
172.68.25.20 2 2 13660 20171229110943
172.68.143.118 0 2 13176 
173.245.54.47 2 4 28456 20171206110254
162.158.102.26 1 1 12176 20171205100625
141.101.105.130 0 2 237240 
108.162.216.236 0 2 7058 
172.68.254.58 0 1 1821 
141.101.107.22 0 11 47528 
108.162.249.218 0 2 79977 
108.162.246.111 0 4 302616 
172.68.174.14 0 2 78781 
141.101.107.244 4 10 47429 20171211161402
172.68.132.207 1 1 4 20171213110219
141.101.107.190 0 9 104852 
162.158.255.134 4 7 156338 20171228083914
172.68.132.153 1 1 12175 20171208060831
141.101.107.160 0 1 508 
141.101.107.70 0 8 407777 
172.68.143.160 0 7 9406 
172.68.242.44 0 1 2562 
172.68.146.48 1 1 4 20171226143917
108.162.216.122 0 3 4578 
172.69.70.75 0 1 106031 
172.68.65.52 0 5 240647 
141.101.98.86 0 3 195444 
162.158.166.201 1 1 4 20171204184552
108.162.249.80 0 1 1526 
162.158.79.99 0 1 27327 
162.158.102.74 1 1 12394 20171223060939
141.101.105.244 0 1 75654 
108.162.249.56 0 1 11108 
141.101.77.132 0 1 10285 
162.158.255.68 3 3 250764 20171227163615
172.68.142.219 1 1 12175 20171207194315
108.162.216.116 0 3 375628 
172.68.246.192 1 1 12430 20171227162117
141.101.107.76 8 10 46075 20171205081433
162.158.59.158 0 4 2536 
172.68.58.171 1 1 83588 20171216044417
162.158.154.119 16 22 144089 20171221115932
172.69.54.79 0 2 5124 
162.158.92.188 1 1 12153 20171205002124
172.68.142.93 0 1 751 
188.114.102.8 0 2 19946 
172.68.189.203 0 1 489 
162.158.167.178 0 3 17837 
108.162.246.99 1 1 0 20171206110203
108.162.216.224 0 1 10285 
172.69.33.237 8 8 42605 20171209124728
172.68.143.4 0 1 5438 
172.68.144.113 4 19 24511 20171204044738
172.68.143.94 0 3 2541 
172.69.54.85 0 1 3800 
162.158.255.8 0 3 6912 
172.69.62.176 3 9 40844 20171227163618
141.101.99.243 2 2 12409 20171227115119
172.68.174.62 0 1 177837 
172.68.46.45 0 4 4572 
108.162.215.62 0 3 12969 
172.68.65.226 0 6 1174758 
141.101.107.184 0 5 14145 
172.69.62.50 3 6 68575 20171227163552
162.158.154.47 0 12 27541 
172.68.144.77 1 2 102746 20171211033129
162.158.63.224 0 1 76953 
188.114.102.164 0 2 1502 
172.68.245.47 1 1 12429 20171227210217
172.69.22.138 0 2 5124 
162.158.155.36 3 6 37417 20171223053434
172.69.62.26 3 3 24580 20171227163630
162.158.167.232 1 1 12343 20171216045611
108.162.246.195 0 2 67532 
162.158.79.183 2 2 20695 20171225095331
141.101.107.52 13 19 91063 20171218063015
141.101.98.242 0 6 19682 
162.158.78.8 1 1 8204 20171206110220
162.158.167.250 0 42 236762 
172.68.254.239 0 1 76953 
141.101.107.172 6 9 39262 20171226161317
108.162.238.9 0 1 847 
172.68.133.94 0 1 5604 
162.158.106.10 0 4 12508 
172.69.62.14 6 9 87343 20171227163634
172.68.65.250 0 6 25209 
162.158.78.182 1 5 786095 20171206110300
173.245.54.17 2 2 17636 20171227163651
172.68.189.209 0 2 8028 
172.68.254.148 0 1 3127 
172.68.132.81 1 1 70783 20171213085826
172.68.144.149 3 8 67625 20171231170230
108.162.245.242 0 3 3429 
162.158.74.139 0 1 3127 
108.162.249.236 0 1 2562 
162.158.74.37 5 5 48547 20171230190748
141.101.107.106 0 10 22039 
162.158.90.28 1 1 12151 20171205162537
172.69.22.42 1 1 12173 20171212151216
162.158.166.177 1 24 95802 20171216094443
141.101.99.51 8 10 52988 20171217062312
141.101.98.128 0 10 32492 
108.162.216.242 0 1 6588 
141.101.99.93 0 2 12929 
172.69.22.156 1 2 34787 20171211080535
173.245.52.143 0 1 847 
172.68.174.50 1 2 13826 20171205071452
162.158.58.91 1 1 12420 20171223064546
172.68.65.232 0 2 391586 
188.114.102.44 0 2 22216 
108.162.238.147 0 2 109831 
162.158.59.128 0 8 48376 
108.162.249.14 0 1 1821 
172.69.62.110 0 4 151160 
172.68.146.24 1 1 4 20171222132140
141.101.76.98 2 2 13407 20171204204756
172.68.143.172 0 1 2304 
108.162.219.26 0 1 102742 
108.162.238.51 0 1 310490 
188.114.102.152 0 2 7648 
141.101.98.164 0 4 10342 
162.158.154.239 0 7 27087 
162.158.78.20 2 7 70832 20171206110255
172.68.142.69 0 1 9658 
172.69.54.19 0 1 5438 
172.69.62.98 3 6 35606 20171227163643
172.68.162.68 2 4 169738 20171227161246
141.101.77.72 2 4 21889 20171221180405
172.69.62.134 5 5 17233 20171224002723
108.162.238.159 0 1 1821 
141.101.98.50 0 8 438292 
173.245.52.89 0 1 4900 
162.158.63.242 10 10 88830 20171212031334
108.162.246.243 2 2 12156 20171206110218
162.158.186.64 1 2 69186 20171227210108
172.68.47.82 0 2 22216 
108.162.210.218 1 1 10670 20171228154010
172.68.58.111 0 3 12042 
162.158.154.83 0 5 5014 
162.158.58.103 0 2 75654 
162.158.186.34 0 1 6626 
172.68.46.57 2 2 24154 20171215075154
141.101.98.176 3 6 22471 20171227110917
162.158.165.38 2 2 8 20171230055436
162.158.154.35 0 5 17922 
172.68.189.113 0 2 5350 
162.158.154.23 0 5 15131 
172.68.253.153 0 1 2562 
172.68.162.80 0 3 1502 
162.158.102.92 1 1 12152 20171205210843
172.68.65.184 1 2 6630 20171220163605
162.158.155.90 2 8 43689 20171214060457
162.158.79.165 0 1 3800 
172.68.10.248 0 5 19120 
162.158.106.70 0 4 45364 
162.158.79.9 0 5 136635 
162.158.165.188 3 17 74153 20171229142250
162.158.154.77 2 10 63874 20171206123747
162.158.138.20 2 2 13405 20171206055520
108.162.246.165 1 1 4 20171220163519
162.158.178.223 0 1 751 
172.68.253.123 0 1 10479 
172.68.174.56 0 4 275105 
172.68.144.101 2 2 24327 20171204193839
141.101.105.34 0 2 22216 
172.68.174.68 0 4 5215 
162.158.79.93 0 3 14700 
172.68.65.160 2 2 20598 20171206110228
162.158.75.8 0 1 3824 
162.158.186.40 0 1 234113 
162.158.78.110 0 1 3932 
108.162.246.57 6 10 1284700 20171227163558
141.101.99.33 2 12 104446 20171208094855
172.68.133.124 2 2 24317 20171222130100
172.68.189.167 2 3 118440 20171227163610
172.69.22.114 0 1 76953 
172.68.150.80 16 16 64972 20171220154902
172.68.58.33 1 1 8523 20171224081700
108.162.245.188 2 2 12371 20171220163519
141.101.77.162 0 2 19946 
172.68.46.135 0 5 12810 
162.158.165.74 1 1 4 20171216094454
172.69.22.228 0 1 2304 
108.162.246.63 0 6 8655 
162.158.165.146 1 1 4 20171213054649
108.162.246.93 0 11 81695 
162.158.38.32 10 10 92093 20171230054958
108.162.237.188 0 1 9658 
162.158.78.146 3 3 36279 20171227163612
172.68.246.156 1 1 12404 20171228034236
162.158.106.64 0 9 99972 
141.101.98.170 0 7 29688 
172.68.162.14 0 1 5604 
172.69.22.54 0 3 5463 
108.162.246.51 0 4 39892 
172.69.23.7 0 1 847 
162.158.154.233 0 4 19701 
108.162.246.189 0 8 2178412 
141.101.99.57 1 8 799838 20171211131519
141.101.99.99 1 3 13597 20171215120709
162.158.74.61 0 1 538 
172.68.144.245 3 3 12 20171216094423
162.158.75.80 0 6 29093 
172.68.174.8 0 2 4861 
172.68.150.68 1 1 21 20171231230757
141.101.107.40 0 2 1520 
141.101.104.213 0 2 416521 
172.68.110.38 0 1 4323 
162.158.111.185 0 2 8646 
162.158.154.131 2 4 153431 20171229075103
108.162.245.98 1 1 0 20171220163505
162.158.154.71 10 16 59397 20171213150354
172.68.144.239 3 13 19858 20171217163952
162.158.79.159 4 7 386692 20171227163648
162.158.75.182 0 1 3503 
108.162.219.140 1 1 33916 20171208094709
172.69.22.162 0 1 3932 
172.68.253.129 0 1 3932 
188.114.102.224 0 5 16052 
141.101.98.140 2 14 102766 20171218165908
162.158.155.48 2 8 31053 20171215093052
162.158.154.197 2 7 30357 20171229143934
172.69.54.61 2 2 12371 20171220060213
141.101.98.68 0 11 32749 
172.68.65.172 0 3 12767 
172.68.211.116 0 2 212062 
172.68.146.12 1 1 4 20171229142315
162.158.78.86 0 1 3932 
162.158.75.104 0 5 21615 
141.101.76.254 1 1 12151 20171206031549
172.68.189.137 0 1 11108 
108.162.237.50 0 1 27327 
108.162.215.140 0 2 153906 
162.158.167.34 1 1 4 20171213053655
141.101.104.117 1 1 12420 20171222092517
162.158.74.85 0 4 135064 
173.245.54.5 1 2 10492 20171225095903
162.158.79.177 1 1 8193 20171206110229
162.158.102.230 1 1 12175 20171203020347
162.158.178.115 0 1 847 
162.158.165.68 0 9 34416 
108.162.249.140 2 2 9321 20171206012743
108.162.237.20 0 1 102742 
162.158.155.108 0 5 18471 
162.158.75.44 0 1 1821 
172.68.58.81 0 3 11842 
172.68.10.26 1 1 12366 20171214004623
141.101.107.112 0 6 14905 
172.68.144.17 2 5 532907 20171222132146
172.68.144.53 3 3 20125 20171228095415
172.68.242.68 0 2 2277 
162.158.167.142 4 4 12151 20171230190927
162.158.167.82 1 2 1907 20171210064638
172.68.146.6 2 2 8 20171231170219
162.158.179.32 0 1 37790 
162.158.165.236 10 13 773725 20171224113807
172.68.132.9 0 6 22944 
141.101.99.141 20 27 1224017 20171230064006
172.68.211.62 0 1 3529 
162.158.154.251 11 36 172627 20171230064116
172.68.141.158 0 1 15815 
172.69.62.86 0 6 319626 
162.158.62.43 1 1 0 20171217223348
173.245.48.211 0 1 3503 
172.68.186.50 2 2 13662 20171228203048
172.68.141.122 0 2 194684 
108.162.238.111 0 1 751 
172.68.141.8 1 2 177837 20171206110208
162.158.154.107 0 9 32041 
172.68.174.80 0 1 3529 
172.69.70.111 0 1 489 
172.68.162.44 0 5 178076 
108.162.245.224 2 2 12156 20171206110216
108.162.245.212 0 2 1694 
162.158.155.18 22 31 137827 20171222135811
172.68.65.244 10 10 91729 20171227163639
172.69.23.19 1 1 12175 20171206131947
172.69.70.177 0 1 11108 
172.68.10.242 0 2 2544 
172.69.62.8 3 3 37131 20171222160008
108.162.249.8 0 2 13797 
141.101.99.81 0 18 425362 
172.68.162.32 0 1 3800 
162.158.79.207 0 7 40866 
172.68.189.23 0 1 75654 
141.101.99.237 5 8 26939 20171231152624
172.68.141.182 0 1 646 
172.69.33.81 0 5 9105 
162.158.165.140 19 19 100106 20171226143932
172.68.182.68 0 1 2562 
172.69.62.122 0 6 66648 
172.69.62.56 1 1 4 20171213110256
172.68.144.59 2 2 15964 20171229142253
172.68.58.99 0 5 30565 
162.158.78.248 0 3 19878 
141.101.107.232 2 5 22013 20171208085610
162.158.58.211 0 4 26352 
162.158.79.219 0 6 302613 
162.158.58.181 0 5 56705 
162.158.167.46 2 12 4898 20171224080520
141.101.107.238 0 13 29367 
172.68.246.222 1 1 12342 20171215004758
141.101.98.38 0 3 9834 
173.245.48.193 1 1 12152 20171207171955
162.158.62.205 0 1 75654 
162.158.90.232 17 17 26996 20171205135118
162.158.154.191 0 1 4537 
141.101.105.10 2 2 1208 20171226163611
108.162.246.39 0 3 37068 
108.162.221.153 0 1 5438 
108.162.245.86 2 9 25156 20171227163556
108.162.238.243 0 1 11108 
162.158.182.140 0 2 2572 
172.68.174.20 0 2 16304 
108.162.219.194 0 1 5604 
108.162.245.182 1 5 410968 20171220163505
172.68.253.63 0 2 106271 
108.162.249.170 0 1 751 
172.68.144.233 1 1 8240 20171226143914
172.68.143.142 0 2 7648 
172.68.244.226 0 12 34016 
172.68.25.248 1 1 10200 20171213124125
172.68.141.26 0 2 31630 
172.68.110.92 0 1 10285 
141.101.107.226 0 1 8526 
162.158.154.113 0 8 484742 
108.162.219.236 0 1 106031 
141.101.99.27 0 2 8088 
172.69.54.139 1 1 12175 20171207125435
141.101.107.202 0 6 368840 
162.158.79.87 1 2 19858 20171225100538
172.68.133.34 1 1 12365 20171215151651
162.158.255.116 0 1 11108 
141.101.99.69 0 7 15267 
172.68.65.178 1 1 4 20171213110223
172.68.246.150 0 2 75580 
162.158.59.8 0 4 16056 
162.158.167.190 2 2 8 20171213231932
162.158.75.218 0 4 7284 
162.158.166.81 1 1 4 20171213190220
172.68.26.57 2 2 13573 20171220212816
141.101.98.32 6 24 99939 20171218122104
172.68.142.177 2 3 254519 20171227163547
141.101.98.206 0 6 422833 
141.101.107.166 8 9 46207 20171229075355
162.158.166.141 2 3 855 20171231170235
172.68.10.212 1 1 12342 20171217004939
162.158.58.157 1 2 18801 20171207165855
108.162.246.33 0 2 13252 
162.158.102.20 2 2 24097 20171201115205
173.245.52.101 0 1 170931 
172.68.162.110 0 2 82391 
172.68.144.185 1 4 44508 20171221133830
162.158.63.254 0 1 3127 
141.101.99.123 4 18 74912 20171227141254
162.158.74.13 0 3 308226 
172.68.65.22 0 7 1128328 
172.68.144.125 20 20 168515 20171231170331
162.158.154.29 0 6 528209 
172.68.46.243 0 5 3755 
172.68.144.23 0 6 226740 
172.68.142.63 0 2 1972 
108.162.238.171 0 1 4014 
172.68.239.201 1 1 12366 20171221040246
108.162.216.38 0 1 75654 
162.158.78.122 3 13 504687 20171225104620
172.69.23.91 0 3 10268 
141.101.107.208 0 6 21218 
162.158.59.80 0 1 3800 
141.101.107.34 0 16 68936 
141.101.98.44 0 8 30592 
141.101.99.15 6 16 40405 20171209142546
162.158.154.143 4 8 27017 20171201160027
162.158.111.59 1 1 12151 20171206031629
162.158.78.14 3 3 24660 20171227163616
172.69.22.144 1 1 12152 20171209085015
108.162.216.230 0 4 3004 
172.68.65.196 6 7 68150 20171227163634
172.69.23.43 0 1 9658 
172.69.33.69 0 4 2584 
162.158.255.242 0 2 20570 
162.158.165.110 1 1 4 20171231170241
172.68.142.87 0 2 8646 
172.68.242.56 0 1 1821 
172.69.54.115 0 2 75580 
172.68.174.44 0 2 314290 
162.158.106.4 0 7 26696 
172.68.142.225 0 1 538 
162.158.79.27 0 1 3824 
172.68.189.221 0 2 4289 
172.68.65.40 6 7 95525 20171213110021
108.162.210.176 1 1 10494 20171207235028
172.68.146.36 3 3 12404 20171226121346
141.101.77.96 1 1 66624 20171220060212
162.158.62.223 0 6 481 
172.68.211.212 2 2 20437 20171221090629
141.101.104.51 0 2 3642 
162.158.167.220 1 1 4 20171226144010
172.68.142.237 0 1 751 
162.158.178.67 0 1 3800 
172.68.132.87 1 1 12151 20171209204655
172.68.162.26 0 3 5658 
172.68.242.20 0 1 9973 
172.68.253.105 0 1 27327 
172.69.69.212 0 1 1143 
108.162.246.27 0 4 307812 
172.68.144.191 0 13 23673 
141.101.76.122 1 1 12151 20171206023234
172.68.58.177 0 4 45364 
172.69.62.62 0 3 11400 
141.101.77.252 0 1 195793 
141.101.107.46 0 4 16910 
162.158.183.93 0 1 27327 
108.162.237.146 0 1 97342 
172.68.65.220 1 1 6360 20171206110247
162.158.165.230 5 5 47986 20171231170249
108.162.238.237 4 4 20694 20171227210226
172.68.144.179 4 4 22551 20171215053834
162.158.154.65 15 22 113018 20171221091040
END_VISITOR

# Date - Pages - Hits - Bandwidth - Visits
BEGIN_DAY 31
20171201 1147 1217 1261760 24
20171202 87 87 80383 18
20171203 28 55 246086 20
20171204 49 90 526865 22
20171205 82 131 2226102 44
20171206 101 240 5531972 66
20171207 120 157 1951729 37
20171208 71 132 2873218 35
20171209 116 178 957763 28
20171210 28 46 645859 18
20171211 54 90 2017347 25
20171212 72 80 466903 21
20171213 1047 1754 18991802 109
20171214 108 135 792180 38
20171215 91 181 2486706 31
20171216 173 235 2655300 36
20171217 79 94 391622 34
20171218 82 95 569066 36
20171219 93 120 748621 30
20171220 2136 2275 7931184 60
20171221 60 109 2121997 23
20171222 454 638 4568469 36
20171223 173 229 1982439 29
20171224 158 287 4606657 53
20171225 85 102 1082287 33
20171226 282 312 800769 38
20171227 218 450 11993970 78
20171228 54 64 471150 28
20171229 94 131 1092814 44
20171230 81 153 2293507 30
20171231 97 138 2206412 41
END_DAY

# Session range - Number of visits
BEGIN_SESSION 7
30mn-1h 88
1h+ 69
5mn-15mn 25
0s-30s 876
15mn-30mn 31
30s-2mn 50
2mn-5mn 26
END_SESSION

# URL - Pages - Bandwidth - Entry - Exit
# The 25 first Pages must be first (order not required for others)
BEGIN_SIDER 59
/xmlrpc.php 3567 1036859 19 31
/wp-json/pum/v1/analytics/open 842 3368 106 266
/ 757 9263772 315 215
/wp-cron.php 635 0 323 323
/wp-admin/admin-ajax.php 411 152466 10 5
/wp-login.php 232 324734 91 57
/contact-us/ 155 1669364 58 44
/courses/ 70 618643 12 14
/staff-augmentation/ 66 561371 11 11
/selenium-training-in-pune/ 65 593998 17 12
/about-us/ 56 497991 16 13
/wp-admin/post.php 53 2539768 0 0
/bigdata-hadoop-training-in-pune/ 50 478997 13 12
/tosca-training-in-pune/ 43 350828 18 12
/wp-content/themes/innovation-lite/fonts/fontawesome-webfont.woff2 41 2531712 34 34
/why-anvinfosystem/ 34 303624 4 4
/angular-js-training-in-pune/ 34 296477 9 7
/services/ 31 258899 5 6
/wp-content/themes/innovation-lite/fonts/fontawesome-webfont.woff 31 2591228 20 21
/innovation/ 24 209345 4 3
/salesforce-training-in-pune/ 24 193393 9 9
/wp-admin/load-scripts.php 23 2203410 0 0
/atg-endeca-training-in-pune/ 22 184030 7 6
/load-runner-training-in-pune/ 20 159961 11 10
/category/uncategorized/ 20 120698 5 4
/feed/ 4 1531 1 1
/wp-login.php/blog/ 1 1231 0 1
/category/uncategorized/feed/ 1 529 0 1
/wp-includes/js/tinymce/skins/lightgray/fonts/tinymce.woff 1 17484 1 1
/wp-json/oembed/1.0/embed 2 0 0 1
/spark/ 1 13338 0 0
/index.php/wp-json/wp/v2/posts/ 1 2 0 1
/courses/bigdata-hadoop-training-in-pune/ 19 184351 2 1
/wp-content/themes/innovation-lite/fonts/fontawesome-webfont.eot 10 707830 10 10
/manual-testing/ 15 118256 6 5
/oracle-commerce-atg-and-endeca/ 2 15975 1 1
/wp-admin/load-styles.php 13 858286 0 0
/webmail 11 373347 6 5
/wp-admin/admin.php 3 62866 0 0
/advanced-java/ 1 7925 0 0
/classroom-gallery/ 8 64488 1 1
/wp-admin/ 7 105579 0 0
/wp-includes/js/tinymce/wp-tinymce.php 1 200338 0 0
/wp-admin/themes.php 1 13280 0 0
/wp-json/ 3 55229 0 0
/wp-admin/theme-editor.php 6 83858 0 0
/wp-admin/post-new.php 3 136331 0 0
/comments/feed/ 4 951 0 1
/qtp-uft-training-in-pune/ 20 161997 4 4
/wp-admin/edit.php 16 294408 0 0
/wp-admin/async-upload.php 2 1091 0 0
/wp-content/themes/innovation-lite/fonts/fontawesome-webfont.ttf 1 83573 1 1
/wp-admin/upload.php 2 39503 0 0
/wp-json/wp/v2/users/ 11 6380 5 0
/wp-includes/wlwmanifest.xml 6 2760 0 0
/wp-admin/customize.php 9 497526 0 0
/cpanel 14 474992 9 9
/java/ 4 31541 1 0
/wp-json/contact-form-7/v1/contact-forms/301/feedback 11 1881 0 2
END_SIDER
