AWSTATS DATA FILE 7.6 (build 20161204)
# If you remove this file, all statistics for date 201802 will be lost/reset.
# Last config file used to build this data file was /home/guruhomeshops/tmp/awstats/awstats.guruhomeshops.com.conf.

# Position (offset in bytes) in this file for beginning of each section for
# direct I/O access. If you made changes somewhere in this file, you should
# also remove completely the MAP section (AWStats will rewrite it at next
# update).
BEGIN_MAP 28
POS_GENERAL 2019                
POS_TIME 2697                
POS_VISITOR 8927                
POS_DAY 11716               
POS_DOMAIN 3538                
POS_LOGIN 4134                
POS_ROBOT 4289                
POS_WORMS 5125                
POS_EMAILSENDER 5256                
POS_EMAILRECEIVER 5399                
POS_SESSION 12318               
POS_SIDER 12496               
POS_FILETYPES 5534                
POS_DOWNLOADS 5817                
POS_OS 6132                
POS_BROWSER 6368                
POS_SCREENSIZE 7180                
POS_UNKNOWNREFERER 7254                
POS_UNKNOWNREFERERBROWSER 7593                
POS_ORIGIN 7732                
POS_SEREFERRALS 7869                
POS_PAGEREFS 8112                
POS_SEARCHWORDS 8290                
POS_KEYWORDS 8442                
POS_MISC 2361                
POS_ERRORS 8501                
POS_CLUSTER 3990                
POS_SIDER_404 8618                
END_MAP

# LastLine    = Date of last record processed - Last record line number in last log - Last record offset in last log - Last record signature value
# FirstTime   = Date of first visit for history file
# LastTime    = Date of last visit for history file
# LastUpdate  = Date of last update - Nb of parsed records - Nb of parsed old records - Nb of parsed new records - Nb of parsed corrupted - Nb of parsed dropped
# TotalVisits = Number of visits
# TotalUnique = Number of unique visitors
# MonthHostsKnown   = Number of hosts known
# MonthHostsUnKnown = Number of hosts unknown
BEGIN_GENERAL 8
LastLine 20180224114942 35 6341 12027051546350
FirstTime 20180201054435
LastTime 20180224104307
LastUpdate 20180224121235 35 0 35 0 0
TotalVisits 85                  
TotalUnique 64                  
MonthHostsKnown 0                   
MonthHostsUnknown 68                  
END_GENERAL

# Misc ID - Pages - Hits - Bandwidth
BEGIN_MISC 10
QuickTimeSupport 0 0 0
JavascriptDisabled 0 0 0
DirectorSupport 0 0 0
JavaEnabled 0 0 0
TotalMisc 0 0 0
WindowsMediaPlayerSupport 0 0 0
FlashSupport 0 0 0
PDFSupport 0 0 0
AddToFavourites 0 9 0
RealPlayerSupport 0 0 0
END_MISC

# Hour - Pages - Hits - Bandwidth - Not viewed Pages - Not viewed Hits - Not viewed Bandwidth
BEGIN_TIME 24
0 3 11 4338760 21 35 3803310
1 2 3 946774 16 24 4673805
2 11 11 4487491 22 34 3947684
3 20 21 9213507 20 23 4707188
4 8 8 2567983 35 46 3751060
5 16 16 2993240 101 109 12954219
6 5 5 1608955 62 69 10917016
7 6 8 2794548 22 26 4109830
8 36 84 14693868 293 310 66037930
9 3 3 1211580 23 33 5225992
10 6 54 3561349 19 31 6463795
11 1 2 521684 17 20 3540080
12 88 715 48142333 24 29 6570190
13 0 1 449175 17 27 4114846
14 3 3 1304910 17 26 4469298
15 11 12 5179414 94 138 20927875
16 6 6 1848280 12 23 4041856
17 10 64 4138162 19 30 3134057
18 11 105 5661391 21 56 7509317
19 4 5 2114032 15 23 4595576
20 2 3 861008 38 44 12491256
21 3 3 834424 36 42 8422379
22 1 1 406948 11 46 6281466
23 14 14 6154636 24 34 7753079
END_TIME

# Domain - Pages - Hits - Bandwidth
# The 25 first Pages must be first (order not required for others)
BEGIN_DOMAIN 25
us 122 757 60962728
ua 34 34 13457741
ca 23 71 7188301
cz 18 18 7904697
at 12 13 5793020
ru 11 59 5281639
lv 10 10 4323499
in 7 107 5206505
pl 6 6 1938104
fr 5 5 1042815
gb 4 51 2836886
au 3 3 1218528
it 2 2 151029
mx 2 2 899569
ro 2 6 2651085
br 2 2 897965
ph 1 1 448983
sa 1 1 448980
cl 1 1 403860
co 1 1 448982
sk 1 1 403860
cn 1 1 406948
pk 1 2 351672
se 0 3 1349111
eg 0 1 17945
END_DOMAIN

# Cluster ID - Pages - Hits - Bandwidth
BEGIN_CLUSTER 0
END_CLUSTER

# Login - Pages - Hits - Bandwidth - Last visit
# The 10 first Pages must be first (order not required for others)
BEGIN_LOGIN 0
END_LOGIN

# Robot ID - Hits - Bandwidth - Last visit - Hits on robots.txt
# The 25 first Hits must be first (order not required for others)
BEGIN_ROBOT 17
Googlebot/ 359 71407054 20180224114942 34
MJ12bot/ 321 73924771 20180217060211 6
Baiduspider/ 156 30472583 20180224110354 0
aiHitBot/ 92 11885633 20180220150538 1
bingbot/ 63 6447771 20180224010357 8
(firefox/)([0-9]\.|[0-1][0]\.) 16 4782908 20180223131622 13
unknown 14 5571457 20180222183508 14
facebookexternalhit/ 8 787872 20180220061921 0
no_user_agent 8 3240916 20180223155954 0
bingpreview 6 2693494 20180221233538 0
Python\-urllib/ 2 853559 20180210120439 0
bot[\s_+:,\.\;\/\\-] 2 852978 20180201131618 1
libwww\-perl 2 897690 20180217161521 0
SurveyBot/ 2 729370 20180210120741 1
GrapeshotCrawler/ 2 856559 20180216125135 1
Uptimebot/ 1 448940 20180209083035 1
spider 1 403860 20180213211648 0
END_ROBOT

# Worm ID - Hits - Bandwidth - Last visit
# The 5 first Hits must be first (order not required for others)
BEGIN_WORMS 0
END_WORMS

# EMail - Hits - Bandwidth - Last visit
# The 20 first Hits must be first (order not required for others)
BEGIN_EMAILSENDER 0
END_EMAILSENDER

# EMail - Hits - Bandwidth - Last visit
# The 20 first hits must be first (order not required for others)
BEGIN_EMAILRECEIVER 0
END_EMAILRECEIVER

# Files type - Hits - Bandwidth - Bandwidth without compression - Bandwidth after compression
BEGIN_FILETYPES 11
js 302 9208981 0 0
gif 28 1184 0 0
Unknown 65 12579750 0 0
php 51 19153338 0 0
png 227 984537 0 0
txt 9 4046342 0 0
jpg 133 13851636 0 0
xml 31 13920482 0 0
htm 51 18398564 0 0
html 72 25844790 0 0
css 189 8044848 0 0
END_FILETYPES

# Downloads - Hits - Bandwidth
BEGIN_DOWNLOADS 9
/test/CHANGELOG.txt 1 0 449822
/drupal/CHANGELOG.txt 1 0 449841
/store/CHANGELOG.txt 1 0 449030
/shop/CHANGELOG.txt 1 0 449823
/site/CHANGELOG.txt 1 0 449823
/forum/CHANGELOG.txt 1 0 449832
/CHANGELOG.txt 1 0 448629
/blog/CHANGELOG.txt 1 0 449823
/ads.txt 1 0 449719
END_DOWNLOADS

# OS ID - Hits
BEGIN_OS ID - Hits - Pages 13
linux 23 19
macosx5 1 1
Unknown 31 30
winxp 12 2
win2000 4 4
win10 878 150
win2003 1 1
macosx9 1 1
macosx 3 3
macosx12 11 11
linuxandroid 1 1
linuxubuntu 1 1
win7 191 46
END_OS

# Browser ID - Hits - Pages
BEGIN_BROWSER 38
firefox33.0 2 2
chrome54.0.2861.91 1 1
chrome45.0.2454.94 1 1
chrome55.0.2902.31 1 0
chrome36.0.1985.143 52 4
chrome63.0.3239.132 244 49
Unknown 4 4
chrome55.0.2888.24 1 0
firefox34.0 8 8
firefox26.0 2 2
chrome46.0.2490.80 1 1
chrome58.0.3029.110 3 3
opera36.0.2130.32 10 10
chrome56.0.2939.0 1 0
msie7.0 1 1
chrome62.0.3202.94 1 1
firefox15.0.1 1 1
chrome52.0.2743.116 661 81
chrome64.0.3282.140 2 1
netscape5.0 2 2
chrome54.0.2869.36 1 0
chrome10.0.601.0 1 1
chrome37.0.2062.120 2 2
chrome52.0.2771.80 1 0
mozilla 27 26
msie6.0 4 4
chrome61.0.3163.100 28 28
chrome52.0.2745.10 1 0
firefox32.0 2 2
opera10.00 1 1
chrome60.0.3112.113 2 2
firefox52.0 51 4
msie11.0 10 10
msie9.0 5 5
chrome38.0.2125.111 1 1
chrome50.0.2699.17 1 0
firefox46.0 13 12
opera7.01 8 0
END_BROWSER

# Screen size - Hits
BEGIN_SCREENSIZE 0
END_SCREENSIZE

# Unknown referer OS - Last visit date
BEGIN_UNKNOWNREFERER 5
}__test|O:21:\ 20180210120347
Mozilla/5.0_(compatible;_Dataprovider.com;) 20180221080639
Mozilla/5.0_(compatible;_ips-agent) 20180215052530
Mozilla/5.0_(compatible;_NetcraftSurveyAgent/1.0;__info@netcraft.com) 20180203203905
ia_archiver 20180222183509
END_UNKNOWNREFERER

# Unknown referer Browser - Last visit date
BEGIN_UNKNOWNREFERERBROWSER 2
}__test|O:21:\ 20180210120347
ia_archiver 20180222183509
END_UNKNOWNREFERERBROWSER

# Origin - Pages - Hits 
BEGIN_ORIGIN 6
From0 173 190
From1 0 0
From2 6 8
From3 2 2
From4 89 958
From5 0 0
END_ORIGIN

# Search engine referers ID - Pages - Hits
BEGIN_SEREFERRALS 5
google_com 2 2
www_google_co_in 3 3
www_google_com_eg 0 1
www_google_com 0 1
www_google_com_pk 1 1
END_SEREFERRALS

# External page referers - Pages - Hits
# The 25 first Pages must be first (order not required for others)
BEGIN_PAGEREFS 1
http://burger-imperia.com 2 2
END_PAGEREFS

# Search keyphrases - Number of search
# The 10 first number of search must be first (order not required for others)
BEGIN_SEARCHWORDS 0
END_SEARCHWORDS

# Search keywords - Number of search
# The 25 first number of search must be first (order not required for others)
BEGIN_KEYWORDS 0
END_KEYWORDS

# Errors - Hits - Bandwidth
BEGIN_ERRORS 3
302 155 59740
301 39 10687
500 20 448685
END_ERRORS

# URL with 404 errors - Hits - Last URL referrer
BEGIN_SIDER_404 0
END_SIDER_404

# Host - Pages - Hits - Bandwidth - Last visit date - [Start date of last visit] - [Last page of last visit]
# [Start date of last visit] and [Last page of last visit] are saved only if session is not finished
# The 25 first Hits must be first (order not required for others)
BEGIN_VISITOR 68
66.70.182.117 81 661 44748276 20180222122317
178.137.90.40 18 18 7910688 20180204033910
86.49.188.134 18 18 7904697 20180217025725
158.69.54.207 13 14 3206862 20180221080642
80.122.98.69 12 13 5793020 20180213230801
69.58.178.59 10 10 1140952 20180215052530
46.183.216.213 10 10 4323499 20180206152559
37.115.185.236 9 9 3957134 20180214080143
13.56.229.65 8 8 3255584 20180224045656
47.247.236.192 7 54 2762911 20180206180123
193.106.30.99 4 4 287624 20180218003827
46.138.41.58 4 52 3401349 20180213105401
192.187.101.178 4 4 240000 20180223170222
128.199.233.247 4 51 2836886 20180220124215
195.22.127.174 3 3 968592 20180208164144
129.78.110.124 3 3 1218528 20180206164651
195.22.125.224 3 3 969512 20180222051700
103.220.212.72 3 56 2353017 20180206171428
106.201.127.116 3 50 2449628 20180206180516
198.12.131.80 3 50 2765121 20180212085528
91.200.12.95 2 2 898435 20180213072310
54.165.59.7 2 2 782514 20180222183509
86.110.118.3 2 2 150223 20180210120347
212.83.178.172 2 2 147340 20180219065754
193.70.34.209 2 2 151029 20180221212737
212.109.221.43 1 1 449174 20180208045022
186.86.29.252 1 1 448982 20180212142648
31.167.5.11 1 1 448980 20180223140446
109.228.182.92 0 3 1349111 
91.121.70.58 1 1 87755 20180204021806
178.171.31.71 1 1 80000 20180224104307
158.69.229.69 1 1 403860 20180214162452
82.208.146.208 1 5 2247225 20180208071113
98.143.159.154 1 1 450300 20180213044251
159.89.185.147 1 1 406948 20180203203905
130.105.200.45 1 1 448983 20180224040403
181.215.74.242 1 1 403860 20180211234059
152.234.177.26 1 1 448983 20180212073853
39.43.121.175 0 1 17945 
34.235.233.220 1 1 403860 20180210060154
162.243.69.215 1 1 403860 20180206171417
182.180.168.69 1 1 333727 20180208063346
165.227.214.180 1 1 407720 20180202232144
159.203.196.79 1 1 71760 20180206171433
41.39.37.21 0 1 17945 
188.165.26.121 1 1 403860 20180215035545
189.178.59.31 1 1 449784 20180215030052
104.131.91.39 1 1 406948 20180203064001
177.75.211.94 1 1 448982 20180224022146
104.209.188.207 1 1 403860 20180206172410
52.74.24.227 1 1 4373 20180214205728
159.203.33.48 0 8 3596623 
38.100.21.62 1 1 406948 20180221051942
180.169.191.142 1 1 406948 20180224010638
159.89.179.55 1 1 407720 20180203192238
23.99.101.118 1 1 403860 20180206175954
94.23.171.176 1 1 403860 20180220091204
54.234.137.206 1 1 403860 20180217194656
217.147.169.252 1 1 403860 20180215083439
40.74.255.63 1 1 0 20180206172409
93.115.95.204 1 1 403860 20180203094750
185.117.74.118 2 2 797033 20180216215451
34.217.65.140 1 1 403860 20180215094545
189.198.23.181 1 1 449785 20180223070259
158.46.163.83 1 1 403860 20180215190202
85.248.227.164 1 1 403860 20180213170600
103.208.246.226 1 1 403860 20180201054435
168.0.100.3 1 1 262449 20180223003658
END_VISITOR

# Date - Pages - Hits - Bandwidth - Visits
BEGIN_DAY 23
20180201 1 1 403860 1
20180202 1 1 407720 1
20180203 5 7 2931349 5
20180204 24 24 9779730 5
20180206 28 176 13538526 12
20180207 0 1 17945 0
20180208 7 7 2607863 5
20180209 2 2 333662 2
20180210 3 3 554083 2
20180211 2 11 4540329 2
20180212 15 62 8023977 5
20180213 22 71 10658881 7
20180214 11 11 4365367 3
20180215 18 19 4591429 9
20180216 1 2 798379 1
20180217 11 11 4426334 3
20180218 2 2 478916 2
20180219 1 1 57472 1
20180220 6 54 3769921 3
20180221 16 17 4099819 4
20180222 85 665 46166640 3
20180223 4 4 1241214 4
20180224 5 6 2241036 5
END_DAY

# Session range - Number of visits
BEGIN_SESSION 4
30s-2mn 5
0s-30s 78
5mn-15mn 1
2mn-5mn 1
END_SESSION

# URL - Pages - Bandwidth - Entry - Exit
# The 25 first Pages must be first (order not required for others)
BEGIN_SIDER 84
/ 68 24469819 57 41
/public/enduser/assets/fonts/fontawesome-webfont.ttf-v=4.6.2.htm 15 6737988 0 0
/public/enduser/assets/fonts/fontawesome-webfont.svg-v=4.6.2.htm 15 4793051 0 1
/wp-login.php 15 5793669 11 10
/public/enduser/assets/fonts/fontawesome-webfont.woff-v=4.6.2.htm 14 6287826 0 0
/index.htm- 10 3081534 0 4
/index-ajax.php 10 4490131 0 0
/xmlrpc.php 7 3141753 0 0
/public/enduser/assets/fonts/fontawesome-webfont.woff2-v=4.6.2.htm 6 430560 1 1
/cms/wp-includes/wlwmanifest.xml 5 2246292 0 4
/blog/wp-includes/wlwmanifest.xml 5 2244746 0 0
/wp-includes/wlwmanifest.xml 5 2245316 0 0
/wordpress/wp-includes/wlwmanifest.xml 5 2245765 0 0
/wp/wp-includes/wlwmanifest.xml 5 2244656 0 0
/site/wp-includes/wlwmanifest.xml 5 2244748 0 0
/myaccount/login 4 106104 0 0
/contact 3 84850 0 0
/checkout 3 86897 0 0
/myaccount/index.htm- 2 897418 0 0
/index.php 2 818720 0 1
/category.html 2 776980 0 0
/administrator/index.php 2 899934 0 1
/product-category/vegetable/vegetable/102 1 115372 0 0
/connectors/system/settings.php 1 71968 1 1
/product-category/cosmetics/cosmetics/84 1 61558 0 0
/removeItem/63 1 333727 1 1
/wp/wp-admin/setup-config.php 1 448618 1 1
/replace.php 1 89868 1 1
/product-category/aata/makka-aata/99 1 61555 0 0
/product-category/aata/baajri-aata/index.htm- 1 148042 0 0
/product-category/patanjali/patanjali/index.htm- 1 148043 0 0
/product-category/nuts-dry-fruit/85 1 448846 0 0
/product-category/GRAINS%20&%20PULSES/masoor-dal/index.htm- 1 96000 0 1
/connectors/security/login.php 1 79061 1 1
/assets/images/accesson.php 1 449065 0 1
/product-category/grains-pulses/79 1 448837 0 0
/admin/login 1 4373 1 1
/blog/administrator/index.php 1 450012 0 0
/product-category/OIL%20&%20GHEE/oil-ghee/80 1 67563 0 0
/product-category/AATA/aata/82 1 62107 0 1
/joomla/administrator/index.php 1 449228 0 0
/product-category/AATA/wheat-aata/97 1 61555 0 0
/product-category/OTHER%20PRODUCTS/other-products/96 1 67583 0 0
/product-category/aata/82 1 448756 0 0
/product-category/aata/makka-aata/index.htm- 1 148040 0 0
/product-category/aata/besan/98 1 61545 0 0
/product-category/aata/aata/index.htm- 1 148028 0 0
/wp-content/plugins/revslider/temp/update_extract/8d5726b07a529c8.php 1 450300 1 1
/product-category/aata/baajri-aata/100 1 61557 0 0
/product-category/LAUNDRY%20SERVICE/laundry-service/category.html 1 149139 0 0
/product-category/aata/wheat-aata/index.htm- 1 148040 0 0
/faq 1 38622 0 0
/product-category/aata/aata/82 1 61543 0 0
/xmlrpz.php 1 71968 1 1
/product-category/SALT%20&%20SUGAR/salt-sugar/81 1 62131 0 0
/administrator 1 70223 0 1
/connectors/resource/index.php 1 449422 1 1
/product-category/tea-coffee/83 1 449609 0 0
/product-category/oil-ghee/80 1 449591 0 0
/product-category/AATA/wheat-aata/index.htm- 1 96000 0 0
/sitemap.xml 1 448959 0 0
/product-category/laundry-service/104 1 449626 0 0
/detail.html 1 448852 1 1
/product-category/cosmetics/84 1 448801 0 0
/product-category/LAUNDRY%20SERVICE/laundry-service/product-details 1 149139 0 0
/product-category/LAUNDRY%20SERVICE/laundry-service/index.htm 1 149139 0 0
/consystem.php 1 71968 1 1
/product-category/masale-spices/86 1 449636 0 0
/product-category/aata/wheat-aata/97 1 61555 0 0
/product-category/cosmetics/cosmetics/index.htm- 1 148043 0 0
/product-category/vegetable/vegetable/index.htm- 1 148043 0 0
/blogs/wp-admin/setup-config.php 1 348415 1 1
/product-category/GRAINS%20&%20PULSES/masoor-dal/87 1 61570 0 0
/product-category/other-products/96 1 449645 0 1
/rep.php 1 57472 1 1
/product-category/aata/besan/index.htm- 1 148030 0 0
/product-category/salt-sugar/81 1 449609 0 0
/product-category/patanjali/patanjali/105 1 77910 0 0
//wp-login.php 1 449798 0 1
/wp-load.php 1 71968 1 1
/downloader 1 449174 1 1
/product-category/GRAINS%20&%20PULSES/grains-pulses/79 1 62140 0 0
/removeItem/73 1 333662 1 1
/product-category/LAUNDRY%20SERVICE/laundry-service/104 1 67518 0 0
END_SIDER
