AWSTATS DATA FILE 7.4 (build 20140726)
# If you remove this file, all statistics for date 201710 will be lost/reset.
# Last config file used to build this data file was /home/guruhomeshops/tmp/awstats/awstats.guruhomeshops.com.conf.

# Position (offset in bytes) in this file for beginning of each section for
# direct I/O access. If you made changes somewhere in this file, you should
# also remove completely the MAP section (AWStats will rewrite it at next
# update).
BEGIN_MAP 28
POS_GENERAL 2019                
POS_TIME 2697                
POS_VISITOR 6211                
POS_DAY 6412                
POS_DOMAIN 3361                
POS_LOGIN 3627                
POS_ROBOT 3782                
POS_WORMS 4072                
POS_EMAILSENDER 4203                
POS_EMAILRECEIVER 4346                
POS_SESSION 6535                
POS_SIDER 6681                
POS_FILETYPES 4481                
POS_DOWNLOADS 4616                
POS_OS 4664                
POS_BROWSER 4769                
POS_SCREENSIZE 4928                
POS_UNKNOWNREFERER 5002                
POS_UNKNOWNREFERERBROWSER 5089                
POS_ORIGIN 5171                
POS_SEREFERRALS 5301                
POS_PAGEREFS 5456                
POS_SEARCHWORDS 5604                
POS_KEYWORDS 5756                
POS_MISC 2361                
POS_ERRORS 5815                
POS_CLUSTER 3483                
POS_SIDER_404 5902                
END_MAP

# LastLine    = Date of last record processed - Last record line number in last log - Last record offset in last log - Last record signature value
# FirstTime   = Date of first visit for history file
# LastTime    = Date of last visit for history file
# LastUpdate  = Date of last update - Nb of parsed records - Nb of parsed old records - Nb of parsed new records - Nb of parsed corrupted - Nb of parsed dropped
# TotalVisits = Number of visits
# TotalUnique = Number of unique visitors
# MonthHostsKnown   = Number of hosts known
# MonthHostsUnKnown = Number of hosts unknown
BEGIN_GENERAL 8
LastLine 20171101002724 29 5330 12002240492685
FirstTime 20171029002329
LastTime 20171031055814
LastUpdate 20171101120359 29 0 28 0 0
TotalVisits 2                   
TotalUnique 2                   
MonthHostsKnown 0                   
MonthHostsUnknown 4                   
END_GENERAL

# Misc ID - Pages - Hits - Bandwidth
BEGIN_MISC 10
TotalMisc 0 0 0
RealPlayerSupport 0 0 0
PDFSupport 0 0 0
JavaEnabled 0 0 0
WindowsMediaPlayerSupport 0 0 0
QuickTimeSupport 0 0 0
FlashSupport 0 0 0
DirectorSupport 0 0 0
AddToFavourites 0 0 0
JavascriptDisabled 0 0 0
END_MISC

# Hour - Pages - Hits - Bandwidth - Not viewed Pages - Not viewed Hits - Not viewed Bandwidth
BEGIN_TIME 24
0 1 1 266517 3 3 1903314
1 0 1 449043 3 3 702271
2 0 0 0 7 9 4086632
3 0 0 0 7 7 2974397
4 0 0 0 10 27 6910856
5 1 1 934503 3 4 1866562
6 0 0 0 11 14 6134909
7 0 0 0 11 13 5937497
8 0 1 28882 3 6 1551431
9 0 0 0 12 12 5773295
10 0 0 0 13 13 1434542
11 0 0 0 17 19 3666965
12 0 0 0 7 7 1231530
13 0 0 0 8 8 1292416
14 0 0 0 11 11 3207340
15 0 0 0 9 9 5075309
16 0 0 0 2 2 115331
17 0 0 0 7 7 2912772
18 0 0 0 10 10 5171419
19 0 0 0 11 11 5486937
20 0 0 0 9 10 4705333
21 0 1 448982 8 15 2614287
22 0 0 0 9 15 5428254
23 0 0 0 8 8 3654122
END_TIME

# Domain - Pages - Hits - Bandwidth
# The 25 first Pages must be first (order not required for others)
BEGIN_DOMAIN 4
nz 1 1 266517
gb 1 1 934503
pk 0 1 28882
bg 0 2 898025
END_DOMAIN

# Cluster ID - Pages - Hits - Bandwidth
BEGIN_CLUSTER 0
END_CLUSTER

# Login - Pages - Hits - Bandwidth - Last visit
# The 10 first Pages must be first (order not required for others)
BEGIN_LOGIN 0
END_LOGIN

# Robot ID - Hits - Bandwidth - Last visit - Hits on robots.txt
# The 25 first Hits must be first (order not required for others)
BEGIN_ROBOT 4
googlebot 180 68779086 20171031224300 6
spider 31 6826422 20171031233902 0
bot[\s_+:,\.\;\/\\-] 24 7856708 20171031201905 6
unknown 1 373053 20171030074227 1
END_ROBOT

# Worm ID - Hits - Bandwidth - Last visit
# The 5 first Hits must be first (order not required for others)
BEGIN_WORMS 0
END_WORMS

# EMail - Hits - Bandwidth - Last visit
# The 20 first Hits must be first (order not required for others)
BEGIN_EMAILSENDER 0
END_EMAILSENDER

# EMail - Hits - Bandwidth - Last visit
# The 20 first hits must be first (order not required for others)
BEGIN_EMAILRECEIVER 0
END_EMAILRECEIVER

# Files type - Hits - Bandwidth - Bandwidth without compression - Bandwidth after compression
BEGIN_FILETYPES 4
jpg 1 28882 0 0
html 1 934503 0 0
Unknown 1 266517 0 0
js 2 898025 0 0
END_FILETYPES

# Downloads - Hits - Bandwidth
BEGIN_DOWNLOADS 0
END_DOWNLOADS

# OS ID - Hits
BEGIN_OS ID - Hits - Pages 4
win7 1 1
winxp 1 0
linux 1 1
macosx 2 0
END_OS

# Browser ID - Hits - Pages
BEGIN_BROWSER 5
chrome56.0.2970.97 1 0
chrome57.0.2987.133 1 1
firefox45.0 1 1
chrome49.0.2623.112 1 0
chrome49.0.2652.6 1 0
END_BROWSER

# Screen size - Hits
BEGIN_SCREENSIZE 0
END_SCREENSIZE

# Unknown referer OS - Last visit date
BEGIN_UNKNOWNREFERER 0
END_UNKNOWNREFERER

# Unknown referer Browser - Last visit date
BEGIN_UNKNOWNREFERERBROWSER 0
END_UNKNOWNREFERERBROWSER

# Origin - Pages - Hits 
BEGIN_ORIGIN 6
From0 0 2
From1 0 0
From2 1 2
From3 0 0
From4 1 1
From5 0 0
END_ORIGIN

# Search engine referers ID - Pages - Hits
BEGIN_SEREFERRALS 1
google 1 2
END_SEREFERRALS

# External page referers - Pages - Hits
# The 25 first Pages must be first (order not required for others)
BEGIN_PAGEREFS 0
END_PAGEREFS

# Search keyphrases - Number of search
# The 10 first number of search must be first (order not required for others)
BEGIN_SEARCHWORDS 0
END_SEARCHWORDS

# Search keywords - Number of search
# The 25 first number of search must be first (order not required for others)
BEGIN_KEYWORDS 0
END_KEYWORDS

# Errors - Hits - Bandwidth
BEGIN_ERRORS 1
302 7 2452
END_ERRORS

# URL with 404 errors - Hits - Last URL referrer
BEGIN_SIDER_404 0
END_SIDER_404

# Host - Pages - Hits - Bandwidth - Last visit date - [Start date of last visit] - [Last page of last visit]
# [Start date of last visit] and [Last page of last visit] are saved only if session is not finished
# The 25 first Hits must be first (order not required for others)
BEGIN_VISITOR 4
163.172.4.153 1 1 934503 20171031055814
45.65.229.79 1 1 266517 20171029002329
39.60.43.242 0 1 28882 
93.155.245.12 0 2 898025 
END_VISITOR

# Date - Pages - Hits - Bandwidth - Visits
BEGIN_DAY 3
20171029 1 2 295399 1
20171030 0 1 449043 0
20171031 1 2 1383485 1
END_DAY

# Session range - Number of visits
BEGIN_SESSION 1
0s-30s 2
END_SESSION

# URL - Pages - Bandwidth - Entry - Exit
# The 25 first Pages must be first (order not required for others)
BEGIN_SIDER 2
/removeItem/63 1 266517 1 1
/ 1 934503 1 1
END_SIDER
