AWSTATS DATA FILE 7.4 (build 20140726)
# If you remove this file, all statistics for date 201707 will be lost/reset.
# Last config file used to build this data file was /home/asianblue/tmp/awstats/ssl/awstats.asianblue.in.conf.

# Position (offset in bytes) in this file for beginning of each section for
# direct I/O access. If you made changes somewhere in this file, you should
# also remove completely the MAP section (AWStats will rewrite it at next
# update).
BEGIN_MAP 28
POS_GENERAL 2014                
POS_TIME 2686                
POS_VISITOR 6327                
POS_DAY 6477                
POS_DOMAIN 3335                
POS_LOGIN 3563                
POS_ROBOT 3718                
POS_WORMS 3960                
POS_EMAILSENDER 4091                
POS_EMAILRECEIVER 4234                
POS_SESSION 7174                
POS_SIDER 7331                
POS_FILETYPES 4369                
POS_DOWNLOADS 4467                
POS_OS 4515                
POS_BROWSER 4608                
POS_SCREENSIZE 4698                
POS_UNKNOWNREFERER 4772                
POS_UNKNOWNREFERERBROWSER 4964                
POS_ORIGIN 5151                
POS_SEREFERRALS 5285                
POS_PAGEREFS 5429                
POS_SEARCHWORDS 5577                
POS_KEYWORDS 5729                
POS_MISC 2350                
POS_ERRORS 5788                
POS_CLUSTER 3419                
POS_SIDER_404 5909                
END_MAP

# LastLine    = Date of last record processed - Last record line number in last log - Last record offset in last log - Last record signature value
# FirstTime   = Date of first visit for history file
# LastTime    = Date of last visit for history file
# LastUpdate  = Date of last update - Nb of parsed records - Nb of parsed old records - Nb of parsed new records - Nb of parsed corrupted - Nb of parsed dropped
# TotalVisits = Number of visits
# TotalUnique = Number of unique visitors
# MonthHostsKnown   = Number of hosts known
# MonthHostsUnKnown = Number of hosts unknown
BEGIN_GENERAL 8
LastLine 20170801125134 1 0 10265300656159
FirstTime 20170701035642
LastTime 20170731210540
LastUpdate 20170802121145 1 0 0 0 0
TotalVisits 67                  
TotalUnique 2                   
MonthHostsKnown 0                   
MonthHostsUnknown 2                   
END_GENERAL

# Misc ID - Pages - Hits - Bandwidth
BEGIN_MISC 10
FlashSupport 0 0 0
QuickTimeSupport 0 0 0
JavascriptDisabled 0 0 0
DirectorSupport 0 0 0
RealPlayerSupport 0 0 0
JavaEnabled 0 0 0
TotalMisc 0 0 0
PDFSupport 0 0 0
AddToFavourites 0 0 0
WindowsMediaPlayerSupport 0 0 0
END_MISC

# Hour - Pages - Hits - Bandwidth - Not viewed Pages - Not viewed Hits - Not viewed Bandwidth
BEGIN_TIME 24
0 3 3 71756 1 2 18888
1 1 1 0 1 2 18882
2 3 3 107634 4 4 143512
3 3 3 35878 2 4 37809
4 2 2 35878 1 2 18882
5 1 1 35878 0 0 0
6 2 2 71756 1 1 35878
7 3 3 107634 0 0 0
8 2 2 35878 1 1 0
9 3 3 71756 5 5 76411
10 5 5 179390 4 5 126522
11 3 3 107634 2 2 74047
12 0 0 0 2 2 35913
13 4 4 71756 3 6 56724
14 4 4 143512 3 3 107634
15 0 0 0 0 0 0
16 2 2 71756 1 1 35878
17 5 5 179390 2 2 71756
18 12 12 107682 1 2 18921
19 1 1 35878 1 1 38155
20 4 4 107634 3 4 73575
21 4 4 143512 0 0 0
22 2 2 71756 1 1 35878
23 6 6 215268 1 1 52
END_TIME

# Domain - Pages - Hits - Bandwidth
# The 25 first Pages must be first (order not required for others)
BEGIN_DOMAIN 1
us 75 75 2009216
END_DOMAIN

# Cluster ID - Pages - Hits - Bandwidth
BEGIN_CLUSTER 0
END_CLUSTER

# Login - Pages - Hits - Bandwidth - Last visit
# The 10 first Pages must be first (order not required for others)
BEGIN_LOGIN 0
END_LOGIN

# Robot ID - Hits - Bandwidth - Last visit - Hits on robots.txt
# The 25 first Hits must be first (order not required for others)
BEGIN_ROBOT 3
no_user_agent 17 609926 20170731104633 0
googlebot 11 737 20170729204320 11
netcraft 1 35878 20170709100228 0
END_ROBOT

# Worm ID - Hits - Bandwidth - Last visit
# The 5 first Hits must be first (order not required for others)
BEGIN_WORMS 0
END_WORMS

# EMail - Hits - Bandwidth - Last visit
# The 20 first Hits must be first (order not required for others)
BEGIN_EMAILSENDER 0
END_EMAILSENDER

# EMail - Hits - Bandwidth - Last visit
# The 20 first hits must be first (order not required for others)
BEGIN_EMAILRECEIVER 0
END_EMAILRECEIVER

# Files type - Hits - Bandwidth - Bandwidth without compression - Bandwidth after compression
BEGIN_FILETYPES 2
html 56 2009168 0 0
php 19 48 0 0
END_FILETYPES

# Downloads - Hits - Bandwidth
BEGIN_DOWNLOADS 0
END_DOWNLOADS

# OS ID - Hits
BEGIN_OS ID - Hits - Pages 2
Unknown 19 19
macosx9 56 56
END_OS

# Browser ID - Hits - Pages
BEGIN_BROWSER 2
chrome33.0.1750.152 56 56
Unknown 19 19
END_BROWSER

# Screen size - Hits
BEGIN_SCREENSIZE 0
END_SCREENSIZE

# Unknown referer OS - Last visit date
BEGIN_UNKNOWNREFERER 2
WordPress/4.7.2;_https://asianblue.in 20170729204320
WordPress/4.7.2;_http://asianblue.in 20170726180229
END_UNKNOWNREFERER

# Unknown referer Browser - Last visit date
BEGIN_UNKNOWNREFERERBROWSER 2
WordPress/4.7.2;_https://asianblue.in 20170729204320
WordPress/4.7.2;_http://asianblue.in 20170726180229
END_UNKNOWNREFERERBROWSER

# Origin - Pages - Hits 
BEGIN_ORIGIN 6
From0 56 56
From1 0 0
From2 0 0
From3 0 0
From4 19 19
From5 0 0
END_ORIGIN

# Search engine referers ID - Pages - Hits
BEGIN_SEREFERRALS 0
END_SEREFERRALS

# External page referers - Pages - Hits
# The 25 first Pages must be first (order not required for others)
BEGIN_PAGEREFS 0
END_PAGEREFS

# Search keyphrases - Number of search
# The 10 first number of search must be first (order not required for others)
BEGIN_SEARCHWORDS 0
END_SEARCHWORDS

# Search keywords - Number of search
# The 25 first number of search must be first (order not required for others)
BEGIN_KEYWORDS 0
END_KEYWORDS

# Errors - Hits - Bandwidth
BEGIN_ERRORS 4
401 6 152718
404 12 225954
301 2 0
400 2 104
END_ERRORS

# URL with 404 errors - Hits - Last URL referrer
BEGIN_SIDER_404 3
/apple-app-site-association 5 -
/.well-known/assetlinks.json 3 -
/.well-known/apple-app-site-association 4 -
END_SIDER_404

# Host - Pages - Hits - Bandwidth - Last visit date - [Start date of last visit] - [Last page of last visit]
# [Start date of last visit] and [Last page of last visit] are saved only if session is not finished
# The 25 first Hits must be first (order not required for others)
BEGIN_VISITOR 2
69.46.36.7 56 56 2009168 20170731210540
104.37.189.66 19 19 48 20170729204320
END_VISITOR

# Date - Pages - Hits - Bandwidth - Visits
BEGIN_DAY 30
20170701 2 2 35878 2
20170702 2 2 71756 2
20170703 4 4 107634 4
20170704 2 2 71756 2
20170706 3 3 107634 3
20170707 3 3 71756 3
20170708 1 1 35878 1
20170709 4 4 35878 4
20170710 2 2 71756 2
20170711 2 2 71756 2
20170712 1 1 35878 1
20170713 1 1 35878 1
20170714 2 2 71756 2
20170715 3 3 107634 3
20170716 1 1 35878 1
20170717 2 2 71756 2
20170718 2 2 71756 2
20170719 2 2 35878 2
20170720 1 1 35878 1
20170721 3 3 107634 3
20170722 4 4 107634 4
20170723 1 1 35878 1
20170724 1 1 35878 1
20170725 2 2 71756 2
20170726 13 13 143560 5
20170727 1 1 35878 1
20170728 2 2 35878 2
20170729 4 4 107634 4
20170730 3 3 107634 3
20170731 1 1 35878 1
END_DAY

# Session range - Number of visits
BEGIN_SESSION 2
0s-30s 66
30s-2mn 1
END_SESSION

# URL - Pages - Bandwidth - Entry - Exit
# The 25 first Pages must be first (order not required for others)
BEGIN_SIDER 3
/ 56 2009168 56 56
/wp-cron.php 11 0 10 10
/wp-admin/admin-ajax.php 8 48 1 1
END_SIDER
