AWSTATS DATA FILE 7.6 (build 20161204)
# If you remove this file, all statistics for date 201802 will be lost/reset.
# Last config file used to build this data file was /home/asianblue/tmp/awstats/ssl/awstats.asianblue.in.conf.

# Position (offset in bytes) in this file for beginning of each section for
# direct I/O access. If you made changes somewhere in this file, you should
# also remove completely the MAP section (AWStats will rewrite it at next
# update).
BEGIN_MAP 28
POS_GENERAL 2014                
POS_TIME 2689                
POS_VISITOR 6612                
POS_DAY 7064                
POS_DOMAIN 3276                
POS_LOGIN 3569                
POS_ROBOT 3724                
POS_WORMS 3890                
POS_EMAILSENDER 4021                
POS_EMAILRECEIVER 4164                
POS_SESSION 7380                
POS_SIDER 7569                
POS_FILETYPES 4299                
POS_DOWNLOADS 4399                
POS_OS 4447                
POS_BROWSER 4571                
POS_SCREENSIZE 4733                
POS_UNKNOWNREFERER 4807                
POS_UNKNOWNREFERERBROWSER 5123                
POS_ORIGIN 5349                
POS_SEREFERRALS 5481                
POS_PAGEREFS 5625                
POS_SEARCHWORDS 5773                
POS_KEYWORDS 5925                
POS_MISC 2353                
POS_ERRORS 5984                
POS_CLUSTER 3425                
POS_SIDER_404 6107                
END_MAP

# LastLine    = Date of last record processed - Last record line number in last log - Last record offset in last log - Last record signature value
# FirstTime   = Date of first visit for history file
# LastTime    = Date of last visit for history file
# LastUpdate  = Date of last update - Nb of parsed records - Nb of parsed old records - Nb of parsed new records - Nb of parsed corrupted - Nb of parsed dropped
# TotalVisits = Number of visits
# TotalUnique = Number of unique visitors
# MonthHostsKnown   = Number of hosts known
# MonthHostsUnKnown = Number of hosts unknown
BEGIN_GENERAL 8
LastLine 20180222075412 6 1016 15445452967336
FirstTime 20180201083859
LastTime 20180222075411
LastUpdate 20180222125321 6 0 6 0 0
TotalVisits 29                  
TotalUnique 9                   
MonthHostsKnown 0                   
MonthHostsUnknown 9                   
END_GENERAL

# Misc ID - Pages - Hits - Bandwidth
BEGIN_MISC 10
FlashSupport 0 0 0
PDFSupport 0 0 0
RealPlayerSupport 0 0 0
AddToFavourites 0 0 0
QuickTimeSupport 0 0 0
TotalMisc 0 0 0
DirectorSupport 0 0 0
JavascriptDisabled 0 0 0
WindowsMediaPlayerSupport 0 0 0
JavaEnabled 0 0 0
END_MISC

# Hour - Pages - Hits - Bandwidth - Not viewed Pages - Not viewed Hits - Not viewed Bandwidth
BEGIN_TIME 24
0 0 0 0 3 3 47961
1 1 1 0 1 1 0
2 0 0 0 2 2 0
3 1 1 0 1 2 18876
4 5 5 35833 3 3 18828
5 2 2 35833 2 2 18770
6 10 10 24321 5 6 30586
7 4 4 71666 6 7 91449
8 16 16 84 1 1 18776
9 0 0 0 1 1 52
10 1 1 0 2 2 37546
11 1 1 0 0 0 0
12 2 2 35833 3 3 30395
13 3 3 71693 3 3 11656
14 0 0 0 2 2 11677
15 1 1 35833 1 1 0
16 16 16 35905 3 4 37652
17 0 0 0 0 0 0
18 0 0 0 1 1 52
19 0 0 0 0 0 0
20 0 0 0 2 2 52
21 1 1 0 2 3 55150
22 1 1 0 4 4 56343
23 4 4 134186 13 13 123904
END_TIME

# Domain - Pages - Hits - Bandwidth
# The 25 first Pages must be first (order not required for others)
BEGIN_DOMAIN 6
us 60 60 215190
ru 3 3 102926
it 2 2 71666
de 2 2 31260
fr 1 1 35860
ca 1 1 24285
END_DOMAIN

# Cluster ID - Pages - Hits - Bandwidth
BEGIN_CLUSTER 0
END_CLUSTER

# Login - Pages - Hits - Bandwidth - Last visit
# The 10 first Pages must be first (order not required for others)
BEGIN_LOGIN 0
END_LOGIN

# Robot ID - Hits - Bandwidth - Last visit - Hits on robots.txt
# The 25 first Hits must be first (order not required for others)
BEGIN_ROBOT 1
Googlebot/ 5 335 20180222075410 5
END_ROBOT

# Worm ID - Hits - Bandwidth - Last visit
# The 5 first Hits must be first (order not required for others)
BEGIN_WORMS 0
END_WORMS

# EMail - Hits - Bandwidth - Last visit
# The 20 first Hits must be first (order not required for others)
BEGIN_EMAILSENDER 0
END_EMAILSENDER

# EMail - Hits - Bandwidth - Last visit
# The 20 first hits must be first (order not required for others)
BEGIN_EMAILRECEIVER 0
END_EMAILRECEIVER

# Files type - Hits - Bandwidth - Bandwidth without compression - Bandwidth after compression
BEGIN_FILETYPES 2
php 54 36052 0 0
html 15 445135 0 0
END_FILETYPES

# Downloads - Hits - Bandwidth
BEGIN_DOWNLOADS 0
END_DOWNLOADS

# OS ID - Hits
BEGIN_OS ID - Hits - Pages 5
Unknown 57 57
macosx12 6 6
win8.1 4 4
winlong 1 1
win7 1 1
END_OS

# Browser ID - Hits - Pages
BEGIN_BROWSER 6
chrome61.0.3163.100 6 6
Unknown 56 56
chrome40.0.2214.85 1 1
mozilla 1 1
chrome46.0.2754.75 1 1
firefox36.0 4 4
END_BROWSER

# Screen size - Hits
BEGIN_SCREENSIZE 0
END_SCREENSIZE

# Unknown referer OS - Last visit date
BEGIN_UNKNOWNREFERER 4
WordPress/4.7.2;_https://asianblue.in 20180222075411
redback/v0-570-g26f8c96 20180209070340
WordPress/4.7.2;_http://asianblue.in 20180220163732
Mozilla/5.0_(compatible;_NetcraftSurveyAgent/1.0;__info@netcraft.com) 20180205061058
END_UNKNOWNREFERER

# Unknown referer Browser - Last visit date
BEGIN_UNKNOWNREFERERBROWSER 3
WordPress/4.7.2;_http://asianblue.in 20180220163732
redback/v0-570-g26f8c96 20180209070340
WordPress/4.7.2;_https://asianblue.in 20180222075411
END_UNKNOWNREFERERBROWSER

# Origin - Pages - Hits 
BEGIN_ORIGIN 6
From0 8 8
From1 1 1
From2 0 0
From3 0 0
From4 60 60
From5 0 0
END_ORIGIN

# Search engine referers ID - Pages - Hits
BEGIN_SEREFERRALS 0
END_SEREFERRALS

# External page referers - Pages - Hits
# The 25 first Pages must be first (order not required for others)
BEGIN_PAGEREFS 0
END_PAGEREFS

# Search keyphrases - Number of search
# The 10 first number of search must be first (order not required for others)
BEGIN_SEARCHWORDS 0
END_SEARCHWORDS

# Search keywords - Number of search
# The 25 first number of search must be first (order not required for others)
BEGIN_KEYWORDS 0
END_KEYWORDS

# Errors - Hits - Bandwidth
BEGIN_ERRORS 4
301 16 0
400 6 260
404 21 394047
401 18 215083
END_ERRORS

# URL with 404 errors - Hits - Last URL referrer
BEGIN_SIDER_404 7
/wp-admin/includes/file-editor.php 1 asianblue.in
/catalog/ 2 -
/.well-known/apple-app-site-association 4 -
/apple-app-site-association 5 -
/cart/ 2 -
/store/ 2 -
/.well-known/assetlinks.json 5 -
END_SIDER_404

# Host - Pages - Hits - Bandwidth - Last visit date - [Start date of last visit] - [Last page of last visit]
# [Start date of last visit] and [Last page of last visit] are saved only if session is not finished
# The 25 first Hits must be first (order not required for others)
BEGIN_VISITOR 9
104.37.189.66 54 54 192 20180222075411 20180222075411 /wp-cron.php
54.183.130.127 6 6 214998 20180222050439
31.184.224.130 2 2 67093 20180205231307
109.236.8.10 2 2 71666 20180209070340
217.79.191.110 1 1 31260 20180205231344
176.31.107.99 1 1 35860 20180209133027
159.89.36.209 1 1 24285 20180205061058
31.184.224.135 1 1 35833 20180205231030
138.246.253.19 1 1 0 20180216112245
END_VISITOR

# Date - Pages - Hits - Bandwidth - Visits
BEGIN_DAY 13
20180201 16 16 84 1
20180203 2 2 35833 2
20180205 14 14 158507 6
20180206 4 4 35833 3
20180209 4 4 143359 3
20180211 1 1 0 1
20180212 2 2 0 2
20180213 4 4 35833 2
20180215 1 1 0 1
20180216 2 2 0 2
20180217 2 2 35833 2
20180220 14 14 72 1
20180222 3 3 35833 3
END_DAY

# Session range - Number of visits
BEGIN_SESSION 5
30s-2mn 1
2mn-5mn 1
15mn-30mn 1
0s-30s 23
30mn-1h 2
END_SESSION

# URL - Pages - Bandwidth - Entry - Exit
# The 25 first Pages must be first (order not required for others)
BEGIN_SIDER 5
/wp-admin/admin-ajax.php 32 192 0 3
/wp-cron.php 21 0 16 12
/ 13 382615 11 10
/shop/ 2 62520 1 2
/index.php 1 35860 1 1
END_SIDER
