AWSTATS DATA FILE 7.6 (build 20161204)
# If you remove this file, all statistics for date 201801 will be lost/reset.
# Last config file used to build this data file was /home/asianblue/tmp/awstats/ssl/awstats.asianblue.in.conf.

# Position (offset in bytes) in this file for beginning of each section for
# direct I/O access. If you made changes somewhere in this file, you should
# also remove completely the MAP section (AWStats will rewrite it at next
# update).
BEGIN_MAP 28
POS_GENERAL 2014                
POS_TIME 2676                
POS_VISITOR 6199                
POS_DAY 6351                
POS_DOMAIN 3248                
POS_LOGIN 3475                
POS_ROBOT 3630                
POS_WORMS 3903                
POS_EMAILSENDER 4034                
POS_EMAILRECEIVER 4177                
POS_SESSION 6720                
POS_SIDER 6879                
POS_FILETYPES 4312                
POS_DOWNLOADS 4408                
POS_OS 4456                
POS_BROWSER 4559                
POS_SCREENSIZE 4649                
POS_UNKNOWNREFERER 4723                
POS_UNKNOWNREFERERBROWSER 4863                
POS_ORIGIN 4998                
POS_SEREFERRALS 5130                
POS_PAGEREFS 5274                
POS_SEARCHWORDS 5422                
POS_KEYWORDS 5574                
POS_MISC 2340                
POS_ERRORS 5633                
POS_CLUSTER 3331                
POS_SIDER_404 5755                
END_MAP

# LastLine    = Date of last record processed - Last record line number in last log - Last record offset in last log - Last record signature value
# FirstTime   = Date of first visit for history file
# LastTime    = Date of last visit for history file
# LastUpdate  = Date of last update - Nb of parsed records - Nb of parsed old records - Nb of parsed new records - Nb of parsed corrupted - Nb of parsed dropped
# TotalVisits = Number of visits
# TotalUnique = Number of unique visitors
# MonthHostsKnown   = Number of hosts known
# MonthHostsUnKnown = Number of hosts unknown
BEGIN_GENERAL 8
LastLine 20180201083856 6 1028 11670855506432
FirstTime 0
LastTime 20180131151934
LastUpdate 20180201093003 6 0 5 0 0
TotalVisits 31                  
TotalUnique 2                   
MonthHostsKnown 0                   
MonthHostsUnknown 2                   
END_GENERAL

# Misc ID - Pages - Hits - Bandwidth
BEGIN_MISC 10
DirectorSupport 0 0 0
QuickTimeSupport 0 0 0
TotalMisc 0 0 0
AddToFavourites 0 0 0
WindowsMediaPlayerSupport 0 0 0
FlashSupport 0 0 0
JavaEnabled 0 0 0
PDFSupport 0 0 0
RealPlayerSupport 0 0 0
JavascriptDisabled 0 0 0
END_MISC

# Hour - Pages - Hits - Bandwidth - Not viewed Pages - Not viewed Hits - Not viewed Bandwidth
BEGIN_TIME 24
0 0 0 0 1 1 35823
1 2 2 0 2 2 37559
2 0 0 0 2 2 72097
3 1 1 35823 2 2 35823
4 0 0 0 1 1 35
5 4 4 71646 3 3 36286
6 0 0 0 1 1 35823
7 0 0 0 0 0 0
8 2 2 35823 3 3 71646
9 4 4 107469 3 3 0
10 0 0 0 0 0 0
11 0 0 0 0 0 0
12 3 3 35823 4 5 56392
13 2 2 35823 1 1 0
14 1 1 0 3 3 35875
15 1 1 0 5 6 91461
16 0 0 0 1 1 35823
17 5 5 0 4 6 92282
18 0 0 0 0 0 0
19 2 2 0 2 3 37632
20 0 0 0 1 1 52
21 0 0 0 2 2 35875
22 1 1 0 1 1 18760
23 6 6 71646 4 4 37475
END_TIME

# Domain - Pages - Hits - Bandwidth
# The 25 first Pages must be first (order not required for others)
BEGIN_DOMAIN 1
us 34 34 394053
END_DOMAIN

# Cluster ID - Pages - Hits - Bandwidth
BEGIN_CLUSTER 0
END_CLUSTER

# Login - Pages - Hits - Bandwidth - Last visit
# The 10 first Pages must be first (order not required for others)
BEGIN_LOGIN 0
END_LOGIN

# Robot ID - Hits - Bandwidth - Last visit - Hits on robots.txt
# The 25 first Hits must be first (order not required for others)
BEGIN_ROBOT 4
no_user_agent 9 322407 20180127140728 0
Googlebot/ 3 201 20180131151934 3
googlebot 2 134 20180107173117 2
netcraft 1 35823 20180108172521 0
END_ROBOT

# Worm ID - Hits - Bandwidth - Last visit
# The 5 first Hits must be first (order not required for others)
BEGIN_WORMS 0
END_WORMS

# EMail - Hits - Bandwidth - Last visit
# The 20 first Hits must be first (order not required for others)
BEGIN_EMAILSENDER 0
END_EMAILSENDER

# EMail - Hits - Bandwidth - Last visit
# The 20 first hits must be first (order not required for others)
BEGIN_EMAILRECEIVER 0
END_EMAILRECEIVER

# Files type - Hits - Bandwidth - Bandwidth without compression - Bandwidth after compression
BEGIN_FILETYPES 2
php 22 0 0 0
html 12 394053 0 0
END_FILETYPES

# Downloads - Hits - Bandwidth
BEGIN_DOWNLOADS 0
END_DOWNLOADS

# OS ID - Hits
BEGIN_OS ID - Hits - Pages 3
macosx 4 4
macosx12 7 7
Unknown 23 23
END_OS

# Browser ID - Hits - Pages
BEGIN_BROWSER 2
Unknown 23 23
chrome61.0.3163.100 11 11
END_BROWSER

# Screen size - Hits
BEGIN_SCREENSIZE 0
END_SCREENSIZE

# Unknown referer OS - Last visit date
BEGIN_UNKNOWNREFERER 1
WordPress/4.7.2;_https://asianblue.in 20180131151934
END_UNKNOWNREFERER

# Unknown referer Browser - Last visit date
BEGIN_UNKNOWNREFERERBROWSER 1
WordPress/4.7.2;_https://asianblue.in 20180131151934
END_UNKNOWNREFERERBROWSER

# Origin - Pages - Hits 
BEGIN_ORIGIN 6
From0 0 0
From1 0 0
From2 0 0
From3 0 0
From4 34 34
From5 0 0
END_ORIGIN

# Search engine referers ID - Pages - Hits
BEGIN_SEREFERRALS 0
END_SEREFERRALS

# External page referers - Pages - Hits
# The 25 first Pages must be first (order not required for others)
BEGIN_PAGEREFS 0
END_PAGEREFS

# Search keyphrases - Number of search
# The 10 first number of search must be first (order not required for others)
BEGIN_SEARCHWORDS 0
END_SEARCHWORDS

# Search keywords - Number of search
# The 25 first number of search must be first (order not required for others)
BEGIN_KEYWORDS 0
END_KEYWORDS

# Errors - Hits - Bandwidth
BEGIN_ERRORS 4
404 14 262808
401 6 145190
400 3 156
301 13 0
END_ERRORS

# URL with 404 errors - Hits - Last URL referrer
BEGIN_SIDER_404 4
/.well-known/apple-app-site-association 5 -
/index.php 1 asianblue.in
/apple-app-site-association 4 -
/.well-known/assetlinks.json 4 -
END_SIDER_404

# Host - Pages - Hits - Bandwidth - Last visit date - [Start date of last visit] - [Last page of last visit]
# [Start date of last visit] and [Last page of last visit] are saved only if session is not finished
# The 25 first Hits must be first (order not required for others)
BEGIN_VISITOR 2
104.37.189.66 23 23 0 20180131151934
54.183.130.127 11 11 394053 20180131095331
END_VISITOR

# Date - Pages - Hits - Bandwidth - Visits
BEGIN_DAY 16
20180101 4 4 35823 4
20180102 1 1 0 1
20180105 3 3 71646 3
20180107 3 3 0 2
20180108 2 2 35823 2
20180109 1 1 0 1
20180111 2 2 35823 2
20180113 1 1 0 1
20180114 2 2 35823 2
20180115 2 2 35823 2
20180117 1 1 35823 1
20180119 1 1 0 1
20180120 4 4 0 2
20180121 3 3 35823 3
20180125 2 2 35823 2
20180131 2 2 35823 2
END_DAY

# Session range - Number of visits
BEGIN_SESSION 2
15mn-30mn 1
0s-30s 30
END_SESSION

# URL - Pages - Bandwidth - Entry - Exit
# The 25 first Pages must be first (order not required for others)
BEGIN_SIDER 2
/wp-cron.php 22 0 20 20
/ 12 394053 11 11
END_SIDER
