AWSTATS DATA FILE 7.4 (build 20140726)
# If you remove this file, all statistics for date 201704 will be lost/reset.
# Last config file used to build this data file was /home/asianblue/tmp/awstats/ssl/awstats.asianblue.in.conf.

# Position (offset in bytes) in this file for beginning of each section for
# direct I/O access. If you made changes somewhere in this file, you should
# also remove completely the MAP section (AWStats will rewrite it at next
# update).
BEGIN_MAP 28
POS_GENERAL 2014                
POS_TIME 2687                
POS_VISITOR 6285                
POS_DAY 6471                
POS_DOMAIN 3332                
POS_LOGIN 3573                
POS_ROBOT 3728                
POS_WORMS 3968                
POS_EMAILSENDER 4099                
POS_EMAILRECEIVER 4242                
POS_SESSION 7140                
POS_SIDER 7287                
POS_FILETYPES 4377                
POS_DOWNLOADS 4474                
POS_OS 4522                
POS_BROWSER 4615                
POS_SCREENSIZE 4705                
POS_UNKNOWNREFERER 4779                
POS_UNKNOWNREFERERBROWSER 4958                
POS_ORIGIN 5132                
POS_SEREFERRALS 5266                
POS_PAGEREFS 5410                
POS_SEARCHWORDS 5558                
POS_KEYWORDS 5710                
POS_MISC 2351                
POS_ERRORS 5769                
POS_CLUSTER 3429                
POS_SIDER_404 5867                
END_MAP

# LastLine    = Date of last record processed - Last record line number in last log - Last record offset in last log - Last record signature value
# FirstTime   = Date of first visit for history file
# LastTime    = Date of last visit for history file
# LastUpdate  = Date of last update - Nb of parsed records - Nb of parsed old records - Nb of parsed new records - Nb of parsed corrupted - Nb of parsed dropped
# TotalVisits = Number of visits
# TotalUnique = Number of unique visitors
# MonthHostsKnown   = Number of hosts known
# MonthHostsUnKnown = Number of hosts unknown
BEGIN_GENERAL 8
LastLine 20170501061830 2 81 10355394768391
FirstTime 20170401200854
LastTime 20170430093221
LastUpdate 20170501122143 2 0 1 0 0
TotalVisits 68                  
TotalUnique 3                   
MonthHostsKnown 0                   
MonthHostsUnknown 3                   
END_GENERAL

# Misc ID - Pages - Hits - Bandwidth
BEGIN_MISC 10
PDFSupport 0 0 0
AddToFavourites 0 0 0
DirectorSupport 0 0 0
JavascriptDisabled 0 0 0
QuickTimeSupport 0 0 0
FlashSupport 0 0 0
RealPlayerSupport 0 0 0
WindowsMediaPlayerSupport 0 0 0
TotalMisc 0 0 0
JavaEnabled 0 0 0
END_MISC

# Hour - Pages - Hits - Bandwidth - Not viewed Pages - Not viewed Hits - Not viewed Bandwidth
BEGIN_TIME 24
0 2 2 35810 2 3 18820
1 5 5 144214 4 4 53021
2 4 4 107430 1 2 18820
3 3 3 107991 4 4 73343
4 0 0 0 1 1 35810
5 4 4 143240 0 0 0
6 5 5 143240 1 2 18791
7 6 6 72107 6 9 111056
8 4 4 71620 4 4 40781
9 4 4 71620 2 3 37561
10 4 4 72107 4 4 107312
11 2 2 71620 1 1 35810
12 0 0 0 0 0 0
13 1 1 35810 1 1 35810
14 1 1 35810 1 1 35810
15 1 1 35810 0 0 0
16 2 2 71620 0 0 0
17 6 6 179537 2 2 37327
18 3 3 107430 0 0 0
19 0 0 0 0 0 0
20 2 2 35810 5 6 143742
21 3 3 107917 2 2 35810
22 2 2 35810 2 2 35810
23 5 5 146335 1 1 20105
END_TIME

# Domain - Pages - Hits - Bandwidth
# The 25 first Pages must be first (order not required for others)
BEGIN_DOMAIN 2
us 67 67 1761268
it 2 2 71620
END_DOMAIN

# Cluster ID - Pages - Hits - Bandwidth
BEGIN_CLUSTER 0
END_CLUSTER

# Login - Pages - Hits - Bandwidth - Last visit
# The 10 first Pages must be first (order not required for others)
BEGIN_LOGIN 0
END_LOGIN

# Robot ID - Hits - Bandwidth - Last visit - Hits on robots.txt
# The 25 first Hits must be first (order not required for others)
BEGIN_ROBOT 3
no_user_agent 13 463689 20170430220836 0
googlebot 8 536 20170429075707 8
netcraft 3 34837 20170426205611 0
END_ROBOT

# Worm ID - Hits - Bandwidth - Last visit
# The 5 first Hits must be first (order not required for others)
BEGIN_WORMS 0
END_WORMS

# EMail - Hits - Bandwidth - Last visit
# The 20 first Hits must be first (order not required for others)
BEGIN_EMAILSENDER 0
END_EMAILSENDER

# EMail - Hits - Bandwidth - Last visit
# The 20 first hits must be first (order not required for others)
BEGIN_EMAILRECEIVER 0
END_EMAILRECEIVER

# Files type - Hits - Bandwidth - Bandwidth without compression - Bandwidth after compression
BEGIN_FILETYPES 2
html 51 1832888 0 0
php 18 0 0 0
END_FILETYPES

# Downloads - Hits - Bandwidth
BEGIN_DOWNLOADS 0
END_DOWNLOADS

# OS ID - Hits
BEGIN_OS ID - Hits - Pages 2
macosx9 49 49
Unknown 20 20
END_OS

# Browser ID - Hits - Pages
BEGIN_BROWSER 2
Unknown 20 20
chrome33.0.1750.152 49 49
END_BROWSER

# Screen size - Hits
BEGIN_SCREENSIZE 0
END_SCREENSIZE

# Unknown referer OS - Last visit date
BEGIN_UNKNOWNREFERER 2
WordPress/4.7.2;_https://asianblue.in 20170429105025
redback/v0-570-g26f8c96 20170428030633
END_UNKNOWNREFERER

# Unknown referer Browser - Last visit date
BEGIN_UNKNOWNREFERERBROWSER 2
redback/v0-570-g26f8c96 20170428030633
WordPress/4.7.2;_https://asianblue.in 20170429105025
END_UNKNOWNREFERERBROWSER

# Origin - Pages - Hits 
BEGIN_ORIGIN 6
From0 51 51
From1 0 0
From2 0 0
From3 0 0
From4 18 18
From5 0 0
END_ORIGIN

# Search engine referers ID - Pages - Hits
BEGIN_SEREFERRALS 0
END_SEREFERRALS

# External page referers - Pages - Hits
# The 25 first Pages must be first (order not required for others)
BEGIN_PAGEREFS 0
END_PAGEREFS

# Search keyphrases - Number of search
# The 10 first number of search must be first (order not required for others)
BEGIN_SEARCHWORDS 0
END_SEARCHWORDS

# Search keywords - Number of search
# The 25 first number of search must be first (order not required for others)
BEGIN_KEYWORDS 0
END_KEYWORDS

# Errors - Hits - Bandwidth
BEGIN_ERRORS 2
404 21 396477
301 7 0
END_ERRORS

# URL with 404 errors - Hits - Last URL referrer
BEGIN_SIDER_404 3
/.well-known/apple-app-site-association 7 -
/.well-known/assetlinks.json 6 -
/apple-app-site-association 8 -
END_SIDER_404

# Host - Pages - Hits - Bandwidth - Last visit date - [Start date of last visit] - [Last page of last visit]
# [Start date of last visit] and [Last page of last visit] are saved only if session is not finished
# The 25 first Hits must be first (order not required for others)
BEGIN_VISITOR 3
69.46.36.7 49 49 1761268 20170430093221
104.37.189.66 18 18 0 20170429105025
109.236.8.8 2 2 71620 20170428030633
END_VISITOR

# Date - Pages - Hits - Bandwidth - Visits
BEGIN_DAY 29
20170401 3 3 38905 3
20170403 3 3 36371 3
20170404 4 4 145188 4
20170405 2 2 72594 2
20170406 1 1 35810 1
20170407 2 2 71620 2
20170408 2 2 35810 2
20170409 3 3 107430 3
20170410 1 1 35810 1
20170411 3 3 107430 3
20170412 2 2 35810 2
20170413 2 2 71620 2
20170414 2 2 71620 2
20170415 1 1 35810 1
20170416 2 2 71620 2
20170417 6 6 107430 6
20170418 3 3 35810 3
20170419 2 2 35810 2
20170420 1 1 35810 1
20170421 3 3 35810 3
20170422 2 2 71620 2
20170423 3 3 107430 3
20170424 1 1 0 1
20170425 4 4 143240 4
20170426 2 2 35810 2
20170427 1 1 35810 1
20170428 4 4 143240 3
20170429 3 3 35810 3
20170430 1 1 35810 1
END_DAY

# Session range - Number of visits
BEGIN_SESSION 1
0s-30s 68
END_SESSION

# URL - Pages - Bandwidth - Entry - Exit
# The 25 first Pages must be first (order not required for others)
BEGIN_SIDER 2
/ 51 1832888 50 50
/wp-cron.php 18 0 18 18
END_SIDER
