AWSTATS DATA FILE 7.4 (build 20140726)
# If you remove this file, all statistics for date 201710 will be lost/reset.
# Last config file used to build this data file was /home/asianblue/tmp/awstats/ssl/awstats.asianblue.in.conf.

# Position (offset in bytes) in this file for beginning of each section for
# direct I/O access. If you made changes somewhere in this file, you should
# also remove completely the MAP section (AWStats will rewrite it at next
# update).
BEGIN_MAP 28
POS_GENERAL 2014                
POS_TIME 2688                
POS_VISITOR 7088                
POS_DAY 7510                
POS_DOMAIN 3345                
POS_LOGIN 3599                
POS_ROBOT 3754                
POS_WORMS 3993                
POS_EMAILSENDER 4124                
POS_EMAILRECEIVER 4267                
POS_SESSION 8148                
POS_SIDER 8317                
POS_FILETYPES 4402                
POS_DOWNLOADS 4504                
POS_OS 4552                
POS_BROWSER 4665                
POS_SCREENSIZE 4825                
POS_UNKNOWNREFERER 4899                
POS_UNKNOWNREFERERBROWSER 5091                
POS_ORIGIN 5278                
POS_SEREFERRALS 5412                
POS_PAGEREFS 5556                
POS_SEARCHWORDS 5704                
POS_KEYWORDS 5856                
POS_MISC 2352                
POS_ERRORS 5915                
POS_CLUSTER 3455                
POS_SIDER_404 6045                
END_MAP

# LastLine    = Date of last record processed - Last record line number in last log - Last record offset in last log - Last record signature value
# FirstTime   = Date of first visit for history file
# LastTime    = Date of last visit for history file
# LastUpdate  = Date of last update - Nb of parsed records - Nb of parsed old records - Nb of parsed new records - Nb of parsed corrupted - Nb of parsed dropped
# TotalVisits = Number of visits
# TotalUnique = Number of unique visitors
# MonthHostsKnown   = Number of hosts known
# MonthHostsUnKnown = Number of hosts unknown
BEGIN_GENERAL 8
LastLine 20171101024007 2 198 10312511680028
FirstTime 20171002201626
LastTime 20171031193740
LastUpdate 20171101120345 2 0 1 0 0
TotalVisits 77                  
TotalUnique 9                   
MonthHostsKnown 0                   
MonthHostsUnknown 9                   
END_GENERAL

# Misc ID - Pages - Hits - Bandwidth
BEGIN_MISC 10
AddToFavourites 0 0 0
DirectorSupport 0 0 0
RealPlayerSupport 0 0 0
TotalMisc 0 0 0
QuickTimeSupport 0 0 0
FlashSupport 0 0 0
PDFSupport 0 0 0
JavaEnabled 0 0 0
WindowsMediaPlayerSupport 0 0 0
JavascriptDisabled 0 0 0
END_MISC

# Hour - Pages - Hits - Bandwidth - Not viewed Pages - Not viewed Hits - Not viewed Bandwidth
BEGIN_TIME 24
0 4 4 71762 10 10 150631
1 2 2 71762 1 1 35
2 4 4 71762 7 7 148549
3 5 5 130256 5 5 92414
4 2 2 71762 2 3 54766
5 2 2 35908 0 0 0
6 2 2 71762 9 9 151031
7 3 3 107643 1 1 38863
8 1 1 35881 1 1 0
9 13 13 107691 19 19 302062
10 1 1 35881 0 0 0
11 4 4 71789 10 10 151031
12 1 1 35881 1 1 0
13 3 3 107643 0 0 0
14 0 0 0 1 1 0
15 1 1 35881 1 1 35
16 6 6 107643 7 7 74796
17 8 8 179405 6 7 117967
18 7 7 251167 0 0 0
19 3 3 107643 2 2 35881
20 3 3 107643 1 2 35881
21 5 5 107670 25 25 468399
22 2 2 71762 3 4 54772
23 11 11 143560 1 1 0
END_TIME

# Domain - Pages - Hits - Bandwidth
# The 25 first Pages must be first (order not required for others)
BEGIN_DOMAIN 3
us 89 89 2009420
fr 3 3 94429
gb 1 1 35908
END_DOMAIN

# Cluster ID - Pages - Hits - Bandwidth
BEGIN_CLUSTER 0
END_CLUSTER

# Login - Pages - Hits - Bandwidth - Last visit
# The 10 first Pages must be first (order not required for others)
BEGIN_LOGIN 0
END_LOGIN

# Robot ID - Hits - Bandwidth - Last visit - Hits on robots.txt
# The 25 first Hits must be first (order not required for others)
BEGIN_ROBOT 3
no_user_agent 9 322929 20171030021329 0
googlebot 3 201 20171012221717 3
netcraft 1 24285 20171011171553 0
END_ROBOT

# Worm ID - Hits - Bandwidth - Last visit
# The 5 first Hits must be first (order not required for others)
BEGIN_WORMS 0
END_WORMS

# EMail - Hits - Bandwidth - Last visit
# The 20 first Hits must be first (order not required for others)
BEGIN_EMAILSENDER 0
END_EMAILSENDER

# EMail - Hits - Bandwidth - Last visit
# The 20 first hits must be first (order not required for others)
BEGIN_EMAILRECEIVER 0
END_EMAILRECEIVER

# Files type - Hits - Bandwidth - Bandwidth without compression - Bandwidth after compression
BEGIN_FILETYPES 2
html 56 2009336 0 0
php 37 130421 0 0
END_FILETYPES

# Downloads - Hits - Bandwidth
BEGIN_DOWNLOADS 0
END_DOWNLOADS

# OS ID - Hits
BEGIN_OS ID - Hits - Pages 4
win7 4 4
macosx9 53 53
macosx 3 3
Unknown 33 33
END_OS

# Browser ID - Hits - Pages
BEGIN_BROWSER 5
chrome61.0.3163.100 3 3
chrome47.0.1335.75 2 2
Unknown 33 33
chrome33.0.1750.152 53 53
chrome50.0.2661.75 2 2
END_BROWSER

# Screen size - Hits
BEGIN_SCREENSIZE 0
END_SCREENSIZE

# Unknown referer OS - Last visit date
BEGIN_UNKNOWNREFERER 2
WordPress/4.7.2;_https://asianblue.in 20171021114258
WordPress/4.7.2;_http://asianblue.in 20171005231123
END_UNKNOWNREFERER

# Unknown referer Browser - Last visit date
BEGIN_UNKNOWNREFERERBROWSER 2
WordPress/4.7.2;_https://asianblue.in 20171021114258
WordPress/4.7.2;_http://asianblue.in 20171005231123
END_UNKNOWNREFERERBROWSER

# Origin - Pages - Hits 
BEGIN_ORIGIN 6
From0 54 54
From1 4 4
From2 0 0
From3 0 0
From4 35 35
From5 0 0
END_ORIGIN

# Search engine referers ID - Pages - Hits
BEGIN_SEREFERRALS 0
END_SEREFERRALS

# External page referers - Pages - Hits
# The 25 first Pages must be first (order not required for others)
BEGIN_PAGEREFS 0
END_PAGEREFS

# Search keyphrases - Number of search
# The 10 first number of search must be first (order not required for others)
BEGIN_SEARCHWORDS 0
END_SEARCHWORDS

# Search keywords - Number of search
# The 25 first number of search must be first (order not required for others)
BEGIN_KEYWORDS 0
END_KEYWORDS

# Errors - Hits - Bandwidth
BEGIN_ERRORS 5
301 18 0
404 75 1412973
400 2 52
401 8 116673
503 1 0
END_ERRORS

# URL with 404 errors - Hits - Last URL referrer
BEGIN_SIDER_404 24
/.well-known/ct/v1/sct-feedback 7 -
/temp.php 3 asianblue.in
/ct/v1/sth-gossip 6 -
/wp-conde.php 1 asianblue.in
/.well-known/ct/v1/sct-gossip 7 -
/.well-known/apple-app-site-association 1 -
/topleveldir/subdir/research-feedback 6 -
/sample.php 2 asianblue.in
/.well-known/assetlinks.json 1 -
/indes.php 1 asianblue.in
/sfn.php 2 asianblue.in
/ytt.php 2 asianblue.in
/.well-known/ct/v1/collected-sct-feedback 6 -
/yt2.php 2 asianblue.in
/yt.php 2 asianblue.in
/modules/modules/temp.php 1 asianblue.in
/rnnvhs.php 2 asianblue.in
/cod.php 2 asianblue.in
/cgi-bin/temp.php 1 asianblue.in
/.well-known/ct/v1/sth-pollination 6 -
/apple-app-site-association 1 -
/ct/v1/sct-gossip 6 -
/images/temp.php 1 asianblue.in
/ct/v1/sct-feedback 6 -
END_SIDER_404

# Host - Pages - Hits - Bandwidth - Last visit date - [Start date of last visit] - [Last page of last visit]
# [Start date of last visit] and [Last page of last visit] are saved only if session is not finished
# The 25 first Hits must be first (order not required for others)
BEGIN_VISITOR 9
69.46.36.7 53 53 1901693 20171031193740
104.37.189.66 33 33 84 20171021114258
128.199.157.152 1 1 35908 20171021114258
149.202.70.53 1 1 35908 20171012054349
54.219.178.100 1 1 35881 20171020093144
54.67.67.222 1 1 35881 20171021163545
87.98.227.4 1 1 35908 20171013211820
13.57.10.111 1 1 35881 20171013171459
37.187.77.211 1 1 22613 20171012030129
END_VISITOR

# Date - Pages - Hits - Bandwidth - Visits
BEGIN_DAY 27
20171002 1 1 35881 1
20171003 1 1 35881 1
20171004 16 16 71810 8
20171005 13 13 143560 7
20171006 1 1 35881 1
20171007 3 3 107643 3
20171009 4 4 143524 4
20171010 3 3 71762 3
20171011 3 3 35881 2
20171012 6 6 94402 5
20171013 8 8 215313 8
20171014 1 1 35881 1
20171017 2 2 71762 2
20171018 2 2 71762 2
20171019 3 3 107643 3
20171020 4 4 107643 4
20171021 5 5 143551 5
20171022 1 1 35881 1
20171023 3 3 107643 3
20171024 1 1 35881 1
20171025 1 1 35881 1
20171026 1 1 35881 1
20171027 3 3 107643 3
20171028 1 1 35881 1
20171029 1 1 35881 1
20171030 2 2 71762 2
20171031 3 3 107643 3
END_DAY

# Session range - Number of visits
BEGIN_SESSION 3
15mn-30mn 1
0s-30s 73
30s-2mn 3
END_SESSION

# URL - Pages - Bandwidth - Entry - Exit
# The 25 first Pages must be first (order not required for others)
BEGIN_SIDER 4
/ 56 2009336 56 56
/wp-cron.php 19 0 15 15
/wp-admin/admin-ajax.php 14 84 2 2
/index.php 4 130337 4 4
END_SIDER
