AWSTATS DATA FILE 7.4 (build 20140726)
# If you remove this file, all statistics for date 201704 will be lost/reset.
# Last config file used to build this data file was /home/asianblue/tmp/awstats/awstats.asianblue.in.conf.

# Position (offset in bytes) in this file for beginning of each section for
# direct I/O access. If you made changes somewhere in this file, you should
# also remove completely the MAP section (AWStats will rewrite it at next
# update).
BEGIN_MAP 28
POS_GENERAL 2010                
POS_TIME 2690                
POS_VISITOR 13222               
POS_DAY 17738               
POS_DOMAIN 3530                
POS_LOGIN 4022                
POS_ROBOT 4177                
POS_WORMS 4674                
POS_EMAILSENDER 4805                
POS_EMAILRECEIVER 4948                
POS_SESSION 18570               
POS_SIDER 18783               
POS_FILETYPES 5083                
POS_DOWNLOADS 5413                
POS_OS 6152                
POS_BROWSER 6401                
POS_SCREENSIZE 7508                
POS_UNKNOWNREFERER 7582                
POS_UNKNOWNREFERERBROWSER 7820                
POS_ORIGIN 8053                
POS_SEREFERRALS 8195                
POS_PAGEREFS 8361                
POS_SEARCHWORDS 8720                
POS_KEYWORDS 8872                
POS_MISC 2352                
POS_ERRORS 8931                
POS_CLUSTER 3878                
POS_SIDER_404 9089                
END_MAP

# LastLine    = Date of last record processed - Last record line number in last log - Last record offset in last log - Last record signature value
# FirstTime   = Date of first visit for history file
# LastTime    = Date of last visit for history file
# LastUpdate  = Date of last update - Nb of parsed records - Nb of parsed old records - Nb of parsed new records - Nb of parsed corrupted - Nb of parsed dropped
# TotalVisits = Number of visits
# TotalUnique = Number of unique visitors
# MonthHostsKnown   = Number of hosts known
# MonthHostsUnKnown = Number of hosts unknown
BEGIN_GENERAL 8
LastLine 20170501003034 44 8694 15840632394426
FirstTime 20170401014736
LastTime 20170430235128
LastUpdate 20170501122143 44 0 43 0 0
TotalVisits 403                 
TotalUnique 101                 
MonthHostsKnown 0                   
MonthHostsUnknown 116                 
END_GENERAL

# Misc ID - Pages - Hits - Bandwidth
BEGIN_MISC 10
TotalMisc 0 0 0
JavascriptDisabled 0 0 0
AddToFavourites 0 113 0
QuickTimeSupport 0 0 0
JavaEnabled 0 0 0
PDFSupport 0 0 0
DirectorSupport 0 0 0
RealPlayerSupport 0 0 0
FlashSupport 0 0 0
WindowsMediaPlayerSupport 0 0 0
END_MISC

# Hour - Pages - Hits - Bandwidth - Not viewed Pages - Not viewed Hits - Not viewed Bandwidth
BEGIN_TIME 24
0 43 43 71476 22 40 815043
1 68 68 182124 32 72 1188191
2 128 415 9112933 45 85 999736
3 75 198 3922284 22 42 564556
4 16 16 74404 38 58 1352609
5 74 74 143060 40 48 589215
6 77 77 51401 21 31 199593
7 74 74 673838 42 99 1244282
8 64 111 1776041 31 58 893589
9 47 69 488594 26 30 427504
10 65 65 708487 34 42 659469
11 91 534 5896547 34 46 493549
12 29 71 1400803 63 81 1351076
13 96 261 4802900 71 83 623976
14 52 108 1883325 39 50 615911
15 116 309 8749937 55 80 663591
16 171 429 9537009 41 95 582498
17 84 132 1573708 25 35 484825
18 86 196 3516470 27 97 1908247
19 28 50 488695 30 45 715401
20 92 136 2092232 28 40 356692
21 73 137 893097 16 26 245850
22 45 45 485665 47 75 1848426
23 55 55 204 33 40 471823
END_TIME

# Domain - Pages - Hits - Bandwidth
# The 25 first Pages must be first (order not required for others)
BEGIN_DOMAIN 19
us 1402 2324 31650180
in 152 526 13974375
ca 119 607 7130081
ru 22 118 2871897
de 17 58 1709073
ua 6 6 178331
tr 6 6 150226
nl 6 6 213996
ie 6 6 197090
cz 2 2 71416
fr 2 2 71362
it 2 2 71332
za 2 2 71332
se 1 1 35666
lt 1 1 35666
hk 1 1 38738
sk 1 1 18648
ro 1 1 35666
gb 0 3 159
END_DOMAIN

# Cluster ID - Pages - Hits - Bandwidth
BEGIN_CLUSTER 0
END_CLUSTER

# Login - Pages - Hits - Bandwidth - Last visit
# The 10 first Pages must be first (order not required for others)
BEGIN_LOGIN 0
END_LOGIN

# Robot ID - Hits - Bandwidth - Last visit - Hits on robots.txt
# The 25 first Hits must be first (order not required for others)
BEGIN_ROBOT 9
googlebot 480 7863738 20170430235128 25
spider 185 4801923 20170430171252 0
bot[\s_+:,\.\;\/\\-] 176 2770073 20170430164550 61
unknown 28 1876 20170430220839 28
[\s_+:,\.\;\/\\-]bot 14 132853 20170419031857 0
no_user_agent 9 104148 20170425103100 0
msnbot\-media 2 74404 20170408010846 0
netcraft 2 71332 20170414012828 0
googlebot\-image 2 116965 20170421195425 0
END_ROBOT

# Worm ID - Hits - Bandwidth - Last visit
# The 5 first Hits must be first (order not required for others)
BEGIN_WORMS 0
END_WORMS

# EMail - Hits - Bandwidth - Last visit
# The 20 first Hits must be first (order not required for others)
BEGIN_EMAILSENDER 0
END_EMAILSENDER

# EMail - Hits - Bandwidth - Last visit
# The 20 first hits must be first (order not required for others)
BEGIN_EMAILRECEIVER 0
END_EMAILRECEIVER

# Files type - Hits - Bandwidth - Bandwidth without compression - Bandwidth after compression
BEGIN_FILETYPES 14
cgi 1 6734 0 0
ttf 8 216392 0 0
gif 24 100173 0 0
txt 43 30189 0 0
css 414 10208286 0 0
eot 11 248695 0 0
jpg 222 7963935 0 0
php 1233 11486247 0 0
woff2 8 144224 0 0
woff 51 1068416 0 0
html 437 10299505 0 0
png 69 2717607 0 0
svg 5 11701 0 0
js 1147 14023130 0 0
END_FILETYPES

# Downloads - Hits - Bandwidth
BEGIN_DOWNLOADS 15
/3E7DB9D924C1080A47C7ADE2E5B328F9.txt 14 0 742
/FDB97E8E3B40D51EF371F836EDF29733.txt 6 0 318
/6F6A161E1EC2392D1013123E03D317EB.txt 5 0 265
/B5A3FCBE8866E1D4E3C40FAFCE42DE6A.txt 4 0 212
/0F34084E95833B96D5DC66E4EAEC4464.txt 3 0 159
/C0EF450E708475552E3907780E336386.txt 2 0 106
/872B342D6FE7E45D9EB065BDA9874DB8.txt 1 0 64
/24077FB79C292B0D9834BFE7921E8915.txt 1 0 64
/B4C83F347BE4272DABA55C5F92EE1684.txt 1 0 64
/0874285A564487F45719581670284750.txt 1 0 53
/6E48EEFFCFC1CA5E1277BCB2B833703A.txt 1 0 64
/wp-content/plugins/woocommerce/readme.txt 1 0 27886
/EF38956174D1A6DC709183073F68F466.txt 1 0 64
/7D43F5E9221B0A82FA3BF3706112D548.txt 1 0 64
/DB1E4BDB839810CC987A6C9B3C0EB8F7.txt 1 0 64
END_DOWNLOADS

# OS ID - Hits
BEGIN_OS ID - Hits - Pages 13
linuxandroid 1123 305
macosx7 4 4
ios_iphone 71 15
macosx8 1 1
win8.1 70 25
winlong 4 4
win8 42 10
win7 769 186
Unknown 1063 1021
winnt 121 29
winxp 33 30
macosx9 159 71
linux 213 48
END_OS

# Browser ID - Hits - Pages
BEGIN_BROWSER 53
chrome31.0.1650.57 2 2
chrome44.0.2403.125 1 1
msie8.0 37 5
chrome41.0.2228.0 1 1
chrome5.0.375.99 4 4
firefox4.0 9 4
android 2 2
chrome46.0.2490.80 48 6
msie10.0 123 37
firefox51.0 1 1
chrome34.0.1847.137 44 21
firefox3.6.8 6 6
msie7.0 5 5
chrome21.0.1180.82 4 4
firefox3.6.3 2 2
chrome35.0.1916.114 60 16
galeon 1 1
firefox29.0 423 54
firefox28.0 73 29
safari7.0.3 19 19
chrome38.0.2125.101 115 19
chrome57.0.2987.133 114 21
firefox43.0 1 1
chrome34.0.1847.131 93 49
firefox11.0 2 0
chrome49.0.2623.112 15 14
chrome51.0.2704.103 1 1
chrome54.0.2840.85 651 191
firefox40.0 1 1
firefox24.0 5 5
chrome38.0.2125.102 44 2
chrome56.0.2924.87 329 105
firefox34.0 1 1
Unknown 1063 1021
chrome49.0.2623.75 3 3
chrome22.0.1229.94 77 13
safari6.0.2 1 1
msie9.0 44 22
msie6.0 1 1
chrome47.0.2526.111 1 1
firefox3.6.9 1 1
firefox7.0.1 1 1
safari10.0 71 15
chrome52.0.2743.116 47 6
chrome37.0.2062.120 6 6
chrome40.0.2214.115 1 1
opera36.0.2130.32 5 5
firefox21.0 14 14
firefox17.0 1 1
chrome30.0.0.0 1 0
firefox4.2 1 1
chrome50.0.2661.75 1 1
chrome38.0.1025.166 96 5
END_BROWSER

# Screen size - Hits
BEGIN_SCREENSIZE 0
END_SCREENSIZE

# Unknown referer OS - Last visit date
BEGIN_UNKNOWNREFERER 4
WhatsApp/2.17.79_A 20170402154224
WordPress/4.7.2;_http://asianblue.in 20170430235128
COMODO_DCV 20170417215548
redback/v0-570-g26f8c96 20170428030632
END_UNKNOWNREFERER

# Unknown referer Browser - Last visit date
BEGIN_UNKNOWNREFERERBROWSER 4
redback/v0-570-g26f8c96 20170428030632
COMODO_DCV 20170417215548
WordPress/4.7.2;_http://asianblue.in 20170430235128
WhatsApp/2.17.79_A 20170402154224
END_UNKNOWNREFERERBROWSER

# Origin - Pages - Hits 
BEGIN_ORIGIN 6
From0 110 156
From1 5 5
From2 8 8
From3 11 11
From4 1615 3493
From5 0 0
END_ORIGIN

# Search engine referers ID - Pages - Hits
BEGIN_SEREFERRALS 2
google 5 5
yandex 3 3
END_SEREFERRALS

# External page referers - Pages - Hits
# The 25 first Pages must be first (order not required for others)
BEGIN_PAGEREFS 6
http://burger-imperia.com 5 5
http://l.facebook.com/l.php 2 2
http://w3data.co/profile.php 1 1
https://www.facebook.com/check_tag 1 1
http://www.timer4web.com/domain/asianblue.in 1 1
http://pizza-tycoon.com 1 1
END_PAGEREFS

# Search keyphrases - Number of search
# The 10 first number of search must be first (order not required for others)
BEGIN_SEARCHWORDS 0
END_SEARCHWORDS

# Search keywords - Number of search
# The 25 first number of search must be first (order not required for others)
BEGIN_KEYWORDS 0
END_KEYWORDS

# Errors - Hits - Bandwidth
BEGIN_ERRORS 7
302 27 0
405 1 42
301 110 1659
206 5 998
404 199 3272829
403 11 2486
503 34 80326
END_ERRORS

# URL with 404 errors - Hits - Last URL referrer
BEGIN_SIDER_404 102
/nicasia/assets/elfinder/elfinder.html 1 -
/wp-api.php 1 asianblue.in
/authority/elfinder/elfinder.html 1 -
/cart__trashed/ 1 -
/tat/tiki-calendar.php 1 -
/version.php 1 asianblue.in
/cgi-bin/cmsbuild.php 1 asianblue.in
/wp-content/common.php 1 asianblue.in
/casual-shirts/cad-shirts/ab-a-01-c-6-2 2 -
/mod_ariimageslidersa.php 1 asianblue.in
/lib/elfinder/build/elfinder.html 1 -
/tiki2/tiki-calendar.php 1 -
/_backup/library/elfinder/elfinder.html 1 -
/common/js/elfinder_2.0/elfinder.html 1 -
/wp-content/themes/shop-isle/js/'%20+%20link%20+%20' 1 -
/wp-help.php 1 asianblue.in
/en/admin/elfinder/elfinder.html 1 -
/dev/elfinder/elfinder.html 1 -
/image/data/asian_blue1.png 1 -
/party-shirts/ab-k-12-p-1-15 2 -
/5/tiki-calendar.php 1 -
/checkout/ 2 -
/tw/tiki-calendar.php 1 -
/party-shirts/print-ball-shirts/ab-k-12-p-1-15 2 -
/ms/local/vendor/barryvdh/elfinder-builds/elfinder.html 1 -
/wp-temporary.php 1 asianblue.in
/cart/ 1 -
/wp-content/plugins/simple-ads-manager/js/slider/tmpl.js 2 -
/casual-shirts/cotton-checks-shirts/ab-a-07-c-6-8-c 1 -
/image/cache/data/asianblue-0690-600x800.jpg 1 -
/assets/images/version.php 1 asianblue.in
/casual-shirts/lining-checks-shirts/ab-k-17-c-3-20 2 -
/wp-content/plugins/woocommerce/assets/js/frontend/'+wc_add_to_cart_params.cart_url+' 1 -
/casual-shirts/lining-checks-shirts 1 -
/wp-content/plugins/revslider/temp/update_extract/revslider/db.php 2 -
/ab-k-16-c-3-19 2 -
/image/cache/data/asianblue-slider1-900x280.jpg 6 -
/_sub/authority/elfinder/elfinder.html 1 -
/market/elfinder.html 1 -
/admin/wys/elfinder/elfinder.html 1 -
/erpfilemanager/elfinder.html 1 -
/ 5 -
/media/version.php 1 asianblue.in
/~daycare/assets/elfinder/elfinder.html 1 -
/ee/tiki-calendar.php 1 -
/product/red-white-checks-copy__trashed/ 1 -
/app/elfinder/elfinder.html 1 -
/casual-shirts 12 -
/casual-shirts/ab-a-01-c-6-2 1 -
/ab-a-10-c-1-13 2 -
/casual-shirts/bi-stand-linen-shirts 2 -
/wiki5/tiki-calendar.php 1 -
/image/cache/data/asianblue-0704-600x800.jpg 1 -
/REM_EDX/tiki-calendar.php 1 -
/formal-shirts/ab-k-14-f-3-17 1 -
/dump.php 1 asianblue.in
/family/view/elfinder/elfinder.html 1 -
/image/data/xasian_blue1.png.pagespeed.ic.DWLB5auMYC.png 55 -
/ab-k-02-c-3-3 1 -
/ab-k-06-c-3-7 1 -
/wp-content/uploads/cmsbuild.php 1 asianblue.in
/cmsbuild.php 1 asianblue.in
/ab-k-08-c-6-10-b 1 -
/admin/language/english/total/arhive.php 1 asianblue.in
/wp-content/plugins/wp-symposium/server/php/bQmLEbpaVBBVgm.php 1 -
/casual-shirts/ab-a-07-c-6-8-c 1 -
/about_us 1 -
/_core/utils/elfinder/elfinder.html 1 -
/ab-a-07-c-6-8-c 1 -
/elfinder1/elfinder.html 1 -
/casual-shirts/colar-linen-shirts 1 -
/ab-k-15-c-3-18 2 -
/uploads/admin/elfinder/elfinder.html 1 -
/wp-json/oembed/1.0/embed 2 -
/casual-shirts/dual-checks-shirts 1 -
/backoffice/js/texteditor/elfinder/elfinder.html 1 -
/assets/elfinder1/elfinder.html 1 -
/ab-k-17-c-3-20 1 -
/place1/elfinder/elfinder.html 1 -
/wp-content/plugins/formcraft/file-upload/server/php/upload.php 2 -
/preview/admin/elfinder/elfinder.html 1 -
/twc/tiki-calendar.php 1 -
/store/ 1 -
/modules/tadtools/ckeditor/elFinder/elfinder.html 1 -
/career/elfinder.html 1 -
/backup/elfinder/elfinder.html 1 -
/wp-content/plugins/wp-mobile-detector/cache/db.php 1 -
/administrator/components/com_jvframework/libraries/elfinder-2.0-rc1/elfinder.html 1 -
/main/tiki-calendar.php 1 -
/wp-content/themes/sketch/404.php 1 asianblue.in
/formal-shirts/twil-plan-shirts 1 -
/casual-shirts/linen-line-shirts/ab-a-10-c-1-13 1 -
/bigmart/js/ves_base/elfinder/elfinder.html 1 -
/tiki/tiki-calendar.php 1 -
/assets/elfinder/back/elfinder.html 1 -
/my-account__trashed/lost-password/ 3 -
/formal-shirts 6 -
/news/elfinder.html 1 -
/ab-k-04-f-3-5 2 -
/moodletreinar/elfinder/elfinder.html 1 -
/packages/ahmadazimi/laravel-media-manager/elfinder.html 1 -
/casual-shirts/ab-k-15-c-3-18 3 -
END_SIDER_404

# Host - Pages - Hits - Bandwidth - Last visit date - [Start date of last visit] - [Last page of last visit]
# [Start date of last visit] and [Last page of last visit] are saved only if session is not finished
# The 25 first Hits must be first (order not required for others)
BEGIN_VISITOR 116
104.37.189.66 1018 1057 5358 20170430235128
106.79.229.99 67 215 6518179 20170402161538
64.233.173.158 47 178 5120268 20170421082816
64.233.173.157 40 179 4715679 20170421082802
64.233.173.159 33 198 6435643 20170421082823
47.247.8.44 31 34 149675 20170402160507
207.102.138.158 31 191 4563147 20170427022520
138.197.11.101 21 65 985209 20170422133246
138.197.64.72 20 42 630810 20170418200248
138.197.13.155 20 42 589738 20170420031711
138.197.7.17 19 19 222672 20170421105759
138.197.13.208 19 41 938540 20170425111222
1.187.92.116 19 30 594453 20170410182924
47.247.8.180 18 18 30523 20170402161529
138.197.7.116 18 40 902790 20170426203036
138.197.2.115 17 39 419354 20170423214847
138.197.3.233 17 17 521325 20170429141734
138.197.64.36 17 17 521325 20170428073733
138.197.1.38 16 16 485593 20170430220845
138.197.111.69 16 16 485593 20170426205029
47.247.14.5 16 38 343677 20170406023433
159.203.77.114 16 16 485593 20170425101129
27.7.205.214 15 71 1960094 20170407183619
47.247.15.232 14 317 1901315 20170402110902
117.254.176.158 11 11 29531 20170409162943
138.197.96.238 2 24 417131 20170420024033
199.249.223.64 1 1 35666 20170422005305
185.50.250.142 1 1 35666 20170424000017
103.199.129.217 2 44 919843 20170411180704
107.174.43.75 1 1 138 20170425103101
66.249.83.145 0 7 230857 
45.55.163.133 1 1 35666 20170428043150
206.180.171.149 1 1 35666 20170414184245
64.233.172.159 2 12 549348 20170428114034
31.148.246.191 1 1 35750 20170413055051
192.36.27.7 1 1 35666 20170419153823
64.233.172.143 1 14 474660 20170401014735
66.220.145.245 1 11 211262 20170405175010
52.13.116.95 1 1 35666 20170409011825
109.236.8.8 1 1 35666 20170428030631
171.61.22.160 7 49 1356201 20170411132124
66.249.83.147 0 10 426567 
138.197.7.52 4 48 834262 20170429144017
66.102.8.31 0 1 1767 
66.220.145.244 6 42 1161879 20170405175617
91.199.212.132 0 3 159 
138.197.2.93 2 24 417131 20170418195902
27.97.66.7 3 4 43685 20170417163709
87.228.5.105 1 1 35666 20170410051641
27.97.64.156 3 3 141 20170410190646
69.171.228.121 1 1 35666 20170414072854
66.249.93.150 1 1 35666 20170429192521
122.168.231.189 6 6 15401 20170418064707
109.162.120.81 1 1 35666 20170410060138
144.76.80.151 5 5 164310 20170406214541
66.102.8.29 0 1 22971 
213.159.38.90 1 1 35666 20170422204055
54.196.252.46 1 1 1611 20170430200803
138.197.96.197 2 24 417131 20170421094435
85.102.146.83 2 2 7080 20170429132241
47.247.13.182 1 1 3573 20170406072314
185.170.41.8 1 1 35666 20170418022939
66.249.84.27 0 1 23793 
54.92.176.195 1 1 35666 20170418172338
41.87.237.158 2 2 71332 20170427132540
192.99.55.164 2 2 77476 20170401074801
155.94.214.74 6 48 1361597 20170423120046
45.79.134.54 1 1 35666 20170429212706
54.167.217.9 0 1 27886 
117.254.181.20 3 4 43659 20170409133739
66.249.84.195 0 1 6187 
192.160.102.164 1 1 35666 20170418022940
27.97.73.73 2 29 321342 20170408132655
109.236.8.10 1 1 35666 20170428030632
27.97.226.166 7 43 1187604 20170402031101
86.110.118.142 2 2 39206 20170424155708
54.81.57.56 1 1 35666 20170410175547
122.168.230.87 1 9 343927 20170416023617
66.249.83.150 0 1 15648 
66.249.83.149 1 4 8862 20170428114035
69.46.36.20 4 4 44 20170430093228
64.233.172.145 2 8 142247 20170402155927
47.247.9.102 4 4 24545 20170402160751
178.137.83.166 3 3 71333 20170408175716
27.97.144.169 3 3 156623 20170403031544
95.45.254.126 6 6 197090 20170418131256
64.233.172.147 1 9 105498 20170410153312
27.97.75.150 2 3 423679 20170410154001
91.206.200.82 1 1 35666 20170430052556
185.96.192.120 4 4 143146 20170428163156
45.32.129.1 1 1 36148 20170404085932
164.100.131.226 1 1 36220 20170403031357
64.233.172.131 0 14 401250 
66.220.145.246 0 2 21879 
88.198.22.8 6 6 199976 20170406214420
88.198.43.125 6 47 1344787 20170424133020
47.247.13.103 1 1 484 20170421082723
37.187.132.5 1 1 35696 20170420111638
172.245.99.84 1 1 138 20170403190749
178.210.90.90 1 1 35666 20170429074407
1.187.107.228 0 1 23793 
176.195.105.242 6 38 897235 20170409142822
93.115.95.205 1 1 35666 20170417215646
62.212.73.49 1 1 35666 20170411193330
66.102.8.27 0 1 20950 
46.229.170.197 5 5 178330 20170425012958
87.242.64.210 1 1 35666 20170429203146
178.33.186.151 1 1 35666 20170424162401
146.120.158.81 1 1 35666 20170413055052
54.90.41.238 1 1 35666 20170418081531
86.110.225.246 1 1 18648 20170423113450
66.249.83.143 0 5 274406 
64.233.172.129 0 11 214782 
95.27.71.222 5 37 896041 20170404114511
37.147.106.53 5 37 896751 20170418131315
137.74.167.96 1 1 38738 20170401040906
END_VISITOR

# Date - Pages - Hits - Bandwidth - Visits
BEGIN_DAY 30
20170401 22 22 155000 12
20170402 225 1013 20696920 19
20170403 31 31 201914 11
20170404 54 86 932405 11
20170405 43 91 1431324 10
20170406 88 249 5937968 13
20170407 61 117 1960274 16
20170408 35 94 1331884 13
20170409 61 94 1006247 11
20170410 55 67 1160997 15
20170411 52 138 2341846 13
20170412 25 25 35738 9
20170413 56 88 1064902 13
20170414 32 32 71428 12
20170415 26 26 48 11
20170416 33 41 344034 10
20170417 43 118 985212 13
20170418 82 158 2299931 18
20170419 36 36 35750 12
20170420 54 98 1078303 11
20170421 68 159 2761077 16
20170422 77 131 1561588 16
20170423 78 142 1799790 15
20170424 25 66 1455325 15
20170425 114 158 1913082 16
20170426 62 84 1388467 13
20170427 37 70 998635 8
20170428 64 106 1936058 19
20170429 61 83 1088260 17
20170430 49 50 550827 15
END_DAY

# Session range - Number of visits
BEGIN_SESSION 7
30s-2mn 37
30mn-1h 29
1h+ 45
15mn-30mn 25
0s-30s 245
2mn-5mn 10
5mn-15mn 12
END_SESSION

# URL - Pages - Bandwidth - Entry - Exit
# The 25 first Pages must be first (order not required for others)
BEGIN_SIDER 45
/wp-admin/admin-ajax.php 636 223321 44 41
/wp-cron.php 483 0 242 245
/ 198 4207960 94 89
/wp-login.php 26 82617 8 6
/wp-admin/load-scripts.php 23 2428460 0 1
/product/108/ 19 540388 0 0
/shop/ 19 504362 0 0
/contact-us/ 18 339764 2 3
/about-us/ 16 362376 0 1
/product/linen-yellow/ 16 359739 1 1
/product/106/ 16 410795 0 0
/product/checks-branded-shirt-copy/ 16 452034 0 2
/product/114/ 15 457527 0 1
/product/blue-virus/ 15 370116 0 1
/product/red-white-checks/ 15 348086 1 0
/product/brushing-check/ 14 285049 0 0
/wp-admin/edit.php 14 2581328 5 2
/product/red-checks-shirt/ 14 297086 0 2
/product/checks-branded-shirt/ 14 304970 0 0
/wp-admin/post-new.php 14 2190663 0 1
/wp-content/themes/shop-isle/assets/fonts/flexslider-icon.woff 13 16484 0 0
/wp-admin/load-styles.php 13 863657 2 0
/wp-content/themes/shop-isle/assets/fonts/ElegantIcons.woff 13 827632 1 0
/wp-admin/post.php 13 2075255 0 0
/enquiry/ 12 237315 0 0
/wp-content/themes/shop-isle/assets/fonts/ElegantIcons.ttf 2 118776 0 0
/wp-content/themes/shop-isle/assets/fonts/flexslider-icon.eot 3 6246 0 0
/wp-content/themes/shop-isle/assets/bootstrap/fonts/glyphicons-halflings-regular.woff2 8 144224 2 1
/product/party-wear-shirt/ 2 65774 0 2
/wp-content/plugins/woocommerce/assets/fonts/star.ttf 2 3024 0 0
/wp-content/themes/shop-isle/assets/fonts/flexslider-icon.ttf 2 3784 0 0
/wp-admin/async-upload.php 5 9858 0 0
/wp-content/plugins/woocommerce/assets/fonts/star.eot 2 3352 0 0
/wp-includes/js/tinymce/skins/lightgray/fonts/tinymce.woff 5 51612 0 0
/wp-content/themes/shop-isle/assets/bootstrap/fonts/glyphicons-halflings-regular.woff 5 117120 0 0
/wp-content/themes/shop-isle/assets/bootstrap/fonts/glyphicons-halflings-regular.eot 3 60381 0 0
/wp-content/plugins/woocommerce/assets/fonts/star.woff 10 13040 0 1
/feed/ 1 1611 1 1
/wp-content/plugins/woocommerce/assets/fonts/WooCommerce.woff 5 42528 0 0
/wp-content/themes/shop-isle/assets/bootstrap/fonts/glyphicons-halflings-regular.ttf 2 90808 0 0
/2017/03/ 12 158604 0 0
/wp-includes/js/tinymce/wp-tinymce.php 6 1031088 0 0
/cgi-sys/defaultwebpage.cgi 1 6734 0 1
/wp-admin/ 5 595949 0 0
/wp-content/themes/shop-isle/assets/fonts/ElegantIcons.eot 3 178716 0 1
END_SIDER
