AWSTATS DATA FILE 7.4 (build 20140726)
# If you remove this file, all statistics for date 201709 will be lost/reset.
# Last config file used to build this data file was /home/asianblue/tmp/awstats/awstats.asianblue.in.conf.

# Position (offset in bytes) in this file for beginning of each section for
# direct I/O access. If you made changes somewhere in this file, you should
# also remove completely the MAP section (AWStats will rewrite it at next
# update).
BEGIN_MAP 28
POS_GENERAL 2010                
POS_TIME 2683                
POS_VISITOR 17452               
POS_DAY 22752               
POS_DOMAIN 3541                
POS_LOGIN 4092                
POS_ROBOT 4247                
POS_WORMS 4687                
POS_EMAILSENDER 4818                
POS_EMAILRECEIVER 4961                
POS_SESSION 23573               
POS_SIDER 23785               
POS_FILETYPES 5096                
POS_DOWNLOADS 5420                
POS_OS 6541                
POS_BROWSER 6829                
POS_SCREENSIZE 8532                
POS_UNKNOWNREFERER 8606                
POS_UNKNOWNREFERERBROWSER 9175                
POS_ORIGIN 9412                
POS_SEREFERRALS 9556                
POS_PAGEREFS 9711                
POS_SEARCHWORDS 10004               
POS_KEYWORDS 10156               
POS_MISC 2346                
POS_ERRORS 10215               
POS_CLUSTER 3948                
POS_SIDER_404 10388               
END_MAP

# LastLine    = Date of last record processed - Last record line number in last log - Last record offset in last log - Last record signature value
# FirstTime   = Date of first visit for history file
# LastTime    = Date of last visit for history file
# LastUpdate  = Date of last update - Nb of parsed records - Nb of parsed old records - Nb of parsed new records - Nb of parsed corrupted - Nb of parsed dropped
# TotalVisits = Number of visits
# TotalUnique = Number of unique visitors
# MonthHostsKnown   = Number of hosts known
# MonthHostsUnKnown = Number of hosts unknown
BEGIN_GENERAL 8
LastLine 20171002201606 1 0 11814445596165
FirstTime 20170901151825
LastTime 20170930104151
LastUpdate 20171003120253 1 0 0 0 0
TotalVisits 415                 
TotalUnique 115                 
MonthHostsKnown 0                   
MonthHostsUnknown 139                 
END_GENERAL

# Misc ID - Pages - Hits - Bandwidth
BEGIN_MISC 10
DirectorSupport 0 0 0
JavascriptDisabled 0 0 0
WindowsMediaPlayerSupport 0 0 0
AddToFavourites 0 61 0
PDFSupport 0 0 0
RealPlayerSupport 0 0 0
QuickTimeSupport 0 0 0
JavaEnabled 0 0 0
FlashSupport 0 0 0
TotalMisc 0 0 0
END_MISC

# Hour - Pages - Hits - Bandwidth - Not viewed Pages - Not viewed Hits - Not viewed Bandwidth
BEGIN_TIME 24
0 57 57 214416 32 36 456538
1 58 122 1997785 43 47 618755
2 92 274 6591642 32 63 1024846
3 93 256 5895693 33 98 1709351
4 61 105 1843561 69 174 3478430
5 55 108 1567222 36 47 579578
6 64 87 701977 30 50 406360
7 72 104 975151 30 40 535571
8 68 132 1907493 45 109 2250760
9 31 42 746101 40 45 972773
10 85 169 3276492 55 87 1528569
11 44 66 453044 23 23 305001
12 101 195 4574910 51 98 2235809
13 82 124 2306153 144 170 1331584
14 77 77 1184052 37 46 632743
15 46 65 793994 33 56 980282
16 51 79 1370866 80 92 1741186
17 46 105 1853794 27 36 523166
18 57 77 1182941 29 44 751907
19 68 152 2751926 28 36 473941
20 80 80 72816 26 56 1096366
21 43 105 1184958 45 55 908035
22 99 178 3107631 46 86 1119083
23 75 97 1363056 28 39 454158
END_TIME

# Domain - Pages - Hits - Bandwidth
# The 25 first Pages must be first (order not required for others)
BEGIN_DOMAIN 23
us 1385 2104 27359001
ca 64 294 7700526
in 35 204 5597411
hk 26 26 656515
de 22 64 1861045
ua 12 12 264145
it 10 66 2003042
br 8 8 147028
gb 6 9 178791
ro 6 6 81709
ru 5 5 90828
th 5 36 893437
nl 4 4 142848
au 4 4 455342
tr 3 3 107136
cn 2 2 71424
fr 2 3 93174
lu 1 1 35712
md 1 1 35712
se 1 1 35712
cl 1 1 35712
am 1 1 35712
dk 1 1 35712
END_DOMAIN

# Cluster ID - Pages - Hits - Bandwidth
BEGIN_CLUSTER 0
END_CLUSTER

# Login - Pages - Hits - Bandwidth - Last visit
# The 10 first Pages must be first (order not required for others)
BEGIN_LOGIN 0
END_LOGIN

# Robot ID - Hits - Bandwidth - Last visit - Hits on robots.txt
# The 25 first Hits must be first (order not required for others)
BEGIN_ROBOT 8
bot[\s_+:,\.\;\/\\-] 354 8041007 20170930101200 82
googlebot 234 5460138 20170929214827 23
spider 168 4530397 20170930104151 1
bingpreview 86 2133155 20170926034150 0
unknown 36 2412 20170929144416 36
googlebot\-image 4 132085 20170914130028 0
php 4 115576 20170927071234 0
netcraft 2 71424 20170907131638 0
END_ROBOT

# Worm ID - Hits - Bandwidth - Last visit
# The 5 first Hits must be first (order not required for others)
BEGIN_WORMS 0
END_WORMS

# EMail - Hits - Bandwidth - Last visit
# The 20 first Hits must be first (order not required for others)
BEGIN_EMAILSENDER 0
END_EMAILSENDER

# EMail - Hits - Bandwidth - Last visit
# The 20 first hits must be first (order not required for others)
BEGIN_EMAILRECEIVER 0
END_EMAILRECEIVER

# Files type - Hits - Bandwidth - Bandwidth without compression - Bandwidth after compression
BEGIN_FILETYPES 14
woff 59 1375800 0 0
gif 2 1694 0 0
php 1032 217101 0 0
txt 44 4733 0 0
ttf 3 120288 0 0
js 736 12842282 0 0
jpg 145 7285543 0 0
woff2 9 162252 0 0
svg 1 1521 0 0
png 16 175066 0 0
html 496 13340419 0 0
css 307 12207162 0 0
xml 4 4180 0 0
Unknown 2 179633 0 0
END_FILETYPES

# Downloads - Hits - Bandwidth
BEGIN_DOWNLOADS 15
/.well-known/pki-validation/158127723DFE970996D17D263421C4D2.txt 14 0 1078
/.well-known/pki-validation/6C7881735F73FAC9A6B9108DA2F21A45.txt 6 0 462
/.well-known/pki-validation/5882C8AD15A7B0AE0E8FC4E33AB024E8.txt 5 0 385
/.well-known/pki-validation/F71D0B7BBBEC36BA1C42D2092D6950D0.txt 4 0 308
/.well-known/pki-validation/4DAF142372D707B0DBEF9BF93E6B1153.txt 3 0 231
/wp-content/plugins/contact-form-7/license.txt 2 0 1590
/.well-known/pki-validation/E546BC51B1661219C1B393C33784EFC0.txt 2 0 154
/.well-known/pki-validation/EC69C884926EE628925CB94EDF0C15D1.txt 1 0 64
/.well-known/pki-validation/E84071971352D6AA0C29F8AD70B7FD75.txt 1 0 64
/.well-known/pki-validation/5838A68CA5AB3461E45DBCB9A38CC31D.txt 1 0 64
/.well-known/pki-validation/FC6F365C69E27BA4013EA7769F49A7D0.txt 1 0 64
/.well-known/pki-validation/5E98FEC2BAFE5DC254C5EAD04B04FA79.txt 1 0 64
/.well-known/pki-validation/4030121B09191D783999B57822323107.txt 1 0 77
/.well-known/pki-validation/DA916DCDCE9F264C4B5A4DBCB756D4B7.txt 1 0 64
/.well-known/pki-validation/B558170B33E77B3598C5F1E3679E3461.txt 1 0 64
END_DOWNLOADS

# OS ID - Hits
BEGIN_OS ID - Hits - Pages 16
ios_iphone 52 10
linuxandroid 349 62
macosx9 109 48
macosx 71 22
win7 453 165
winlong 38 6
win2000 2 2
bsdfreebsd 1 0
winnt 137 37
win8 13 11
win8.1 44 30
winxp 33 32
macosx8 1 1
linux 310 68
macosx7 4 3
Unknown 1239 1108
END_OS

# Browser ID - Hits - Pages
BEGIN_BROWSER 82
firefox49.0 5 2
firefox3.6.28 1 1
chrome47.0.1335.75 1 1
chrome14.0.803.0 1 1
chrome50.0.2661.75 7 7
chrome49.0.2623.75 10 9
opera20.0.1387.82 1 1
firefox28.0 56 31
safari7.0 1 1
firefox32.0 2 1
chrome21.0.1180.82 3 3
firefox54.0 85 14
chrome19.0.1047.0 1 0
mozilla 22 14
opera36.0.2130.32 5 5
firefox50.0 8 8
safari7.0.3 26 10
chrome38.0.2125.101 191 32
chrome5.0.375.99 2 2
msie9.0 135 19
msie7.0 3 3
chrome45.0.2454.94 1 1
firefox24.0 6 6
firefox53.0 1 1
chrome57.0.2987.133 1 1
firefox2.0.0.9 1 1
chrome52.0.2743.116 1 1
msie10.0 30 15
firefox47.0 54 29
chrome56.0.2924.87 54 10
chrome22.0.1229.94 32 2
chrome58.0.3029.83 36 6
safari10.0.3 25 3
safari4.0.5 2 2
firefox33.0 4 4
chrome58.0.3029.81 49 7
chrome60.0.3112.113 118 21
Unknown 1094 1052
opera42.0.4900.9638 2 2
chrome60.0.3112.116 98 14
chrome60.0.3112.78 5 4
chrome46.0.2490.86 1 1
firefox36.0 2 2
chrome34.0.1847.131 74 33
chrome37.0.2062.120 4 4
firefox52.0 2 2
chrome58.0.3029.110 4 4
msie11.0 2 2
chrome53.0.2785.124 103 17
chrome34.0.1847.116 2 2
chrome34.0.1847.137 21 11
firefox27.0 1 1
safari10.1 1 1
chrome54.0.2840.99 17 17
chrome55.1.6115.0843 2 2
chrome35.0.1916.114 24 9
chrome60.0.3112.90 2 1
firefox30.0 5 5
chrome31.0.1650.16 1 1
opera8.50 1 1
chrome40.0.2214.115 1 1
chrome15.0.874.121 6 6
chrome59.0.3071.125 14 13
firefox45.69.16 2 2
firefox21.0 24 4
firefox3.6.3 1 1
msie6.0 19 19
opera46.0.2597.57 6 5
firefox52.41.98 2 2
chrome59.0.3071.115 56 9
chrome13.0.782.20 1 1
firefox11.0 1 0
safari10.0 49 7
chrome46.0.2490.80 1 1
chrome17.0.963.65 1 0
opera12.16 123 42
firefox3.0.11 1 1
firefox45.0 1 1
android 44 2
firefox29.0 52 23
firefox51.0 1 1
chrome41.0.2228.0 1 1
END_BROWSER

# Screen size - Hits
BEGIN_SCREENSIZE 0
END_SCREENSIZE

# Unknown referer OS - Last visit date
BEGIN_UNKNOWNREFERER 8
Mozilla/5.0_(compatible;_Dataprovider.com;) 20170929144425
COMODO_DCV 20170916215517
WordPress/4.7.2;_http://asianblue.in 20170930104151
redback/v0-570-g26f8c96 20170929080427
python-requests/2.14.2 20170907125511
Opera/9.80_(Android;_Opera_Mini/28.0.2254/67.406;_U;_hi)_Presto/2.12.423_Version/12.16 20170904230110
Mozilla/5.0_(compatible;_Embedly/0.2;__http://support.embed.ly/) 20170907160306
Mozilla/5.0_(compatible;_Embedly/0.2;_snap;__http://support.embed.ly/) 20170907160304
END_UNKNOWNREFERER

# Unknown referer Browser - Last visit date
BEGIN_UNKNOWNREFERERBROWSER 4
COMODO_DCV 20170916215517
WordPress/4.7.2;_http://asianblue.in 20170930104151
redback/v0-570-g26f8c96 20170929080427
python-requests/2.14.2 20170907125511
END_UNKNOWNREFERERBROWSER

# Origin - Pages - Hits 
BEGIN_ORIGIN 6
From0 214 467
From1 17 17
From2 6 6
From3 10 10
From4 1358 2356
From5 0 0
END_ORIGIN

# Search engine referers ID - Pages - Hits
BEGIN_SEREFERRALS 1
google 6 6
END_SEREFERRALS

# External page referers - Pages - Hits
# The 25 first Pages must be first (order not required for others)
BEGIN_PAGEREFS 5
http://burger-imperia.com 4 4
http://m.facebook.com 3 3
http://lm.facebook.com/l.php 1 1
https://www.facebook.com 1 1
https://l.facebook.com 1 1
END_PAGEREFS

# Search keyphrases - Number of search
# The 10 first number of search must be first (order not required for others)
BEGIN_SEARCHWORDS 0
END_SEARCHWORDS

# Search keywords - Number of search
# The 25 first number of search must be first (order not required for others)
BEGIN_KEYWORDS 0
END_KEYWORDS

# Errors - Hits - Bandwidth
BEGIN_ERRORS 8
503 293 684929
404 251 4704973
403 15 3390
301 100 237
405 6 252
401 4 432
206 10 234385
302 5 0
END_ERRORS

# URL with 404 errors - Hits - Last URL referrer
BEGIN_SIDER_404 134
/xmlrppc.php 1 asianblue.in
/js/mage/cookies.js 2 asianblue.in
/wp-content/plugins/magic-fields/MF_Constant.php 1 -
/formal-shirts 1 -
/revision/popup-pomo.php 4 http://asianblue.in/revision/popup-pomo.php
/profile/popup-pomo.php 1 http://asianblue.in/profile/popup-pomo.php
/wp-content/upgrade/theme-compat/popup-pomo.php 2 http://asianblue.in/wp-content/upgrade/theme-compat/popup-pomo.php
/wp-content/plugins/wp-filemanager/fm.php 1 -
/ab-k-08-c-3-11-c 1 -
/wp-content/plugins/another-wordpress-classifieds-plugin/AWPCP.po 1 -
/wp-content/plugins/simple-ads-manager/js/slider/tmpl.js 2 -
/paypalapi/popup-pomo.php 2 http://asianblue.in/paypalapi/popup-pomo.php
/casual-shirts/linen-line-shirts 3 -
/wp-content/plugins/category-grid-view-gallery/cat_grid.php 1 -
/1.php 1 asianblue.in
/ekomi/popup-pomo.php 2 http://asianblue.in/ekomi/popup-pomo.php
/temp.php 2 asianblue.in
/up.php 1 asianblue.in
/wp-content/plugins/user-avatar/readme.txt 1 -
/wp-content/plugins/wp-homepage-slideshow/functions.php 1 -
/wp-content/plugins/front-end-upload/destination.php 2 -
/sitemap.xml 1 -
/wp-content/plugins/formcraft/file-upload/server/php/upload.php 2 -
/followup/popup-pomo.php 1 http://asianblue.in/followup/popup-pomo.php
/wp-content/plugins/wp-mobile-detector/cache/db.php 1 -
/terma/popup-pomo.php 1 http://asianblue.in/terma/popup-pomo.php
/about_us 2 -
/styles/popup-pomo.php 2 http://asianblue.in/styles/popup-pomo.php
/wp-content/plugins/wp-e-commerce/license.txt 1 -
/default.php 2 http://www.google.com/
/indes.php 1 asianblue.in
/casual-shirts/twil-checks-shirts 6 -
/install/popup-pomo.php 1 http://asianblue.in/install/popup-pomo.php
/casual-shirts/lining-checks-shirts 2 -
/casual-shirts/w-checks-shirts 3 -
/cache.php 2 asianblue.in
/database.php 1 asianblue.in
/revisiona/popup-pomo.php 1 http://asianblue.in/revisiona/popup-pomo.php
/wp-content/plugins/editor-extender/.submenu.php 1 http://asianblue.in/wp-content/plugins/editor-extender/.submenu.php
/wp-content/plugins/cimy-user-extra-fields/README_OFFICIAL.txt 1 -
/ab-K-09-c-1-12 3 -
/mondialrelay/popup-pomo.php 1 http://asianblue.in/mondialrelay/popup-pomo.php
/ab-k-12-p-1-15 1 -
/ytt.php 2 asianblue.in
/wp-content/plugins/user-photo/admin.css 1 -
/wp-inc.php 2 http://asianblue.in/wp-inc.php
/wp-content/plugins/mac-dock-gallery/bugslist.txt 1 -
/wp-content/plugins/zingiri-web-shop/admin.css 1 -
/updatecorea/popup-pomo.php 1 http://asianblue.in/updatecorea/popup-pomo.php
/networksa/popup-pomo.php 1 http://asianblue.in/networksa/popup-pomo.php
/casual-shirts 3 -
/robots.php 1 asianblue.in
/ab-k-15-c-3-18 1 -
/setupconfiga/popup-pomo.php 1 http://asianblue.in/setupconfiga/popup-pomo.php
/wp-content/plugins/wp-mobile-detector/cache/db1.php 1 -
/wp-content/plugins/auto-attachments/a-a.css 1 -
/wp-conde.php 1 asianblue.in
/wp-includes/requests/utility/.path.php 3 http://asianblue.in/wp-includes/requests/utility/.path.php
/cgi-bin/temp.php 1 asianblue.in
/network/popup-pomo.php 1 http://asianblue.in/network/popup-pomo.php
/wp-content/uploads/2015/09/class-wp-upgrade.php 2 http://www.google.com/
/maint/popup-pomo.php 1 http://asianblue.in/maint/popup-pomo.php
/wp-content/plugins/nmedia-user-file-uploader/readme.txt 1 -
/wp-content/uploads/2015/05/upl.php 4 http://www.google.com/
/modx.php 1 asianblue.in
/cod.php 2 asianblue.in
/party-shirts 5 -
/formal-shirts/twil-plan-shirts 5 -
/wp-content/plugins/ninja-forms/ninja_forms.php 1 -
/ab-k-08-c-6-10-b 2 -
/yt.php 1 asianblue.in
/yt2.php 2 asianblue.in
/iadvize/popup-pomo.php 2 http://asianblue.in/iadvize/popup-pomo.php
/tools/popup-pomo.php 1 http://asianblue.in/tools/popup-pomo.php
/networka/popup-pomo.php 1 http://asianblue.in/networka/popup-pomo.php
/formal-shirts/zero-checks-shirts 3 -
/rnnvhs.php 1 asianblue.in
/casual-shirts/colar-linen-shirts 1 -
/wp-content/plugins/revslider/temp/update_extract/revslider/db.php 3 -
/wp-content/plugins/wp-symposium/server/php/sJcaKDCIewfxRd.php 1 -
/pressthis/popup-pomo.php 1 http://asianblue.in/pressthis/popup-pomo.php
/wp-blog-mail.php 2 http://asianblue.in/wp-blog-mail.php
/parseopmla/popup-pomo.php 1 http://asianblue.in/parseopmla/popup-pomo.php
/casual-shirts/dual-checks-shirts 1 -
/optionsa/popup-pomo.php 1 http://asianblue.in/optionsa/popup-pomo.php
/canadapost/popup-pomo.php 1 http://asianblue.in/canadapost/popup-pomo.php
/casual-shirts/cad-shirts 4 -
/blog/xmlrpc.php 1 -
/wp-content/plugins/resume-submissions-job-postings/installer.php 1 -
/sample.php 1 asianblue.in
/gadsense/popup-pomo.php 4 http://asianblue.in/gadsense/popup-pomo.php
/sfn.php 1 asianblue.in
/wp-config.lib.php 2 http://asianblue.in/wp-config.lib.php
/wp-content/plugins/wp-image-news-slider/functions.php 1 -
/casual-shirts/bi-stand-linen-shirts 2 -
/scriptsa/popup-pomo.php 1 http://asianblue.in/scriptsa/popup-pomo.php
/wp-includes/LICENSE.php 1 asianblue.in
/party-shirts/print-star-shirts 3 -
/ab-k-14-f-3-17 3 -
/wp-content/plugins/wpmarketplace/readme.txt 2 -
/wp-content/plugins/simple-dropbox-upload-form/ 1 -
/wp-content/plugins/woocommerce/dummy_data.xml 2 -
/wp-content/plugins/fcchat/default.png 1 -
/news_parser.class.php 1 asianblue.in
/permalinka/popup-pomo.php 6 http://asianblue.in/permalinka/popup-pomo.php
/formal-shirts/formal-line-shirts 1 -
/wp-content/plugins/user-meta/readme.txt 1 -
/widgets/popup-pomo.php 3 http://asianblue.in/widgets/popup-pomo.php
/ab-k-16-c-3-19 2 -
/phpmail/popup-pomo.php 3 http://asianblue.in/phpmail/popup-pomo.php
/wp-content/plugins/custom-content-type-manager/index.html 1 -
/postnew/popup-pomo.php 2 http://asianblue.in/postnew/popup-pomo.php
/ab-a-11-c-1-14 2 -
/administrator/components/com_joomlaupdate/restore.php 2 -
/toolsa/popup-pomo.php 2 http://asianblue.in/toolsa/popup-pomo.php
/wp-includes/pomo/.dbmsc.php 3 http://asianblue.in/wp-includes/pomo/.dbmsc.php
/wp-content/plugins/nextgen-gallery/changelog.txt 1 -
/postnewa/popup-pomo.php 1 http://asianblue.in/postnewa/popup-pomo.php
/wp-content/plugins/wp-editor/readme.txt 1 -
/hipay/popup-pomo.php 2 http://asianblue.in/hipay/popup-pomo.php
/party-shirts/print-ball-shirts 2 -
/casual-shirts/cotton-checks-shirts 5 -
/formal%20Checks%20shirt%20,checks%20shirts,%20cotton%20shirts 2 -
/wp-content/plugins/wpstorecart/lgpl.txt 1 -
/wp-temporary.php 1 asianblue.in
/wp-content/plugins/wp-property/action_hooks.php 1 -
/ 26 http://asianblue.in/
/casual-shirts/without-washing-shirts 1 -
/general/popup-pomo.php 1 http://asianblue.in/general/popup-pomo.php
/image/cache/data/asianblue-slider1-900x280.jpg 2 -
/wp-content/plugins/gallery-plugin/gallery-plugin.php 1 -
/wp-content/plugins/ckeditor-for-wordpress/ckeditor.config.js 1 -
/wp-content/plugins/revslider/temp/update_extract/revslider/db1.php 1 -
/wp-content/plugins/font-uploader/font-uploader-free.php 1 -
END_SIDER_404

# Host - Pages - Hits - Bandwidth - Last visit date - [Start date of last visit] - [Last page of last visit]
# [Start date of last visit] and [Last page of last visit] are saved only if session is not finished
# The 25 first Hits must be first (order not required for others)
BEGIN_VISITOR 139
104.37.189.66 1021 1060 5468 20170930104151
23.254.165.101 44 44 1223487 20170907125511
107.167.104.41 42 123 2962870 20170904230110
207.102.138.158 27 155 3714592 20170928022502
118.140.38.6 26 26 656515 20170924140829
159.203.174.228 17 37 1110364 20170924180725
138.197.64.43 17 37 1110364 20170914103818
23.254.201.174 17 17 521995 20170907131758
138.197.64.73 17 37 1110364 20170921123739
138.197.7.85 17 37 1110364 20170927230852
138.197.64.70 17 37 1110364 20170911030503
138.197.7.56 17 37 1110364 20170907211743
138.197.11.133 17 37 1110364 20170917162853
52.173.138.186 16 16 486283 20170914133618
138.197.73.64 16 36 854452 20170924173024
138.197.73.210 16 36 1074586 20170914102701
103.21.53.46 12 67 1842959 20170920035110
167.114.65.240 12 12 384641 20170929144427
213.239.205.118 11 11 340450 20170908021120
47.247.9.238 9 53 1625653 20170920045609
64.233.173.21 9 28 893429 20170921191703
201.18.18.173 8 8 147028 20170929185841
64.233.173.20 7 35 916233 20170921191706
219.91.210.246 7 49 1356247 20170920081644
49.15.165.16 7 49 1356247 20170920034053
204.79.180.4 0 5 193761 
204.79.180.15 0 3 154876 
185.96.192.120 3 3 107136 20170922042040
138.197.111.117 2 24 417177 20170921102318
49.15.165.26 5 24 470245 20170905102941
34.228.238.248 1 1 35712 20170928144413
204.79.180.22 1 7 177903 20170919022125
85.93.218.204 1 1 35712 20170923222632
45.55.252.30 1 1 35712 20170911022258
138.197.7.134 1 20 615338 20170904150726
204.79.180.12 0 4 104822 
204.79.180.2 0 1 7677 
107.21.253.49 0 1 29095 
86.162.220.147 1 1 0 20170908004328
70.35.198.245 1 1 35712 20170918104105
47.247.12.176 6 6 20008 20170916064049
204.79.180.5 0 2 1675 
74.208.163.15 2 2 71424 20170903041311
66.102.6.125 1 1 35712 20170909064338
69.46.36.20 3 3 33 20170923114333
66.249.93.6 2 2 71424 20170928061939
54.81.110.113 1 1 35712 20170910003927
157.185.130.3 1 43 1271499 20170922133558
107.178.113.231 1 1 3540 20170907134803
188.233.83.29 1 1 35712 20170922063602
204.79.180.14 0 2 3179 
23.254.201.240 3 3 81192 20170907095720
93.51.213.187 1 15 575371 20170923032833
69.171.214.54 1 1 35712 20170913013546
223.184.126.63 1 1 484 20170907024323
192.99.55.164 2 2 71424 20170923024905
138.197.111.113 2 24 417177 20170927112750
217.79.191.106 1 1 35712 20170910225351
110.78.149.43 5 36 893437 20170907055609
106.11.155.181 1 1 35712 20170918062231
52.173.199.170 1 1 35712 20170914003319
46.119.117.165 1 1 35712 20170902143356
45.58.38.113 2 2 58452 20170908141541
46.162.203.56 1 1 35712 20170929094732
49.15.164.253 1 11 477035 20170905095325
204.79.180.13 0 2 108598 
54.211.247.142 1 1 35712 20170921121019
66.102.6.127 1 1 35712 20170919065908
199.249.223.77 1 1 35712 20170924005242
139.59.42.246 4 4 455342 20170907024322
204.79.180.21 0 4 49693 
204.79.180.9 0 1 1458 
204.79.180.10 0 2 63047 
75.149.221.170 2 2 71424 20170929151730
209.208.26.242 6 6 175356 20170919090110
64.233.173.19 6 47 1306899 20170921191707
204.79.180.3 0 4 13231 
204.79.180.6 0 3 131438 
111.93.85.173 1 1 35712 20170906122216
204.79.180.17 0 3 43027 
52.90.130.113 1 1 35712 20170917182045
223.184.51.204 1 1 484 20170921191707
178.17.174.198 1 1 35712 20170927000642
172.82.184.162 1 1 35712 20170929092130
91.199.212.132 0 3 231 
163.172.4.153 5 5 178560 20170926224545
176.31.47.194 0 1 21696 
54.221.199.147 1 2 57788 20170907160304
106.11.157.115 1 1 35712 20170915155404
88.198.22.8 1 1 35712 20170908013516
138.197.96.201 2 24 417177 20170914063526
138.197.111.100 2 24 417177 20170907174954
138.197.111.69 2 24 417177 20170924083134
204.79.180.16 0 2 24811 
188.213.173.56 1 1 35712 20170923153308
18.221.151.44 2 4 73014 20170925100319
138.197.111.45 2 24 417177 20170911011214
54.225.104.196 1 2 54264 20170907160306
54.204.20.249 1 3 82135 20170907160305
54.221.198.105 0 2 21524 
136.243.67.139 7 49 1377747 20170916022139
188.233.7.180 1 1 16104 20170908085444
31.184.224.140 1 1 35712 20170910225341
204.79.180.8 1 3 84977 20170907123611
204.79.180.18 1 2 39056 20170919022112
212.237.27.97 1 1 35712 20170926121513
178.137.88.27 3 3 71425 20170915224240
193.15.16.4 1 1 35712 20170926033516
91.200.12.22 2 2 39252 20170921041607
131.196.13.5 1 17 527961 20170919174232
69.163.185.19 1 1 35739 20170920075541
23.91.70.6 1 1 35712 20170920104152
62.18.22.124 7 49 1356247 20170929193135
204.79.180.23 0 5 79449 
209.126.119.176 1 1 35712 20170930031950
49.15.186.101 0 1 57998 
138.197.96.207 2 24 417177 20170904052053
181.214.171.103 1 1 35712 20170921151930
204.79.180.11 0 1 1398 
54.89.120.87 1 1 35712 20170920113634
109.236.8.10 2 2 71424 20170929080427
89.163.140.124 1 1 35712 20170913004532
5.135.138.188 1 1 35739 20170927214439
47.247.15.98 7 49 1356247 20170920124246
87.98.227.4 1 1 35739 20170922104938
185.166.27.12 2 2 3300 20170918220711
45.32.128.51 1 1 35712 20170909094848
54.90.192.111 1 1 35712 20170924003354
204.79.180.1 1 3 39646 20170907123621
144.76.80.151 1 1 35712 20170908012938
199.187.241.236 6 48 1361643 20170909014446
188.213.175.168 5 5 45997 20170927084432
204.79.180.7 0 3 26974 
204.79.180.0 0 6 275984 
54.225.33.229 1 1 35712 20170912022921
184.73.119.109 1 1 484 20170917081758
54.204.20.250 0 1 15648 
46.229.170.197 4 4 142848 20170923053223
91.200.12.91 6 6 117756 20170930012028
END_VISITOR

# Date - Pages - Hits - Bandwidth - Visits
BEGIN_DAY 30
20170901 21 21 84 4
20170902 31 31 35760 12
20170903 47 47 107244 11
20170904 84 238 4970353 17
20170905 50 80 1041122 10
20170906 32 32 75024 11
20170907 189 347 7522696 22
20170908 59 59 486501 18
20170909 48 90 1468827 13
20170910 43 43 107232 14
20170911 84 158 2503710 13
20170912 16 16 35712 10
20170913 46 46 146496 12
20170914 101 163 3124302 14
20170915 33 33 178620 12
20170916 60 177 2354878 18
20170917 46 66 1146656 10
20170918 40 40 74856 14
20170919 29 77 1584841 15
20170920 68 293 7644552 21
20170921 73 158 3054191 20
20170922 28 70 1414422 16
20170923 36 50 862171 16
20170924 95 157 3109980 16
20170925 35 37 108834 12
20170926 41 41 107256 13
20170927 56 98 1645037 17
20170928 44 76 975040 13
20170929 54 96 1956265 15
20170930 16 16 75012 6
END_DAY

# Session range - Number of visits
BEGIN_SESSION 7
15mn-30mn 21
2mn-5mn 4
30mn-1h 35
5mn-15mn 11
30s-2mn 40
1h+ 52
0s-30s 252
END_SESSION

# URL - Pages - Bandwidth - Entry - Exit
# The 25 first Pages must be first (order not required for others)
BEGIN_SIDER 42
/wp-cron.php 581 0 226 240
/wp-admin/admin-ajax.php 427 2557 43 28
/ 207 5250136 129 105
/shop/ 25 654558 1 0
/about-us/ 23 487976 0 0
/contact-us/ 22 498962 2 3
/wp-login.php 20 68729 5 10
/product/114/ 18 573690 0 0
/product/106/ 18 543022 0 0
/product/checks-branded-shirt-copy/ 18 562640 0 0
/wp-content/themes/shop-isle/assets/fonts/ElegantIcons.woff 18 1145952 1 1
/product/blue-virus/ 17 515844 0 0
/product/108/ 17 522228 0 0
/product/red-white-checks/ 17 559206 0 0
/wp-content/plugins/woocommerce/assets/fonts/star.woff 17 22168 1 0
/enquiry/ 17 346228 0 0
/wp-content/themes/shop-isle/assets/fonts/flexslider-icon.woff 16 20288 0 3
/product/brushing-check/ 15 493830 0 1
/product/checks-branded-shirt/ 15 494940 0 1
/product/linen-yellow/ 14 457730 0 4
/2017/03/ 14 315672 0 6
/product/red-checks-shirt/ 14 461216 0 0
/wp-content/themes/shop-isle/assets/bootstrap/fonts/glyphicons-halflings-regular.woff2 9 162252 2 0
/wp-content/themes/shop-isle/assets/bootstrap/fonts/glyphicons-halflings-regular.woff 8 187392 0 1
/product/plain-white-shirt/ 4 99358 0 1
/2017/03/02/hello-world/ 3 77854 0 0
/feed/ 3 4833 0 1
/comments/feed/ 2 4048 0 0
/index.php 3 107217 3 3
/feed/rdf/ 1 1452 0 0
/category/uncategorized/ 2 45526 0 0
/index.php/wp-json/wp/v2/posts 1 1650 1 0
/2017/03/02/ 2 45128 0 0
/wp-json/ 1 177983 0 0
/index.php/wp-json/wp/v2/posts/ 1 1650 0 1
/author/b_user/ 2 45426 0 0
/wp-admin/load-styles.php 1 38598 1 0
/wp-includes/wlwmanifest.xml 4 4180 0 4
/wp-content/plugins/woocommerce/assets/fonts/star.ttf 1 1512 0 0
/wp-json 1 177983 0 1
/product/party-wear-shirt/ 4 99283 0 0
/wp-content/themes/shop-isle/assets/fonts/ElegantIcons.ttf 2 118776 0 1
END_SIDER
