AWSTATS DATA FILE 7.6 (build 20161204)
# If you remove this file, all statistics for date 201802 will be lost/reset.
# Last config file used to build this data file was /home/asianblue/tmp/awstats/awstats.asianblue.in.conf.

# Position (offset in bytes) in this file for beginning of each section for
# direct I/O access. If you made changes somewhere in this file, you should
# also remove completely the MAP section (AWStats will rewrite it at next
# update).
BEGIN_MAP 28
POS_GENERAL 2010                
POS_TIME 2692                
POS_VISITOR 26162               
POS_DAY 32658               
POS_DOMAIN 3548                
POS_LOGIN 4205                
POS_ROBOT 4360                
POS_WORMS 5342                
POS_EMAILSENDER 5473                
POS_EMAILRECEIVER 5616                
POS_SESSION 33336               
POS_SIDER 33548               
POS_FILETYPES 5751                
POS_DOWNLOADS 6071                
POS_OS 7480                
POS_BROWSER 7847                
POS_SCREENSIZE 9498                
POS_UNKNOWNREFERER 9572                
POS_UNKNOWNREFERERBROWSER 10138               
POS_ORIGIN 10448               
POS_SEREFERRALS 10592               
POS_PAGEREFS 10779               
POS_SEARCHWORDS 11029               
POS_KEYWORDS 11181               
POS_MISC 2355                
POS_ERRORS 11240               
POS_CLUSTER 4061                
POS_SIDER_404 11440               
END_MAP

# LastLine    = Date of last record processed - Last record line number in last log - Last record offset in last log - Last record signature value
# FirstTime   = Date of first visit for history file
# LastTime    = Date of last visit for history file
# LastUpdate  = Date of last update - Nb of parsed records - Nb of parsed old records - Nb of parsed new records - Nb of parsed corrupted - Nb of parsed dropped
# TotalVisits = Number of visits
# TotalUnique = Number of unique visitors
# MonthHostsKnown   = Number of hosts known
# MonthHostsUnKnown = Number of hosts unknown
BEGIN_GENERAL 8
LastLine 20180224093309 191 42365 9585688256330
FirstTime 20180201021615
LastTime 20180224093309
LastUpdate 20180224121209 191 0 191 0 0
TotalVisits 434                 
TotalUnique 166                 
MonthHostsKnown 0                   
MonthHostsUnknown 167                 
END_GENERAL

# Misc ID - Pages - Hits - Bandwidth
BEGIN_MISC 10
JavaEnabled 0 0 0
DirectorSupport 0 0 0
FlashSupport 0 0 0
WindowsMediaPlayerSupport 0 0 0
JavascriptDisabled 0 0 0
QuickTimeSupport 0 0 0
RealPlayerSupport 0 0 0
AddToFavourites 0 70 0
TotalMisc 0 0 0
PDFSupport 0 0 0
END_MISC

# Hour - Pages - Hits - Bandwidth - Not viewed Pages - Not viewed Hits - Not viewed Bandwidth
BEGIN_TIME 24
0 49 49 191983 42 51 859058
1 35 35 187751 29 36 580189
2 66 66 253709 112 159 3028215
3 20 20 146309 216 267 1898648
4 83 83 380562 28 41 331647
5 160 890 19450253 85 160 2279194
6 123 175 1571884 41 51 816921
7 32 32 238946 23 34 346057
8 45 45 39393 20 25 528127
9 43 117 2458726 24 45 806174
10 30 31 283536 26 42 935258
11 60 134 2371288 66 70 1372903
12 121 258 5596319 110 150 2594355
13 46 78 1104332 27 70 1321399
14 24 46 488084 25 43 901707
15 42 42 153860 1560 1578 5087366
16 133 182 2751444 156 182 1866199
17 57 57 183222 27 39 532657
18 31 31 39289 33 96 2134087
19 64 204 5277397 42 64 691653
20 47 89 1359895 22 34 397593
21 38 84 42760 37 50 632916
22 46 46 258493 73 82 806886
23 52 54 171079 101 121 2363994
END_TIME

# Domain - Pages - Hits - Bandwidth
# The 25 first Pages must be first (order not required for others)
BEGIN_DOMAIN 35
us 1212 2215 28986461
ca 59 214 5790993
in 42 224 6223127
ru 24 56 1390268
ua 17 21 372782
nl 10 10 324741
de 9 31 585937
fr 9 9 151050
gb 7 10 50500
cn 7 7 178447
au 6 6 344163
am 4 4 0
cz 4 4 42348
pl 4 4 46309
lv 4 4 142756
th 3 3 71379
br 2 2 35690
vg 2 2 45555
it 2 2 71378
hk 2 2 1
jp 2 2 35689
vn 2 2 32473
eg 2 2 3541
hu 1 1 1
pk 1 1 0
no 1 1 1
ir 1 1 1
es 1 1 3540
id 1 1 1
cm 1 1 35689
ec 1 1 1
tr 1 1 1
kr 1 1 1
se 1 1 1
ph 1 1 35689
END_DOMAIN

# Cluster ID - Pages - Hits - Bandwidth
BEGIN_CLUSTER 0
END_CLUSTER

# Login - Pages - Hits - Bandwidth - Last visit
# The 10 first Pages must be first (order not required for others)
BEGIN_LOGIN 0
END_LOGIN

# Robot ID - Hits - Bandwidth - Last visit - Hits on robots.txt
# The 25 first Hits must be first (order not required for others)
BEGIN_ROBOT 22
Googlebot/ 271 5831352 20180224052517 23
aiHitBot/ 119 2684961 20180210025456 4
spbot/ 100 2597568 20180221120501 4
bingbot/ 88 2161122 20180220192206 11
YandexBot/ 49 558183 20180224092158 33
bingpreview 47 980678 20180218180324 0
AhrefsBot/ 44 647541 20180224093309 6
Baiduspider/ 32 1014461 20180223104204 0
DotBot/ 26 362756 20180224064543 14
360Spider 23 820847 20180223233737 0
no_user_agent 23 381377 20180223230134 0
MJ12bot/ 14 300872 20180219211759 4
YandexImages/ 12 6609 20180223093826 0
(firefox/)([0-9]\.|[0-1][0]\.) 12 197630 20180218041321 6
unknown 8 536 20180221064511 8
YisouSpider 6 202212 20180219152652 0
SemrushBot/ 4 268 20180221203018 4
SurdotlyBot/ 2 71378 20180221060420 0
Googlebot\-Image/ 2 41982 20180220124559 0
feed 2 3222 20180216084211 0
SurveyBot/ 2 35756 20180206203438 1
Python\-urllib/ 1 36613 20180210115945 0
END_ROBOT

# Worm ID - Hits - Bandwidth - Last visit
# The 5 first Hits must be first (order not required for others)
BEGIN_WORMS 0
END_WORMS

# EMail - Hits - Bandwidth - Last visit
# The 20 first Hits must be first (order not required for others)
BEGIN_EMAILSENDER 0
END_EMAILSENDER

# EMail - Hits - Bandwidth - Last visit
# The 20 first hits must be first (order not required for others)
BEGIN_EMAILRECEIVER 0
END_EMAILRECEIVER

# Files type - Hits - Bandwidth - Bandwidth without compression - Bandwidth after compression
BEGIN_FILETYPES 14
xml 5 5225 0 0
php 989 98864 0 0
txt 50 6579 0 0
css 321 12373342 0 0
js 790 12953944 0 0
html 343 7412213 0 0
ttf 8 216392 0 0
Unknown 1 2074 0 0
woff2 8 144224 0 0
eot 3 81375 0 0
woff 90 2327528 0 0
png 31 269398 0 0
gif 6 5082 0 0
jpg 203 9104274 0 0
END_FILETYPES

# Downloads - Hits - Bandwidth
BEGIN_DOWNLOADS 19
/.well-known/pki-validation/9E5F095B285119FAD2C8917D7519E382.txt 14 0 1078
/.well-known/pki-validation/835AF3E92BEB9CC022A3D84DE634E6EC.txt 6 0 462
/.well-known/pki-validation/403D0920A282E197E852BE3D0F41D879.txt 5 0 385
/.well-known/pki-validation/11445C2EF29A2C7D89B0F9CAF9365A0C.txt 4 0 308
/wp-content/plugins/contact-form-7/license.txt 4 0 3180
/.well-known/pki-validation/6585CEA88B918B5A47DF199BBDD7D5D6.txt 3 0 231
/.well-known/pki-validation/D19F7A738A00E0308725698580517B58.txt 2 0 154
/.well-known/pki-validation/0AAB50744B9B11EC24B7D69AE8E02727.txt 1 0 64
/.well-known/pki-validation/83D66202FC63D8F52F9673F9924E3E47.txt 1 0 64
/.well-known/pki-validation/4EAB0CEFFE15FCB772D78FFEC971A00D.txt 1 0 77
/.well-known/pki-validation/445304AFDE649655911DDAA473AE1DFF.txt 1 0 64
/.well-known/pki-validation/27393D0703C4222DF12B8EFF45E866D2.txt 1 0 64
/.well-known/pki-validation/7926458D15332C05E3733FDC50E9E0A4.txt 1 0 64
/.well-known/pki-validation/E46C14A2E2A8803B2918A58024F29FEA.txt 1 0 64
/.well-known/pki-validation/C0B458D65C2BB89A8E44FC660A72273D.txt 1 0 64
/.well-known/pki-validation/71AC1073CE41B2EFE52B1BEA7CEC74C4.txt 1 0 64
/.well-known/pki-validation/36F5A91829C36051B47FF26584EAF5CB.txt 1 0 64
/.well-known/pki-validation/59531454F96EDF482D888D6FF54B7C77.txt 1 0 64
/.well-known/pki-validation/9A4566B8B1E94CF81930B61584E2CB3A.txt 1 0 64
END_DOWNLOADS

# OS ID - Hits
BEGIN_OS ID - Hits - Pages 24
win7 133 49
winxp 62 19
Unknown 1089 1021
macosx12 11 11
linuxubuntu 2 0
wince 1 1
macosx9 8 8
winnt 6 6
winme 3 3
win8 2 2
macosx8 1 1
win10 968 145
win95 2 2
macosx7 6 6
winlong 7 7
macosx6 3 3
win98 3 3
win2000 4 4
linux 223 73
linuxandroid 296 65
ios_iphone 3 3
macosx 5 5
macosx10 1 1
win8.1 9 9
END_OS

# Browser ID - Hits - Pages
BEGIN_BROWSER 84
opera8.71 1 1
firefox33.0 4 4
chrome36.0.813.0 1 1
chrome62.0.3202.94 9 9
chrome21.0.1180.82 3 3
safari5.0.4 1 1
chrome12.0.742.53 1 1
firefox32.0 2 2
chrome51.0.2704.84 1 1
chrome12.0.742.112 1 0
chrome62.0.3202.89 48 6
opera49.0.2711.0 4 4
chrome58.0.1145.75 1 1
msie8.0 73 11
chrome13.0.782.220 1 0
chrome12.0.742.100 1 1
chrome54.0.2840.99 5 5
chrome37.0.2062.120 6 6
edge36 2 2
chrome58.0.3029.83 58 11
chrome41.0.2228.0 32 10
firefox57.0 3 3
msie7.0 3 3
chrome38.0.887.0 1 1
chrome22.0.1229.94 38 6
chrome34.0.1847.131 1 1
wap 23 1
safari 48 6
chrome10.0.634.0 1 1
chrome63.0.3239.132 172 37
android 40 1
firefox36.0 3 3
chrome10.0.611.0 1 0
chrome38.0.2125.101 44 12
opera9.45 1 1
chrome37.0.896.0 1 1
chrome46.0.2754.75 2 2
opera8.39 1 1
opera8.15 1 1
chrome36.0.873.0 1 1
chrome57.0.2987.108 9 6
opera8.30 1 1
mozilla 14 14
opera36.0.2130.32 4 4
firefox50.0 2 2
opera12.17 1 1
chrome51.0.2704.81 67 18
chrome57.0.2987.98 2 2
chrome49.0.2623.75 22 22
safari4.0 1 1
chrome45.0.2454.94 1 1
chrome58.0.3029.110 3 3
msie11.0 3 3
chrome59.0.3071.125 58 11
opera8.11 1 1
safari9.0 3 3
msie6.0 51 9
firefox11.0 1 0
firefox45.0 4 4
chrome50.0.2661.75 10 10
chrome55.0.2883.87 2 2
opera9.57 1 1
msie9.0 12 12
msie10.0 3 3
chrome61.0.3163.100 11 11
safari4.0.1 1 1
chrome40.0.829.0 1 1
Unknown 1052 1006
chrome52.0.2743.116 774 86
chrome62.0.3202.84 63 17
safari5.0 1 1
firefox42.0 3 3
chrome13.0.782.20 1 0
opera8.89 1 1
opera8.79 1 1
chrome37.0.861.0 2 2
chrome39.0.873.0 1 1
firefox37.0 2 2
firefox35.0 6 6
msie5.0 1 1
chrome19.0.1063.0 1 1
chrome36.0.858.0 1 1
chrome5.0.375.99 3 3
firefox29.0 6 6
END_BROWSER

# Screen size - Hits
BEGIN_SCREENSIZE 0
END_SCREENSIZE

# Unknown referer OS - Last visit date
BEGIN_UNKNOWNREFERER 10
Mozilla/5.0_(compatible;_Dataprovider.com;) 20180208124111
WordPress/4.7.2;_http://asianblue.in 20180224093309
}__test|O:21:\ 20180217162302
Mozilla/5.0_(compatible;_NetcraftSurveyAgent/1.0;__info@netcraft.com) 20180202221103
redback/v0-570-g26f8c96 20180209070339
python-requests/2.18.1 20180206083551
Mozilla/5.0_(compatible;_Wappalyzer) 20180219063047
Mozilla/3.0_(compatible;_Indy_Library) 20180219043258
ltx71_-_(http://ltx71.com/) 20180221064521
COMODO_DCV 20180215215522
END_UNKNOWNREFERER

# Unknown referer Browser - Last visit date
BEGIN_UNKNOWNREFERERBROWSER 6
ltx71_-_(http://ltx71.com/) 20180221064521
redback/v0-570-g26f8c96 20180209070339
COMODO_DCV 20180215215522
python-requests/2.18.1 20180206083551
WordPress/4.7.2;_http://asianblue.in 20180224093309
}__test|O:21:\ 20180217162302
END_UNKNOWNREFERERBROWSER

# Origin - Pages - Hits 
BEGIN_ORIGIN 6
From0 208 303
From1 20 62
From2 4 4
From3 11 11
From4 1204 2468
From5 0 0
END_ORIGIN

# Search engine referers ID - Pages - Hits
BEGIN_SEREFERRALS 3
bing 1 1
yandexru 1 1
www_google_co_in 2 2
END_SEREFERRALS

# External page referers - Pages - Hits
# The 25 first Pages must be first (order not required for others)
BEGIN_PAGEREFS 4
http://pizza-tycoon.com 3 3
http://site.ru 3 3
http://burger-imperia.com 3 3
http://104.37.189.66 2 2
END_PAGEREFS

# Search keyphrases - Number of search
# The 10 first number of search must be first (order not required for others)
BEGIN_SEARCHWORDS 0
END_SEARCHWORDS

# Search keywords - Number of search
# The 25 first number of search must be first (order not required for others)
BEGIN_KEYWORDS 0
END_KEYWORDS

# Errors - Hits - Bandwidth
BEGIN_ERRORS 11
302 13 0
500 3 3601
503 1757 4184885
403 98 22148
301 115 0
206 2 69234
404 528 9894721
400 5 0
405 1 42
401 6 648
408 5 0
END_ERRORS

# URL with 404 errors - Hits - Last URL referrer
BEGIN_SIDER_404 296
/wp-content/plugins/front-end-upload/destination.php 4 -
/scc.php 2 http://site.ru
/wp-admin/maint/repost.php 2 http://site.ru
/ecss.php 1 asianblue.in
/db-config.php 2 http://site.ru
/wp-content/plugins/simple-ads-manager/sam-ajax-admin.php 3 -
/wp-content/themes/wp-conns.php 2 asianblue.in
/wp-content/plugins/zingiri-web-shop/admin.css 2 -
/532299.php 1 http://site.ru
/wp-content/plugins/wp-db-backup-made/system.php 3 http://site.ru
/index8632.php 2 http://site.ru
/administrator/includes/readmy.php 1 asianblue.in
/wp-admin/user/fronqx.php 2 asianblue.in
/wp-content/endurance-page-cache/author/betcrooks/gheds.php 1 http://site.ru
/db_z.php 1 asianblue.in
/xml.php 1 asianblue.in
/wp-includes/css/login_wall.php 2 asianblue.in
/casual-shirts/bi-stand-linen-shirts 1 -
/images/CONFIGURATIONS.php 1 asianblue.in
/404.php 1 http://site.ru
/wp-includes/theme-compat/images.php 1 http://site.ru
/wp-content/plugins/delete-all-comments/readme.txt 2 -
/wp-index.php 1 asianblue.in
/function-sync.php 1 asianblue.in
/modules/megamenu/uploadify/uploadify.php 1 -
/wp-content/plugins/category-grid-view-gallery/cat_grid.php 2 -
/mod_config.php.suspected 1 http://site.ru
/wp-content/themes/version.php 1 -
/wp-includes/Text/index.php 2 asianblue.in
/wp-content/themes/maxbusiness/db.php 1 asianblue.in
/store/ 2 -
/wp-content/plugins/magic-fields/MF_Constant.php 2 -
/wp-content/themes/theagency/includes/uploadify/uploadify.php 1 http://asianblue.in/wp-content/themes/theagency/includes/uploadify/uploadify.php
/info.php 2 http://site.ru
/Marvins.php 1 http://site.ru
/ 37 -
/hexhglal.php 1 http://site.ru
/wp-content/plugins/hello.php 1 asianblue.in
/wp-content/plugins/rnnvhs.php 1 asianblue.in
/wp-includes/SimplePie/Decode/HTML/daabug.php 1 http://site.ru
/wp-content/themes/shop-isle/assets/js/vendor/%25url%25 1 -
/tmp.php 2 asianblue.in
/install/models.php 1 http://site.ru
/wp-content/plugins/wp-property/third-party/uploadify/uploadify.php 5 -
/wp-content/plugins/php-event-calendar/css/file-uploader/jquery.fileupload.css 1 -
/wp-content/plugins/dzs-videogallery/admin/upload.php 6 -
/data.php 1 http://site.ru
/wp-includes/Text/Diff/Engine/ass.php 1 http://site.ru
/wp-includes/Text/Diff/Engine/meta.php 1 http://site.ru
/wp-content/plugins/google-maps-by-daniel-martyn/inuse.php 5 -
/wp-content/plugins/contus-hd-flv-player/uploadVideo.php 3 -
/wp-content/plugins/codecanyon-157782-video-gallery-wordpress-plugin-w-youtube-vimeo-/upload.php 2 -
/sitemap.xml 1 -
/log.php 2 http://site.ru
/wp-content/plugins/gravityforms/css/preview.css 1 -
/blog/wp-admin/setup-config.php 1 -
/wp-api.php 1 http://site.ru
/search.php 1 asianblue.in
/config.php 1 http://site.ru
/cache/iph.php 1 asianblue.in
/wp-content/plugins/szalog.php 1 asianblue.in
/wp-admin/user/reader.php 1 http://site.ru
/inlos.php 1 asianblue.in
/mod_ariimageslidersa.php 2 http://site.ru
/wp-content/plugins/oneplagine/akismet.php 1 asianblue.in
/ass.php 2 http://site.ru
/miwed.php 2 http://site.ru
/wp-content/plugins/wp-login-att-log/db.php 1 asianblue.in
/wp-content/plugins/formcraft/file-upload/server/content/upload.php 2 -
/customizer.php 2 http://site.ru
/cron.php 1 http://site.ru
/wp-includes/Text/Diff/Engine/config.php 1 http://site.ru
/downloader/ 1 -
/wp-content/plugins/real3d-flipbook/includes/process.php 3 -
/wp-content/jssor-slider/jssor-uploads/S1asa.php 1 -
/wp-includes/js/jcrop/jquery.Jcrop.php 2 http://site.ru
/wordpress/wp-content/plugins/easyrotator-for-wordpress/indox.php 1 http://site.ru
/wp-content/uploads/2018/01/zgepd_oddsd.php 1 http://asianblue.in/wp-content/uploads/2018/01/zgepd_oddsd.php
/wp-content/plugins/wp-property/action_hooks.php 2 -
/wp-content/plugins/simple-dropbox-upload-form/ 2 -
/formal%20Checks%20shirt%20,checks%20shirts,%20cotton%20shirts 1 -
/wp-content/plugins/resume-submissions-job-postings/installer.php 2 -
/infos.php 1 asianblue.in
/wp-content/plugins/mm-forms-community/includes/doajaxfileupload.php 6 http://asianblue.in/wp-content/plugins/mm-forms-community/includes/doajaxfileupload.php
/defined.php 1 http://site.ru
/wp-content/plugins/mac-dock-gallery/bugslist.txt 2 -
/modules/simpleslideshow/uploadimage.php 1 -
/wp-content/jssor-slider/jssor-uploads/S0z5X.php 1 -
/ajax-requests.new.php 1 http://site.ru
/wp-content/themes/annotum-baes/xml_rpc.class.php 1 http://site.ru
/wp-content/plugins/500.php 1 asianblue.in
/pic.php 1 asianblue.in
/wp-content/plugins/wp-image-news-slider/functions.php 2 -
/random.php 1 asianblue.in
/x.php 3 http://site.ru
/wp-content/plugins/auto-attachments/a-a.css 2 -
/indax.php 1 asianblue.in
/wp-includes/class.wp-tmps.php 1 asianblue.in
/wp-content/plugins/cherry-plugin/admin/import-export/upload.php 4 -
/wp-content/wp-caches.php 1 http://asianblue.in/wp-content/wp-caches.php
/Babbitts.php 1 http://site.ru
/administrator/ 1 -
/wp-content/plugins/wp-symposium/server/php/nVaFvUsvcQGRan.php 1 -
/wp-content/plugins/user-meta/readme.txt 2 -
/wp-content/plugins/three-column-screen-layout/db.php.suspected 1 http://site.ru
/wp-content/plugins/wp-symposium/server/php/ORCnBeTrDyLbtD.php 1 -
/wp-content/plugins/wp-mobile-detector/cache/db.php 2 -
/categories.php 2 http://site.ru
/hello.php 1 http://site.ru
/wp/wp-admin/setup-config.php 1 -
/formal-shirts 3 -
/pasts.php 2 http://site.ru
/wp-includes/pomo/w7388n.php 1 asianblue.in
/wp-admin/images/cache.php 1 http://site.ru
/home.php 1 http://site.ru
/wp-content/uploads/catalog_enquiry/8pfre.php 1 -
/newvercion 1 http://ya.ru/
/wp-content/plugins/dzs-portfolio/admin/upload.php 7 -
/wp-content/plugins/gallery-plugin/upload/php.php 2 -
/wp-blog-posts.php 2 http://site.ru
/eladm.php 1 http://site.ru
/mide.php 1 http://site.ru
/wp-content/plugins/ip-logger/chart/ofc_upload_image.php 1 http://asianblue.in/wp-content/plugins/ip-logger/chart/ofc_upload_image.php
/wp-content/pictur.php 1 asianblue.in
/blogs/wp-admin/setup-config.php 1 -
/wp-content/plugins/formcraft/file-upload/server/php/upload.php 2 -
/wp-content/uploads/logo_img.php 1 http://site.ru
/wp-content/plugins/sfwd-lms/assets/css/style.css 1 -
/wp-includes/js/thickbox/thickbox.php 1 http://site.ru
/modules/columnadverts/uploadimage.php 1 -
/assets/global/plugins/jquery-file-upload/server/node/server.js 1 -
/wp-content/plugins/codecanyon-157782-video-gallery-wordpress-plugin-w-youtube-vimeo-/admin/upload.php 3 -
/wp-content/uploads/catalog_enquiry/1gazk.php 1 -
/wp-content/plugins/groupsassembly/js/js.php 1 asianblue.in
/parseopml/popup-pomo.php 1 http://site.ru
/wp-content/plugins/wp-db-ajax-made/wp-ajax.php 2 http://site.ru
/admin.php 3 http://site.ru
/generationmap.php 1 http://site.ru
/wp-content/plugins/revslider/temp/update_extract/revslider/db.php 2 -
/yjh.php 1 asianblue.in
/content-post.php 2 http://site.ru
/wp-content/plugins/wp-editor/readme.txt 2 -
/wp-cache.php 1 asianblue.in
/wp-admin/home.bak.php 1 asianblue.in
/wp-includes/js/tinymce/plugins/media/update.php 1 http://site.ru
/wp-admin/network/rnnvhs.php 1 asianblue.in
/wp-content/themes/rayoflight-butiala-theme/css/style.css 1 http://asianblue.in/wp-content/themes/rayoflight-butiala-theme/css/style.css
/modules/homepageadvertise2/uploadimage.php 1 -
/wp-content/plugins/sharexy/ajaxresponder.php 2 -
/wp-content/plugins/up.php 1 http://asianblue.in/wp-content/plugins/up.php
/pols.php 1 asianblue.in
/site/wp-admin/setup-config.php 1 -
/wp-content/plugins/wpstorecart/php/upload.php 3 -
/wp-content/plugins/plugin/info.php 1 http://site.ru
/wp-content/uploads/catalog_enquiry/7qyak.php 1 -
/wp-content/plugins/wp-db-ajax-made%2Fwp-db-backup.php 1 asianblue.in
/ads.txt 1 -
/wp-content/plugins/font-uploader/font-upload.php 2 -
/wp-content/themes/error-log.php 1 asianblue.in
/wp-content/themes/sketch/404.php 2 asianblue.in
/wp-content/plugins/php-event-calendar/server/file-uploader/ 2 -
/wp-logout.php 1 http://site.ru
/modx.php 1 http://site.ru
/formal-shirts/twil-plan-shirts 1 -
/wp-content/plugins/myshe.php 1 asianblue.in
/templates/protostar/js/templateDetails.php 1 asianblue.in
/wp-content/plugins/cherry-plugin/admin/import-export/2jRAB.php 1 -
/wp-content/uploads/cache/wpml/twig/Marvins.php 2 http://site.ru
/wp-content/plugins/jetpack/_inc/jetpack-icons/font/server.php 1 http://site.ru
/wp-includes/images/hon2our.php 1 asianblue.in
/image/cache/data/xasianblue-0656-400x400.jpg.pagespeed.ic.8Yc66UJSDM.jpg 1 -
/test/wp-admin/setup-config.php 1 -
/modules/vtemslideshow/uploadimage.php 1 -
/wp-content/plugins/user-photo/admin.css 2 -
/wp-content/themes/twentyfifteen/js/hfnrnd.php 2 http://site.ru
http://asianblue.in/wp-content/plugins/codecanyon-157782-video-gallery-wordpress-plugin-w-youtube-vimeo-/admin/upload.php 1 -
/s.php 1 http://site.ru
/casual-shirts/big-checks-shirts 1 -
/wp-content/plugins/woopra/inc/php-ofc-library/ofc_upload_image.php 1 http://asianblue.in/wp-content/plugins/woopra/inc/php-ofc-library/ofc_upload_image.php
/wp-content/plugins/cherry-plugin/admin/import-export/qPsnq.php 2 -
/class-wp-defaults.php 1 http://site.ru
/dbss.php 1 asianblue.in
/wp-content/plugins/custom-content-type-manager/index.html 2 -
/wp-version.php 2 asianblue.in
/wp-content/common.php 1 http://asianblue.in/wp-content/common.php
/wp-content/uploads/catalog_enquiry/joce6.php 1 -
/wp-includes/js/tinymce/global.php 1 asianblue.in
/wp-content/plugins/simple-ads-manager/js/slider/tmpl.js 2 -
/old/wp-content/plugins/easyrotator-for-wordpress/wj.php 2 http://site.ru
/wordpress/wp-content/plugins/easyrotator-for-wordpress/wj.php 3 http://site.ru
/wp-content/plugins/ckeditor-for-wordpress/ckeditor.config.js 2 -
http://asianblue.in/wp-content/plugins/gallery-slider/register.php 1 -
/wp-content/plugins/social-mobile-messaging-bar/assets/js/main.js 1 -
/hivcxa.php 2 asianblue.in
/v3.php 2 http://site.ru
//wp-content/plugins/gallery-slider/register.php 1 -
/smalls.php 2 asianblue.in
/wp-content/plugins/apikey/apikey.php 2 asianblue.in
/wp-includes/Text/Diff/Engine/engine.php 1 http://site.ru
/wordpress/wp-admin/setup-config.php 1 -
/error-logs.php 1 asianblue.in
/wp-content/plugins/woocommerce/dummy_data.xml 4 -
/modules/advancedslider/ajax_advancedsliderUpload.php 1 -
/beta/wp-admin/setup-config.php 1 -
/wp-content/themes/rockstar-theme/style.css 1 http://asianblue.in/wp-content/themes/rockstar-theme/style.css
/wp-content/plugins/cherry-plugin/admin/import-export/oO1nN.php 2 -
/wp-content/plugins/wp-slimstat-ex/lib/ofc/php-ofc-library/ofc_upload_image.php 1 http://asianblue.in/wp-content/plugins/wp-slimstat-ex/lib/ofc/php-ofc-library/ofc_upload_image.php
/wp-content/plugins/wp-cache.php 1 asianblue.in
/page.php 2 http://site.ru
/wp-help.php 1 asianblue.in
/wp-content/plugins/cherry-plugin/admin/import-export/EZlqs.php 1 -
/casual-shirts/w-checks-shirts 1 -
/js.php 1 http://site.ru
/css.php 2 http://site.ru
/wp-content/plugins/cardoza-facebook-like-box/cardoza_facebook_like_box.php 5 -
/wp-content/plugins/gallery-slider/register.php 4 -
/df.php 1 http://site.ru
/ekomi/popup-pomo.php 1 http://site.ru
/options.php 1 asianblue.in
/wp-content/plugins/upgrade-network.php 1 asianblue.in
/iccoin/config.php 1 asianblue.in
/wp-content/uploader.php 1 http://asianblue.in/wp-content/uploader.php
/wp-content/plugins/another-wordpress-classifieds-plugin/AWPCP.po 2 -
/error.php 1 http://site.ru
/gallery.php 2 http://site.ru
/test/wp-content/plugins/easyrotator-for-wordpress/indox.php 1 http://site.ru
/sph.php 1 asianblue.in
/wp-content/plugins/nextgen-gallery/changelog.txt 2 -
/therm.php 4 http://site.ru
/wp-content/plugins/cimy-user-extra-fields/README_OFFICIAL.txt 2 -
/blog/xmlrpc.php 1 -
/wp-content/themes/reganto-theme/style.css 1 http://asianblue.in/wp-content/themes/reganto-theme/style.css
/wp-includes/Text/Diff/Engine/yusa.php 2 http://site.ru
/wp-content/uploads/user_uploads/WTr7B.php.png 1 -
/wp-content/plugins/dzs-portfolio/upload.php 6 -
/ab-k-16-c-3-19 2 -
/wp-content/plugins/reflex-gallery/admin/scripts/FileUploader/php.php 1 -
/c.php 1 http://site.ru
/wp-admin/css/colors/blue/Marvins.php 2 http://site.ru
/wp-content/plugins/page-google-maps/pr.php 7 -
/wp-content/plugins/wpmarketplace/readme.txt 4 -
/wp-content/plugins/cardoza-facebook-like-box/custom-css/xo.php 3 -
/catalog/ 2 -
/old/wp-admin/setup-config.php 1 -
/wp-content/plugins/dzs-videogallery/upload.php 7 -
/wp-includes/Text/Tiff.php 1 -
/wp-post.php 1 asianblue.in
/wp-pols.php 2 asianblue.in
/cart/ 2 -
/wp-content/plugins/wpfoot.php 1 asianblue.in
/modules/homepageadvertise/uploadimage.php 1 -
/wp-includes/class.wp-times.php 1 asianblue.in
/mary.php 1 http://site.ru
/wp-content/plugins/ninja-forms/ninja_forms.php 2 -
/wp-content/uploads/user_uploads/CmMFI.php.png 2 -
/about_us 2 -
/wp-content/plugins/wp-e-commerce/license.txt 2 -
/wp-content/bacot.php 4 http://site.ru
/wp-includes/js/jcrop/jcrop.php 2 http://site.ru
/wp-content/plugins/mailpress/mp-includes/action.php 4 -
/blog/wordpress/wp-admin/setup-config.php 1 -
/wp-content/plugins/wp-homepage-slideshow/functions.php 2 -
/wp-admin/logo_img.php 1 http://asianblue.in/wp-admin/logo_img.php
/modules/modules.php 1 asianblue.in
/wp-content/plugins/fcchat/default.png 2 -
/.index.php 1 -
/wp-sbb.php 1 asianblue.in
/license.php 1 http://site.ru
/cgi.php 1 http://site.ru
/wp-content/plugins/wp-filemanager/fm.php 2 -
/aul.php 1 http://site.ru
/wp-admin/includes/lock46.php 1 asianblue.in
/wp-content/plugins/uploader/uploadify/uploadify.php 2 -
/components/com_adsmanager/js/noconflict.js 3 -
/wp-admin/includes/rnnvhs.php 1 asianblue.in
/wp-content/plugins/ubh/Marvins.php 7 http://site.ru
/wp-content/plugins/nmedia-user-file-uploader/readme.txt 2 -
/config.php.suspected 5 http://site.ru
/elfinder/php/connector.php 1 http://asianblue.in/elfinder/php/connector.php
/administrator/components/com_joomlaupdate/restore.php 1 -
/wp-content/plugins/gallery-plugin/gallery-plugin.php 2 -
/wp-content/plugins/wpstorecart/lgpl.txt 2 -
/wp-content/plugins/wp-handy-lightbox/begin.php 5 -
/wp-content/plugins/showbiz/temp/update_extract/Ahaxf.php 1 -
/tip.php 1 asianblue.in
/wp-content/plugins/font-uploader/font-uploader-free.php 2 -
/wp-admin/includes/wp-cods.php 1 asianblue.in
/food.php 2 http://site.ru
/wp-content/plugins/wp-file-manager/js/fm_script.js 1 -
/wp-admin/css/colors/ectoplasm/smile.php 1 http://site.ru
/casual-shirts/linen-line-shirts 3 -
/ab-a-07-c-6-8-c 2 -
/cms/wp-admin/setup-config.php 1 -
/wp-content/plugins/user-avatar/readme.txt 2 -
/wp-includes/js/tinymce/plugins/wpview/diff.php 1 asianblue.in
/abouts-uis/ 2 -
END_SIDER_404

# Host - Pages - Hits - Bandwidth - Last visit date - [Start date of last visit] - [Last page of last visit]
# [Start date of last visit] and [Last page of last visit] are saved only if session is not finished
# The 25 first Hits must be first (order not required for others)
BEGIN_VISITOR 167
104.37.189.66 998 1041 233508 20180224093309 20180224082200 /wp-cron.php
66.70.182.111 86 774 17910591 20180216054638
103.220.212.77 16 109 3082209 20180220205717
47.247.142.13 15 64 1864424 20180205161720
207.102.138.158 15 79 1929308 20180222115902
167.114.157.79 12 12 384365 20180208124112
13.127.56.49 9 9 273231 20180205043703
13.56.229.65 8 8 285512 20180223150504
64.233.173.19 7 35 946075 20180219070633
64.233.173.21 7 35 814595 20180219070631
107.167.97.203 7 18 718250 20180203192002
66.249.93.6 7 7 249823 20180224065344
204.101.161.159 6 48 1361620 20180213054347
54.165.234.77 6 48 1380156 20180202124513
103.87.130.133 6 38 1076435 20180219110603
199.187.241.236 6 48 1356224 20180218091904
13.67.141.241 5 5 153439 20180215163957
144.76.80.151 5 5 133578 20180205135849
49.15.171.155 5 29 570238 20180202121813
64.233.173.20 5 32 974985 20180219070619
66.249.93.8 4 4 142756 20180212144144
66.249.93.10 4 4 142756 20180219213254
49.15.175.15 4 10 455663 20180202121828
46.183.216.213 4 4 142756 20180206123943
86.49.188.134 4 4 42348 20180213033509
180.153.236.59 1 1 35689 20180201024548
133.242.54.221 1 1 0 20180208152201
129.78.110.124 3 3 107067 20180206092116
54.91.42.184 1 1 35689 20180217101301
46.119.115.251 1 1 35689 20180208015136
194.95.64.251 1 1 35689 20180205092745
212.83.175.182 1 1 3540 20180223081533
118.140.38.6 1 1 0 20180206083551
128.199.124.86 1 1 1304 20180211193323
113.200.72.206 1 1 35689 20180210060755
47.75.0.253 1 1 1 20180217161833
47.206.51.67 1 1 35689 20180208120510
183.89.43.163 1 1 1 20180210055247
188.165.223.75 1 1 35689 20180207005554
66.102.6.51 1 1 35689 20180221065735
217.147.168.33 2 4 72968 20180223121049
195.154.185.239 1 1 35689 20180216015039
5.83.82.227 1 1 3540 20180223205829
49.15.179.71 2 19 632475 20180202121729
69.46.36.20 3 3 33 20180221203041
91.205.173.48 1 1 0 20180208152044
217.147.169.218 2 4 72968 20180205232230
23.95.81.149 1 1 3682 20180216015041
66.249.93.211 1 1 35689 20180221100202
46.118.155.165 3 3 40274 20180213161509
124.163.236.110 1 1 1 20180210055347
45.33.168.38 1 23 416670 20180219063040
91.199.212.132 0 3 231 
107.163.219.133 1 1 16104 20180210055257
167.114.250.199 1 1 35689 20180217162302
71.222.22.178 1 1 1 20180213163808
37.204.152.178 4 36 894692 20180207132148
43.241.28.55 4 4 89660 20180211193324
180.183.50.124 1 1 35689 20180217161758
189.84.113.180 1 1 1 20180223221520
187.84.187.4 1 1 35689 20180217161801
86.110.118.3 1 1 36613 20180210115913
66.249.83.150 1 1 35689 20180217183142
91.121.12.106 1 1 3682 20180218022626
159.203.181.50 2 2 2 20180217161810
128.199.157.152 1 1 1611 20180218075840
5.62.43.19 1 1 3540 20180224015942
117.64.52.39 1 1 1 20180213163924
46.118.119.149 1 1 35689 20180217161827
137.74.168.174 1 1 1 20180223221523
109.236.8.10 2 2 71378 20180209070339
5.188.86.30 1 1 1 20180213163904
64.233.172.159 1 1 35689 20180205220338
42.106.42.237 1 1 484 20180211121600
54.198.61.201 1 1 35689 20180206075356
95.140.203.217 4 4 0 20180211112047
91.200.12.113 2 2 39229 20180221004817
31.184.224.155 1 1 35689 20180205230946
50.31.10.253 1 1 22717 20180223030557
76.3.33.126 1 1 1 20180213163346
173.211.125.47 1 1 35689 20180208010443
50.87.144.152 1 1 6 20180216051914
27.111.35.13 1 1 1 20180210055319
192.126.164.45 2 2 45555 20180221034000
195.22.127.23 3 3 10620 20180202151345
213.136.81.199 1 1 0 20180210055313
213.170.84.42 4 4 142756 20180216031927
185.198.167.29 1 1 35689 20180223163052
50.112.194.65 1 1 35689 20180221064400
204.10.105.9 2 2 0 20180208152630
176.106.216.16 1 1 35689 20180201103414
202.142.149.77 1 1 0 20180217161801
43.224.128.210 1 11 279789 20180219110602
66.102.9.13 1 1 35689 20180201174045
37.187.132.5 1 1 0 20180205213250
5.35.67.28 4 4 75426 20180222013448
185.27.62.20 1 1 1 20180210055242
197.45.161.242 1 1 3540 20180217134401
180.183.98.169 1 1 35689 20180217161827
195.69.9.195 1 1 1 20180217161832
47.247.89.214 1 1 484 20180219065414
136.243.80.221 1 23 416670 20180223145255
222.255.122.58 1 1 32472 20180217161801
46.229.170.197 2 2 71378 20180212021229
180.153.236.157 1 1 35689 20180203025412
66.102.9.10 1 1 35689 20180219081954
89.236.17.108 1 1 1 20180210055334
176.31.107.99 1 1 35716 20180209133025
123.160.233.11 1 1 35689 20180223221957
47.247.131.186 1 1 484 20180214054012
95.211.94.107 2 2 71378 20180219043258
170.130.58.232 2 2 45555 20180213100915
121.144.120.166 1 1 1 20180210055247
121.58.216.234 1 1 35689 20180217161900
41.202.221.22 1 1 35689 20180223221506
186.46.94.18 1 1 1 20180217161802
184.7.243.223 1 1 1 20180213163157
82.115.13.165 1 1 1 20180223221540
115.74.211.141 1 1 1 20180217161755
31.184.224.135 1 1 31145 20180205231125
52.200.221.20 1 1 35689 20180221064349
184.4.95.70 1 1 1 20180213163317
47.247.37.67 1 1 484 20180211151411
138.197.11.23 1 1 35689 20180202221103
34.205.8.60 1 1 1 20180223221446
209.141.46.108 1 1 35689 20180205191228
35.194.1.1 1 1 35689 20180221064521
192.99.55.164 4 4 142756 20180216122205
188.244.6.90 1 1 1 20180217161754
176.235.11.6 1 1 1 20180210055216
66.249.93.213 1 1 35689 20180220120533
158.46.167.114 1 1 35689 20180221010749
89.32.70.157 2 2 45555 20180214221057
5.62.37.30 1 1 3540 20180222111834
93.174.93.71 2 2 71378 20180211192042
195.22.125.135 1 1 35689 20180216225245
154.51.131.142 3 3 107067 20180224020331
62.244.33.2 1 1 1 20180217161816
77.247.181.162 2 2 71378 20180216120803
37.59.178.104 2 2 36734 20180209130524
139.59.42.246 3 3 237096 20180211193326
91.123.157.156 1 1 1 20180213163914
35.186.161.201 1 1 0 20180223221528
103.199.147.122 1 1 1 20180217162018
41.33.230.228 1 1 1 20180210055232
170.84.93.130 1 1 1 20180217161814
113.35.251.98 1 1 35689 20180221065246
5.62.60.126 1 1 3540 20180222191531
89.248.174.138 2 2 39229 20180208124039
8.37.232.233 3 45 1271960 20180211193328
91.240.84.172 2 2 44 20180217082730
183.83.83.39 1 1 35689 20180203023204
173.208.103.177 2 2 45555 20180219003905
51.4.207.124 2 2 36734 20180210195310
204.13.201.137 1 31 797337 20180221064059
124.90.48.167 1 1 35689 20180217163054
192.160.102.166 1 1 35689 20180209162730
34.205.252.72 1 1 1 20180223221504
185.220.101.22 1 1 35689 20180221064105
5.135.143.224 1 1 0 20180208152429
40.85.139.249 3 3 93435 20180221054729
52.74.24.227 1 1 3540 20180212210752
31.184.224.139 1 1 31145 20180205231048
42.106.47.11 1 1 484 20180219070606
98.8.246.84 1 1 0 20180213163806
158.46.214.35 1 1 35689 20180216021628
46.118.115.22 3 3 40274 20180214175204
END_VISITOR

# Date - Pages - Hits - Bandwidth - Visits
BEGIN_DAY 24
20180201 41 41 209698 14
20180202 86 175 3120686 20
20180203 45 92 1839800 19
20180204 38 38 142816 14
20180205 58 109 2624165 24
20180206 42 42 214206 17
20180207 50 82 1001926 16
20180208 61 61 595414 20
20180209 36 36 250967 15
20180210 61 61 228830 24
20180211 65 153 3449641 24
20180212 53 53 217878 13
20180213 70 144 2447574 20
20180214 38 38 86408 14
20180215 71 117 264061 11
20180216 140 829 18261411 19
20180217 119 170 2244496 34
20180218 47 89 1433027 15
20180219 76 140 1985070 21
20180220 24 66 1427602 13
20180221 47 77 1198873 22
20180222 67 99 948458 13
20180223 80 104 732493 25
20180224 32 32 75014 7
END_DAY

# Session range - Number of visits
BEGIN_SESSION 7
30s-2mn 18
15mn-30mn 16
0s-30s 300
1h+ 43
30mn-1h 34
5mn-15mn 8
2mn-5mn 14
END_SESSION

# URL - Pages - Bandwidth - Entry - Exit
# The 25 first Pages must be first (order not required for others)
BEGIN_SIDER 45
/wp-cron.php 490 0 198 200
/wp-admin/admin-ajax.php 464 2634 51 48
/ 253 5275270 137 125
/wp-content/plugins/woocommerce/assets/fonts/star.woff 29 37816 4 2
/wp-content/themes/shop-isle/assets/fonts/ElegantIcons.woff 28 1782592 2 3
/contact-us/ 22 471435 5 7
/wp-content/themes/shop-isle/assets/bootstrap/fonts/glyphicons-halflings-regular.woff 21 491904 1 0
/wp-login.php 17 60464 11 14
/shop/ 13 368997 5 6
/wp-content/themes/shop-isle/assets/fonts/flexslider-icon.woff 12 15216 1 1
/wp-content/themes/shop-isle/assets/bootstrap/fonts/glyphicons-halflings-regular.woff2 8 144224 3 1
/about-us/ 7 145776 1 0
/product/114/ 6 168959 0 2
/enquiry/ 5 85510 0 0
/wp-includes/wlwmanifest.xml 5 5225 0 2
/wp-admin/admin-post.php 4 0 4 4
/product/106/ 4 96157 0 0
/product/red-white-checks/ 4 99331 0 0
/product/checks-branded-shirt/ 4 98085 0 1
/product/red-checks-shirt/ 3 66326 0 0
/product/blue-virus/ 3 64858 1 0
/product/linen-yellow/ 3 65828 0 0
/wp-content/plugins/index.php 3 0 2 2
/product/checks-branded-shirt-copy/ 3 66574 0 0
/product/108/ 3 65656 0 1
/2017/03/ 2 23032 0 0
/wp-includes/theme-compat/embed-content.php 1 6 1 1
/wp-json/oembed/1.0/embed 1 2074 0 1
/product/party-wear-shirt/ 2 33394 0 1
/wp-content/plugins/woocommerce/assets/fonts/star.ttf 2 3024 0 0
/index.php 1 35716 1 1
/comments/feed/ 2 4048 0 2
/wp-content/themes/shop-isle/assets/fonts/flexslider-icon.ttf 2 3784 0 0
/feed/ 1 1611 1 1
/product/brushing-check/ 2 33383 0 0
/wp-content/themes/shop-isle/assets/bootstrap/fonts/glyphicons-halflings-regular.eot 1 20127 0 0
/wp-content/themes/shop-isle/assets/fonts/ElegantIcons.ttf 2 118776 0 0
/wp-json/ 1 177983 0 1
/wp-content/index.php 3 0 3 2
/wp-content/themes/index.php 2 0 1 0
/wp-content/themes/twentysixteen/header.php 2 44 1 1
/wp-content/themes/shop-isle/assets/fonts/ElegantIcons.eot 1 59572 0 1
/wp-content/themes/twentyseventeen/inc/color-patterns.php 2 0 0 2
/wp-content/themes/shop-isle/assets/bootstrap/fonts/glyphicons-halflings-regular.ttf 2 90808 0 0
/wp-content/plugins/woocommerce/assets/fonts/star.eot 1 1676 0 0
END_SIDER
